timeStamp,elapsed,label,responseCode,responseMessage,threadName,dataType,success,failureMessage,bytes,sentBytes,grpThreads,allThreads,Latency,IdleTime,Connect
1536520670047,154,HTTP Request,200,OK,Thread Group 1-1,text,true,,1092,3234,3,3,154,0,81
1536520670066,135,HTTP Request,200,OK,Thread Group 1-2,text,true,,1084,3234,3,3,134,0,58
1536520670167,46,HTTP Request,200,OK,Thread Group 1-3,text,true,,1084,3234,1,1,45,0,1
1536520670267,47,HTTP Request,200,OK,Thread Group 1-4,text,true,,1092,3234,1,1,47,0,1
1536520670369,49,HTTP Request,200,OK,Thread Group 1-5,text,true,,1092,3234,1,1,48,0,1
1536520670468,59,HTTP Request,200,OK,Thread Group 1-6,text,true,,1092,3234,1,1,59,0,1
1536520670568,44,HTTP Request,200,OK,Thread Group 1-7,text,true,,1092,3234,1,1,44,0,2
1536520670669,45,HTTP Request,200,OK,Thread Group 1-8,text,true,,1084,3234,1,1,45,0,2
1536520670770,40,HTTP Request,200,OK,Thread Group 1-9,text,true,,1084,3234,1,1,40,0,1
1536520670870,41,HTTP Request,200,OK,Thread Group 1-10,text,true,,1084,3234,1,1,41,0,1
1536520670971,65,HTTP Request,200,OK,Thread Group 1-11,text,true,,1084,3234,1,1,64,0,1
1536520671071,41,HTTP Request,200,OK,Thread Group 1-12,text,true,,1092,3234,1,1,41,0,1
1536520671173,40,HTTP Request,200,OK,Thread Group 1-13,text,true,,1084,3234,1,1,40,0,1
1536520671272,49,HTTP Request,200,OK,Thread Group 1-14,text,true,,1092,3234,1,1,49,0,1
1536520671374,44,HTTP Request,200,OK,Thread Group 1-15,text,true,,1084,3234,1,1,44,0,1
1536520671474,46,HTTP Request,200,OK,Thread Group 1-16,text,true,,1084,3234,1,1,46,0,2
1536520671575,47,HTTP Request,200,OK,Thread Group 1-17,text,true,,1084,3234,1,1,47,0,2
1536520671681,46,HTTP Request,200,OK,Thread Group 1-18,text,true,,1084,3234,1,1,46,0,3
1536520671783,46,HTTP Request,200,OK,Thread Group 1-19,text,true,,1092,3234,1,1,46,0,2
1536520671882,46,HTTP Request,200,OK,Thread Group 1-20,text,true,,1092,3234,1,1,46,0,1
1536520671984,41,HTTP Request,200,OK,Thread Group 1-21,text,true,,1092,3234,1,1,41,0,1
1536520672088,41,HTTP Request,200,OK,Thread Group 1-22,text,true,,1084,3234,1,1,41,0,1
1536520672194,57,HTTP Request,200,OK,Thread Group 1-23,text,true,,1092,3234,1,1,57,0,2
1536520672289,54,HTTP Request,200,OK,Thread Group 1-24,text,true,,1084,3234,1,1,54,0,1
1536520672389,45,HTTP Request,200,OK,Thread Group 1-25,text,true,,1084,3234,1,1,45,0,1
1536520672488,58,HTTP Request,200,OK,Thread Group 1-26,text,true,,1092,3234,1,1,58,0,1
1536520672589,66,HTTP Request,200,OK,Thread Group 1-27,text,true,,1092,3234,1,1,66,0,2
1536520672690,45,HTTP Request,200,OK,Thread Group 1-28,text,true,,1084,3234,1,1,45,0,1
1536520672789,49,HTTP Request,200,OK,Thread Group 1-29,text,true,,1092,3234,1,1,49,0,1
1536520672890,47,HTTP Request,200,OK,Thread Group 1-30,text,true,,1092,3234,1,1,47,0,1
1536520672991,45,HTTP Request,200,OK,Thread Group 1-31,text,true,,1084,3234,1,1,45,0,2
1536520673091,41,HTTP Request,200,OK,Thread Group 1-32,text,true,,1092,3234,1,1,41,0,1
1536520673191,40,HTTP Request,200,OK,Thread Group 1-33,text,true,,1092,3234,1,1,40,0,1
1536520673291,46,HTTP Request,200,OK,Thread Group 1-34,text,true,,1092,3234,1,1,46,0,7
1536520673392,40,HTTP Request,200,OK,Thread Group 1-35,text,true,,1084,3234,1,1,40,0,1
1536520673492,51,HTTP Request,200,OK,Thread Group 1-36,text,true,,1084,3234,1,1,51,0,1
1536520673591,44,HTTP Request,200,OK,Thread Group 1-37,text,true,,1084,3234,1,1,43,0,1
1536520673694,53,HTTP Request,200,OK,Thread Group 1-38,text,true,,1084,3234,1,1,53,0,1
1536520673794,51,HTTP Request,200,OK,Thread Group 1-39,text,true,,1092,3234,1,1,51,0,1
1536520673894,42,HTTP Request,200,OK,Thread Group 1-40,text,true,,1092,3234,1,1,42,0,1
1536520673994,49,HTTP Request,200,OK,Thread Group 1-41,text,true,,1092,3234,1,1,49,0,1
1536520674095,54,HTTP Request,200,OK,Thread Group 1-42,text,true,,1084,3234,1,1,54,0,1
1536520674197,53,HTTP Request,200,OK,Thread Group 1-43,text,true,,1084,3234,1,1,53,0,1
1536520674299,53,HTTP Request,200,OK,Thread Group 1-44,text,true,,1084,3234,1,1,52,0,1
1536520674407,47,HTTP Request,200,OK,Thread Group 1-45,text,true,,1084,3234,1,1,47,0,1
1536520674506,50,HTTP Request,200,OK,Thread Group 1-46,text,true,,1092,3234,1,1,50,0,1
1536520674620,51,HTTP Request,200,OK,Thread Group 1-47,text,true,,1084,3234,1,1,51,0,1
1536520674726,46,HTTP Request,200,OK,Thread Group 1-48,text,true,,1092,3234,1,1,46,0,1
1536520674831,64,HTTP Request,200,OK,Thread Group 1-49,text,true,,1092,3234,1,1,64,0,2
1536520674937,45,HTTP Request,200,OK,Thread Group 1-50,text,true,,1084,3234,1,1,44,0,1
1536520675042,54,HTTP Request,200,OK,Thread Group 1-51,text,true,,1092,3234,1,1,54,0,1
1536520675145,59,HTTP Request,200,OK,Thread Group 1-52,text,true,,1084,3234,1,1,59,0,1
1536520675246,51,HTTP Request,200,OK,Thread Group 1-53,text,true,,1084,3234,1,1,51,0,2
1536520675357,49,HTTP Request,200,OK,Thread Group 1-54,text,true,,1084,3234,1,1,49,0,1
1536520675459,42,HTTP Request,200,OK,Thread Group 1-55,text,true,,1092,3234,1,1,42,0,1
1536520675558,61,HTTP Request,200,OK,Thread Group 1-56,text,true,,1084,3234,1,1,61,0,2
1536520675659,41,HTTP Request,200,OK,Thread Group 1-57,text,true,,1092,3234,1,1,41,0,2
1536520675760,41,HTTP Request,200,OK,Thread Group 1-58,text,true,,1092,3234,1,1,41,0,1
1536520675860,48,HTTP Request,200,OK,Thread Group 1-59,text,true,,1092,3234,1,1,48,0,3
1536520675961,42,HTTP Request,200,OK,Thread Group 1-60,text,true,,1084,3234,1,1,42,0,1
1536520676062,43,HTTP Request,200,OK,Thread Group 1-61,text,true,,1092,3234,1,1,43,0,1
1536520676163,87,HTTP Request,200,OK,Thread Group 1-62,text,true,,1084,3234,1,1,87,0,1
1536520676262,42,HTTP Request,200,OK,Thread Group 1-63,text,true,,1084,3234,1,1,42,0,1
1536520676363,41,HTTP Request,200,OK,Thread Group 1-64,text,true,,1092,3234,1,1,41,0,1
1536520676464,43,HTTP Request,200,OK,Thread Group 1-65,text,true,,1084,3234,1,1,43,0,1
1536520676565,42,HTTP Request,200,OK,Thread Group 1-66,text,true,,1084,3234,1,1,42,0,1
1536520676665,52,HTTP Request,200,OK,Thread Group 1-67,text,true,,1092,3234,1,1,52,0,1
1536520676764,47,HTTP Request,200,OK,Thread Group 1-68,text,true,,1092,3234,1,1,47,0,1
1536520676864,45,HTTP Request,200,OK,Thread Group 1-69,text,true,,1092,3234,1,1,45,0,1
1536520676965,47,HTTP Request,200,OK,Thread Group 1-70,text,true,,1084,3234,1,1,47,0,1
1536520677065,42,HTTP Request,200,OK,Thread Group 1-71,text,true,,1084,3234,1,1,41,0,1
1536520677165,41,HTTP Request,200,OK,Thread Group 1-72,text,true,,1092,3234,1,1,41,0,1
1536520677269,43,HTTP Request,200,OK,Thread Group 1-73,text,true,,1092,3234,1,1,43,0,1
1536520677372,45,HTTP Request,200,OK,Thread Group 1-74,text,true,,1084,3234,1,1,45,0,1
1536520677472,44,HTTP Request,200,OK,Thread Group 1-75,text,true,,1092,3234,1,1,44,0,1
1536520677580,42,HTTP Request,200,OK,Thread Group 1-76,text,true,,1084,3234,1,1,42,0,1
1536520677684,40,HTTP Request,200,OK,Thread Group 1-77,text,true,,1092,3234,1,1,39,0,2
1536520677784,42,HTTP Request,200,OK,Thread Group 1-78,text,true,,1092,3234,1,1,42,0,2
1536520677884,44,HTTP Request,200,OK,Thread Group 1-79,text,true,,1084,3234,1,1,44,0,1
1536520677991,62,HTTP Request,200,OK,Thread Group 1-80,text,true,,1084,3234,1,1,61,0,2
1536520678088,52,HTTP Request,200,OK,Thread Group 1-81,text,true,,1092,3234,1,1,52,0,1
1536520678202,40,HTTP Request,200,OK,Thread Group 1-82,text,true,,1084,3234,1,1,40,0,1
1536520678302,44,HTTP Request,200,OK,Thread Group 1-83,text,true,,1092,3234,1,1,44,0,1
1536520678404,39,HTTP Request,200,OK,Thread Group 1-84,text,true,,1084,3234,1,1,39,0,1
1536520678504,44,HTTP Request,200,OK,Thread Group 1-85,text,true,,1092,3234,1,1,44,0,1
1536520678606,45,HTTP Request,200,OK,Thread Group 1-86,text,true,,1084,3234,1,1,45,0,2
1536520678706,42,HTTP Request,200,OK,Thread Group 1-87,text,true,,1092,3234,1,1,42,0,1
1536520678807,43,HTTP Request,200,OK,Thread Group 1-88,text,true,,1092,3234,1,1,43,0,1
1536520678909,45,HTTP Request,200,OK,Thread Group 1-89,text,true,,1092,3234,1,1,45,0,1
1536520679008,45,HTTP Request,200,OK,Thread Group 1-90,text,true,,1084,3234,1,1,45,0,1
1536520679110,52,HTTP Request,200,OK,Thread Group 1-91,text,true,,1084,3234,1,1,52,0,1
1536520679221,59,HTTP Request,200,OK,Thread Group 1-92,text,true,,1092,3234,1,1,59,0,1
1536520679311,76,HTTP Request,200,OK,Thread Group 1-93,text,true,,1092,3234,1,1,76,0,2
1536520679420,43,HTTP Request,200,OK,Thread Group 1-94,text,true,,1092,3234,1,1,43,0,1
1536520679521,44,HTTP Request,200,OK,Thread Group 1-95,text,true,,1084,3234,1,1,44,0,1
1536520679628,43,HTTP Request,200,OK,Thread Group 1-96,text,true,,1084,3234,1,1,43,0,2
1536520679732,42,HTTP Request,200,OK,Thread Group 1-97,text,true,,1092,3234,1,1,42,0,1
1536520679832,40,HTTP Request,200,OK,Thread Group 1-98,text,true,,1092,3234,1,1,40,0,1
1536520679932,43,HTTP Request,200,OK,Thread Group 1-99,text,true,,1092,3234,1,1,43,0,2
1536520680033,64,HTTP Request,200,OK,Thread Group 1-100,text,true,,1092,3234,1,1,64,0,1
