timeStamp,elapsed,label,responseCode,responseMessage,threadName,dataType,success,failureMessage,bytes,sentBytes,grpThreads,allThreads,Latency,IdleTime,Connect
1536358562806,345,HTTP Request,200,OK,Thread Group 1-1,text,true,,952,3236,5,5,345,0,305
1536358562816,337,HTTP Request,200,OK,Thread Group 1-2,text,true,,957,3236,5,5,337,0,294
1536358562918,236,HTTP Request,200,OK,Thread Group 1-3,text,true,,952,3236,3,3,236,0,192
1536358563019,136,HTTP Request,200,OK,Thread Group 1-4,text,true,,952,3236,2,2,136,0,92
1536358563126,67,HTTP Request,200,OK,Thread Group 1-5,text,true,,957,3236,1,1,66,0,56
1536358563226,62,HTTP Request,200,OK,Thread Group 1-6,text,true,,952,3236,1,1,62,0,52
1536358563327,61,HTTP Request,200,OK,Thread Group 1-7,text,true,,952,3236,1,1,61,0,51
1536358563427,61,HTTP Request,200,OK,Thread Group 1-8,text,true,,957,3236,1,1,61,0,51
1536358563527,62,HTTP Request,200,OK,Thread Group 1-9,text,true,,952,3236,1,1,62,0,51
1536358563628,61,HTTP Request,200,OK,Thread Group 1-10,text,true,,957,3236,1,1,61,0,50
1536358563728,70,HTTP Request,200,OK,Thread Group 1-11,text,true,,957,3236,1,1,70,0,59
1536358563828,60,HTTP Request,200,OK,Thread Group 1-12,text,true,,957,3236,1,1,60,0,49
1536358563931,61,HTTP Request,200,OK,Thread Group 1-13,text,true,,957,3236,1,1,61,0,50
1536358564032,60,HTTP Request,200,OK,Thread Group 1-14,text,true,,957,3236,1,1,60,0,49
1536358564132,80,HTTP Request,200,OK,Thread Group 1-15,text,true,,957,3236,1,1,80,0,69
1536358564231,75,HTTP Request,200,OK,Thread Group 1-16,text,true,,952,3236,1,1,75,0,64
1536358564332,67,HTTP Request,200,OK,Thread Group 1-17,text,true,,957,3236,1,1,67,0,55
1536358564433,60,HTTP Request,200,OK,Thread Group 1-18,text,true,,957,3236,1,1,60,0,49
1536358564532,62,HTTP Request,200,OK,Thread Group 1-19,text,true,,957,3236,1,1,62,0,49
1536358564634,58,HTTP Request,200,OK,Thread Group 1-20,text,true,,957,3236,1,1,58,0,47
1536358564734,67,HTTP Request,200,OK,Thread Group 1-21,text,true,,952,3236,1,1,67,0,57
1536358564833,70,HTTP Request,200,OK,Thread Group 1-22,text,true,,957,3236,1,1,70,0,57
1536358564935,57,HTTP Request,200,OK,Thread Group 1-23,text,true,,952,3236,1,1,57,0,46
1536358565034,65,HTTP Request,200,OK,Thread Group 1-24,text,true,,957,3236,1,1,65,0,52
1536358565134,58,HTTP Request,200,OK,Thread Group 1-25,text,true,,957,3236,1,1,58,0,47
1536358565236,64,HTTP Request,200,OK,Thread Group 1-26,text,true,,952,3236,1,1,63,0,53
1536358565336,69,HTTP Request,200,OK,Thread Group 1-27,text,true,,952,3236,1,1,69,0,54
1536358565435,79,HTTP Request,200,OK,Thread Group 1-28,text,true,,957,3236,1,1,79,0,62
1536358565537,96,HTTP Request,200,OK,Thread Group 1-29,text,true,,952,3236,1,1,96,0,76
1536358565637,82,HTTP Request,200,OK,Thread Group 1-30,text,true,,952,3236,1,1,82,0,69
1536358565741,63,HTTP Request,200,OK,Thread Group 1-31,text,true,,957,3236,1,1,63,0,52
1536358565843,65,HTTP Request,200,OK,Thread Group 1-32,text,true,,952,3236,1,1,65,0,54
1536358565946,58,HTTP Request,200,OK,Thread Group 1-33,text,true,,957,3236,1,1,58,0,47
1536358566045,59,HTTP Request,200,OK,Thread Group 1-34,text,true,,952,3236,1,1,59,0,48
1536358566148,59,HTTP Request,200,OK,Thread Group 1-35,text,true,,957,3236,1,1,59,0,49
1536358566249,68,HTTP Request,200,OK,Thread Group 1-36,text,true,,952,3236,1,1,68,0,55
1536358566352,75,HTTP Request,200,OK,Thread Group 1-37,text,true,,957,3236,1,1,75,0,62
1536358566453,68,HTTP Request,200,OK,Thread Group 1-38,text,true,,952,3236,1,1,68,0,55
1536358566560,86,HTTP Request,200,OK,Thread Group 1-39,text,true,,952,3236,1,1,86,0,72
1536358566662,73,HTTP Request,200,OK,Thread Group 1-40,text,true,,957,3236,1,1,73,0,63
1536358566762,61,HTTP Request,200,OK,Thread Group 1-41,text,true,,957,3236,1,1,61,0,51
1536358566865,58,HTTP Request,200,OK,Thread Group 1-42,text,true,,952,3236,1,1,58,0,48
1536358566970,58,HTTP Request,200,OK,Thread Group 1-43,text,true,,952,3236,1,1,58,0,48
1536358567070,58,HTTP Request,200,OK,Thread Group 1-44,text,true,,957,3236,1,1,58,0,47
1536358567171,71,HTTP Request,200,OK,Thread Group 1-45,text,true,,957,3236,1,1,71,0,50
1536358567272,59,HTTP Request,200,OK,Thread Group 1-46,text,true,,952,3236,1,1,59,0,49
1536358567374,57,HTTP Request,200,OK,Thread Group 1-47,text,true,,952,3236,1,1,57,0,47
1536358567474,57,HTTP Request,200,OK,Thread Group 1-48,text,true,,952,3236,1,1,57,0,47
1536358567573,64,HTTP Request,200,OK,Thread Group 1-49,text,true,,952,3236,1,1,64,0,49
1536358567675,74,HTTP Request,200,OK,Thread Group 1-50,text,true,,952,3236,1,1,74,0,58
1536358567774,76,HTTP Request,200,OK,Thread Group 1-51,text,true,,952,3236,1,1,76,0,64
1536358567875,82,HTTP Request,200,OK,Thread Group 1-52,text,true,,957,3236,1,1,82,0,65
1536358567977,83,HTTP Request,200,OK,Thread Group 1-53,text,true,,952,3236,1,1,83,0,62
1536358568075,77,HTTP Request,200,OK,Thread Group 1-54,text,true,,957,3236,1,1,77,0,66
1536358568177,60,HTTP Request,200,OK,Thread Group 1-55,text,true,,957,3236,1,1,60,0,48
1536358568276,60,HTTP Request,200,OK,Thread Group 1-56,text,true,,952,3236,1,1,60,0,50
1536358568378,58,HTTP Request,200,OK,Thread Group 1-57,text,true,,957,3236,1,1,58,0,47
1536358568478,58,HTTP Request,200,OK,Thread Group 1-58,text,true,,957,3236,1,1,58,0,49
1536358568579,56,HTTP Request,200,OK,Thread Group 1-59,text,true,,957,3236,1,1,56,0,46
1536358568678,57,HTTP Request,200,OK,Thread Group 1-60,text,true,,952,3236,1,1,57,0,47
1536358568781,58,HTTP Request,200,OK,Thread Group 1-61,text,true,,957,3236,1,1,58,0,48
1536358568881,58,HTTP Request,200,OK,Thread Group 1-62,text,true,,952,3236,1,1,58,0,48
1536358568982,66,HTTP Request,200,OK,Thread Group 1-63,text,true,,952,3236,1,1,66,0,49
1536358569083,102,HTTP Request,200,OK,Thread Group 1-64,text,true,,957,3236,2,2,102,0,85
1536358569183,87,HTTP Request,200,OK,Thread Group 1-65,text,true,,952,3236,1,1,87,0,68
1536358569286,74,HTTP Request,200,OK,Thread Group 1-66,text,true,,952,3236,1,1,74,0,63
1536358569389,59,HTTP Request,200,OK,Thread Group 1-67,text,true,,957,3236,1,1,59,0,48
1536358569489,58,HTTP Request,200,OK,Thread Group 1-68,text,true,,957,3236,1,1,58,0,49
1536358569590,57,HTTP Request,200,OK,Thread Group 1-69,text,true,,952,3236,1,1,57,0,47
1536358569690,60,HTTP Request,200,OK,Thread Group 1-70,text,true,,957,3236,1,1,60,0,47
1536358569789,58,HTTP Request,200,OK,Thread Group 1-71,text,true,,957,3236,1,1,58,0,48
1536358569890,59,HTTP Request,200,OK,Thread Group 1-72,text,true,,957,3236,1,1,59,0,48
1536358569990,70,HTTP Request,200,OK,Thread Group 1-73,text,true,,957,3236,1,1,70,0,47
1536358570090,58,HTTP Request,200,OK,Thread Group 1-74,text,true,,952,3236,1,1,58,0,47
1536358570190,57,HTTP Request,200,OK,Thread Group 1-75,text,true,,957,3236,1,1,57,0,47
1536358570291,58,HTTP Request,200,OK,Thread Group 1-76,text,true,,952,3236,1,1,58,0,48
1536358570391,60,HTTP Request,200,OK,Thread Group 1-77,text,true,,957,3236,1,1,60,0,50
1536358570491,61,HTTP Request,200,OK,Thread Group 1-78,text,true,,957,3236,1,1,61,0,50
1536358570591,56,HTTP Request,200,OK,Thread Group 1-79,text,true,,957,3236,1,1,56,0,46
1536358570692,60,HTTP Request,200,OK,Thread Group 1-80,text,true,,952,3236,1,1,60,0,50
1536358570791,63,HTTP Request,200,OK,Thread Group 1-81,text,true,,952,3236,1,1,63,0,53
1536358570893,58,HTTP Request,200,OK,Thread Group 1-82,text,true,,952,3236,1,1,58,0,48
1536358570997,59,HTTP Request,200,OK,Thread Group 1-83,text,true,,952,3236,1,1,59,0,48
1536358571098,58,HTTP Request,200,OK,Thread Group 1-84,text,true,,957,3236,1,1,57,0,48
1536358571197,58,HTTP Request,200,OK,Thread Group 1-85,text,true,,957,3236,1,1,58,0,48
1536358571298,60,HTTP Request,200,OK,Thread Group 1-86,text,true,,957,3236,1,1,60,0,50
1536358571398,73,HTTP Request,200,OK,Thread Group 1-87,text,true,,957,3236,1,1,73,0,63
1536358571499,57,HTTP Request,200,OK,Thread Group 1-88,text,true,,957,3236,1,1,57,0,47
1536358571609,58,HTTP Request,200,OK,Thread Group 1-89,text,true,,957,3236,1,1,58,0,48
1536358571711,56,HTTP Request,200,OK,Thread Group 1-90,text,true,,952,3236,1,1,56,0,46
1536358571811,56,HTTP Request,200,OK,Thread Group 1-91,text,true,,957,3236,1,1,56,0,46
1536358571911,66,HTTP Request,200,OK,Thread Group 1-92,text,true,,952,3236,1,1,66,0,56
1536358572011,60,HTTP Request,200,OK,Thread Group 1-93,text,true,,952,3236,1,1,60,0,50
1536358572114,57,HTTP Request,200,OK,Thread Group 1-94,text,true,,952,3236,1,1,57,0,47
1536358572217,69,HTTP Request,200,OK,Thread Group 1-95,text,true,,957,3236,1,1,69,0,49
1536358572317,60,HTTP Request,200,OK,Thread Group 1-96,text,true,,952,3236,1,1,60,0,50
1536358572420,58,HTTP Request,200,OK,Thread Group 1-97,text,true,,957,3236,1,1,58,0,49
1536358572521,58,HTTP Request,200,OK,Thread Group 1-98,text,true,,952,3236,1,1,58,0,48
1536358572621,60,HTTP Request,200,OK,Thread Group 1-99,text,true,,952,3236,1,1,60,0,49
1536358572722,57,HTTP Request,200,OK,Thread Group 1-100,text,true,,957,3236,1,1,57,0,47
