timeStamp,elapsed,label,responseCode,responseMessage,threadName,dataType,success,failureMessage,bytes,sentBytes,grpThreads,allThreads,Latency,IdleTime,Connect
1536355940916,393,HTTP Request,200,OK,setUp Thread Group 1-2,text,true,,952,3236,5,5,392,0,360
1536355940895,417,HTTP Request,200,OK,setUp Thread Group 1-1,text,true,,957,3236,4,4,416,0,381
1536355941118,194,HTTP Request,200,OK,setUp Thread Group 1-4,text,true,,952,3236,4,4,194,0,158
1536355941018,295,HTTP Request,200,OK,setUp Thread Group 1-3,text,true,,952,3236,2,2,295,0,258
1536355941218,95,HTTP Request,200,OK,setUp Thread Group 1-5,text,true,,952,3236,1,1,95,0,58
1536355941318,70,HTTP Request,200,OK,setUp Thread Group 1-6,text,true,,952,3236,1,1,70,0,58
1536355941418,65,HTTP Request,200,OK,setUp Thread Group 1-7,text,true,,957,3236,1,1,65,0,55
1536355941518,67,HTTP Request,200,OK,setUp Thread Group 1-8,text,true,,957,3236,1,1,67,0,55
1536355941618,83,HTTP Request,200,OK,setUp Thread Group 1-9,text,true,,952,3236,1,1,83,0,72
1536355941718,61,HTTP Request,200,OK,setUp Thread Group 1-10,text,true,,957,3236,1,1,61,0,50
1536355941815,62,HTTP Request,200,OK,Thread Group 1-1,text,true,,957,3236,1,1,62,0,53
1536355941916,58,HTTP Request,200,OK,Thread Group 1-2,text,true,,957,3236,1,1,57,0,48
1536355942018,64,HTTP Request,200,OK,Thread Group 1-3,text,true,,957,3236,1,1,64,0,54
1536355942118,59,HTTP Request,200,OK,Thread Group 1-4,text,true,,957,3236,1,1,59,0,50
1536355942218,59,HTTP Request,200,OK,Thread Group 1-5,text,true,,957,3236,1,1,59,0,50
1536355942319,61,HTTP Request,200,OK,Thread Group 1-6,text,true,,952,3236,1,1,61,0,49
1536355942419,67,HTTP Request,200,OK,Thread Group 1-7,text,true,,952,3236,1,1,67,0,49
1536355942519,59,HTTP Request,200,OK,Thread Group 1-8,text,true,,952,3236,1,1,59,0,50
1536355942620,58,HTTP Request,200,OK,Thread Group 1-9,text,true,,952,3236,1,1,58,0,48
1536355942720,61,HTTP Request,200,OK,Thread Group 1-10,text,true,,957,3236,1,1,61,0,52
1536355942820,61,HTTP Request,200,OK,Thread Group 1-11,text,true,,952,3236,1,1,61,0,52
1536355942921,61,HTTP Request,200,OK,Thread Group 1-12,text,true,,952,3236,1,1,61,0,51
1536355943020,61,HTTP Request,200,OK,Thread Group 1-13,text,true,,952,3236,1,1,61,0,48
1536355943122,59,HTTP Request,200,OK,Thread Group 1-14,text,true,,952,3236,1,1,59,0,50
1536355943222,59,HTTP Request,200,OK,Thread Group 1-15,text,true,,952,3236,1,1,59,0,50
1536355943322,59,HTTP Request,200,OK,Thread Group 1-16,text,true,,952,3236,1,1,59,0,50
1536355943423,58,HTTP Request,200,OK,Thread Group 1-17,text,true,,957,3236,1,1,58,0,49
1536355943523,63,HTTP Request,200,OK,Thread Group 1-18,text,true,,957,3236,1,1,63,0,49
1536355943623,59,HTTP Request,200,OK,Thread Group 1-19,text,true,,957,3236,1,1,59,0,49
1536355943724,57,HTTP Request,200,OK,Thread Group 1-20,text,true,,952,3236,1,1,57,0,48
1536355943824,61,HTTP Request,200,OK,Thread Group 1-21,text,true,,952,3236,1,1,61,0,52
1536355943924,63,HTTP Request,200,OK,Thread Group 1-22,text,true,,957,3236,1,1,63,0,53
1536355944025,57,HTTP Request,200,OK,Thread Group 1-23,text,true,,957,3236,1,1,57,0,47
1536355944125,58,HTTP Request,200,OK,Thread Group 1-24,text,true,,957,3236,1,1,58,0,49
1536355944227,58,HTTP Request,200,OK,Thread Group 1-25,text,true,,957,3236,1,1,58,0,49
1536355944326,56,HTTP Request,200,OK,Thread Group 1-26,text,true,,952,3236,1,1,56,0,46
1536355944432,65,HTTP Request,200,OK,Thread Group 1-27,text,true,,957,3236,1,1,65,0,48
1536355944533,65,HTTP Request,200,OK,Thread Group 1-28,text,true,,952,3236,1,1,65,0,56
1536355944633,61,HTTP Request,200,OK,Thread Group 1-29,text,true,,952,3236,1,1,61,0,47
1536355944734,59,HTTP Request,200,OK,Thread Group 1-30,text,true,,952,3236,1,1,59,0,50
1536355944835,63,HTTP Request,200,OK,Thread Group 1-31,text,true,,952,3236,1,1,63,0,49
1536355944935,58,HTTP Request,200,OK,Thread Group 1-32,text,true,,957,3236,1,1,58,0,49
1536355945035,59,HTTP Request,200,OK,Thread Group 1-33,text,true,,952,3236,1,1,59,0,49
1536355945137,56,HTTP Request,200,OK,Thread Group 1-34,text,true,,952,3236,1,1,56,0,47
1536355945237,60,HTTP Request,200,OK,Thread Group 1-35,text,true,,957,3236,1,1,60,0,51
1536355945343,59,HTTP Request,200,OK,Thread Group 1-36,text,true,,957,3236,1,1,59,0,49
1536355945438,64,HTTP Request,200,OK,Thread Group 1-37,text,true,,952,3236,1,1,64,0,55
1536355945538,67,HTTP Request,200,OK,Thread Group 1-38,text,true,,957,3236,1,1,67,0,58
1536355945639,58,HTTP Request,200,OK,Thread Group 1-39,text,true,,957,3236,1,1,58,0,49
1536355945739,62,HTTP Request,200,OK,Thread Group 1-40,text,true,,952,3236,1,1,62,0,49
1536355945839,58,HTTP Request,200,OK,Thread Group 1-41,text,true,,957,3236,1,1,58,0,49
1536355945941,57,HTTP Request,200,OK,Thread Group 1-42,text,true,,957,3236,1,1,57,0,48
1536355946042,61,HTTP Request,200,OK,Thread Group 1-43,text,true,,957,3236,1,1,60,0,51
1536355946142,56,HTTP Request,200,OK,Thread Group 1-44,text,true,,952,3236,1,1,56,0,47
1536355946241,57,HTTP Request,200,OK,Thread Group 1-45,text,true,,952,3236,1,1,57,0,48
1536355946341,57,HTTP Request,200,OK,Thread Group 1-46,text,true,,957,3236,1,1,57,0,48
1536355946443,60,HTTP Request,200,OK,Thread Group 1-47,text,true,,957,3236,1,1,60,0,46
1536355946543,66,HTTP Request,200,OK,Thread Group 1-48,text,true,,952,3236,1,1,66,0,50
1536355946643,59,HTTP Request,200,OK,Thread Group 1-49,text,true,,952,3236,1,1,59,0,50
1536355946743,59,HTTP Request,200,OK,Thread Group 1-50,text,true,,952,3236,1,1,59,0,50
1536355946846,56,HTTP Request,200,OK,Thread Group 1-51,text,true,,957,3236,1,1,56,0,47
1536355946944,59,HTTP Request,200,OK,Thread Group 1-52,text,true,,957,3236,1,1,59,0,49
1536355947044,59,HTTP Request,200,OK,Thread Group 1-53,text,true,,952,3236,1,1,59,0,49
1536355947145,57,HTTP Request,200,OK,Thread Group 1-54,text,true,,952,3236,1,1,57,0,48
1536355947247,59,HTTP Request,200,OK,Thread Group 1-55,text,true,,952,3236,1,1,59,0,50
1536355947348,58,HTTP Request,200,OK,Thread Group 1-56,text,true,,952,3236,1,1,58,0,49
1536355947448,58,HTTP Request,200,OK,Thread Group 1-57,text,true,,957,3236,1,1,58,0,49
1536355947548,59,HTTP Request,200,OK,Thread Group 1-58,text,true,,957,3236,1,1,59,0,50
1536355947648,58,HTTP Request,200,OK,Thread Group 1-59,text,true,,957,3236,1,1,58,0,49
1536355947748,60,HTTP Request,200,OK,Thread Group 1-60,text,true,,952,3236,1,1,60,0,49
1536355947848,58,HTTP Request,200,OK,Thread Group 1-61,text,true,,957,3236,1,1,58,0,49
1536355947950,56,HTTP Request,200,OK,Thread Group 1-62,text,true,,952,3236,1,1,56,0,47
1536355948049,58,HTTP Request,200,OK,Thread Group 1-63,text,true,,957,3236,1,1,58,0,49
1536355948149,61,HTTP Request,200,OK,Thread Group 1-64,text,true,,952,3236,1,1,61,0,52
1536355948249,57,HTTP Request,200,OK,Thread Group 1-65,text,true,,952,3236,1,1,57,0,48
1536355948349,58,HTTP Request,200,OK,Thread Group 1-66,text,true,,952,3236,1,1,58,0,49
1536355948450,62,HTTP Request,200,OK,Thread Group 1-67,text,true,,957,3236,1,1,62,0,47
1536355948550,62,HTTP Request,200,OK,Thread Group 1-68,text,true,,957,3236,1,1,62,0,47
1536355948650,56,HTTP Request,200,OK,Thread Group 1-69,text,true,,957,3236,1,1,56,0,47
1536355948750,60,HTTP Request,200,OK,Thread Group 1-70,text,true,,952,3236,1,1,60,0,51
1536355948853,60,HTTP Request,200,OK,Thread Group 1-71,text,true,,957,3236,1,1,60,0,50
1536355948954,56,HTTP Request,200,OK,Thread Group 1-72,text,true,,957,3236,1,1,56,0,47
1536355949055,63,HTTP Request,200,OK,Thread Group 1-73,text,true,,957,3236,1,1,63,0,54
1536355949154,56,HTTP Request,200,OK,Thread Group 1-74,text,true,,952,3236,1,1,56,0,47
1536355949255,55,HTTP Request,200,OK,Thread Group 1-75,text,true,,957,3236,1,1,55,0,46
1536355949355,66,HTTP Request,200,OK,Thread Group 1-76,text,true,,957,3236,1,1,66,0,50
1536355949455,59,HTTP Request,200,OK,Thread Group 1-77,text,true,,957,3236,1,1,59,0,50
1536355949555,59,HTTP Request,200,OK,Thread Group 1-78,text,true,,957,3236,1,1,59,0,50
1536355949656,58,HTTP Request,200,OK,Thread Group 1-79,text,true,,957,3236,1,1,58,0,49
1536355949756,58,HTTP Request,200,OK,Thread Group 1-80,text,true,,957,3236,1,1,58,0,49
1536355949857,56,HTTP Request,200,OK,Thread Group 1-81,text,true,,957,3236,1,1,56,0,48
1536355949957,57,HTTP Request,200,OK,Thread Group 1-82,text,true,,957,3236,1,1,57,0,48
1536355950056,62,HTTP Request,200,OK,Thread Group 1-83,text,true,,957,3236,1,1,62,0,49
1536355950157,59,HTTP Request,200,OK,Thread Group 1-84,text,true,,952,3236,1,1,59,0,48
1536355950263,61,HTTP Request,200,OK,Thread Group 1-85,text,true,,952,3236,1,1,61,0,50
1536355950364,61,HTTP Request,200,OK,Thread Group 1-86,text,true,,957,3236,1,1,61,0,49
1536355950465,57,HTTP Request,200,OK,Thread Group 1-87,text,true,,957,3236,1,1,57,0,48
1536355950565,60,HTTP Request,200,OK,Thread Group 1-88,text,true,,952,3236,1,1,60,0,48
1536355950664,68,HTTP Request,200,OK,Thread Group 1-89,text,true,,957,3236,1,1,68,0,52
1536355950765,57,HTTP Request,200,OK,Thread Group 1-90,text,true,,957,3236,1,1,57,0,48
1536355950866,56,HTTP Request,200,OK,Thread Group 1-91,text,true,,952,3236,1,1,56,0,47
1536355950965,56,HTTP Request,200,OK,Thread Group 1-92,text,true,,952,3236,1,1,56,0,47
1536355951065,56,HTTP Request,200,OK,Thread Group 1-93,text,true,,952,3236,1,1,56,0,47
1536355951165,56,HTTP Request,200,OK,Thread Group 1-94,text,true,,952,3236,1,1,56,0,47
1536355951266,59,HTTP Request,200,OK,Thread Group 1-95,text,true,,952,3236,1,1,59,0,46
1536355951372,57,HTTP Request,200,OK,Thread Group 1-96,text,true,,957,3236,1,1,57,0,48
1536355951474,63,HTTP Request,200,OK,Thread Group 1-97,text,true,,952,3236,1,1,63,0,50
1536355951575,58,HTTP Request,200,OK,Thread Group 1-98,text,true,,957,3236,1,1,58,0,49
1536355951675,59,HTTP Request,200,OK,Thread Group 1-99,text,true,,952,3236,1,1,59,0,50
1536355951775,63,HTTP Request,200,OK,Thread Group 1-100,text,true,,957,3236,1,1,63,0,53
