timeStamp,elapsed,label,responseCode,responseMessage,threadName,dataType,success,failureMessage,bytes,sentBytes,grpThreads,allThreads,Latency,IdleTime,Connect
1536358540882,111,HTTP Request,200,OK,Thread Group 1-4,text,true,,957,3236,5,5,111,0,78
1536358540653,345,HTTP Request,200,OK,Thread Group 1-1,text,true,,952,3236,4,4,345,0,307
1536358540782,216,HTTP Request,200,OK,Thread Group 1-3,text,true,,952,3236,3,3,216,0,178
1536358540682,318,HTTP Request,200,OK,Thread Group 1-2,text,true,,957,3236,2,2,318,0,277
1536358540983,68,HTTP Request,200,OK,Thread Group 1-5,text,true,,957,3236,1,1,68,0,54
1536358541083,61,HTTP Request,200,OK,Thread Group 1-6,text,true,,952,3236,1,1,61,0,50
1536358541184,61,HTTP Request,200,OK,Thread Group 1-7,text,true,,952,3236,1,1,61,0,49
1536358541284,65,HTTP Request,200,OK,Thread Group 1-8,text,true,,952,3236,1,1,65,0,54
1536358541385,60,HTTP Request,200,OK,Thread Group 1-9,text,true,,952,3236,1,1,60,0,49
1536358541485,59,HTTP Request,200,OK,Thread Group 1-10,text,true,,952,3236,1,1,59,0,48
1536358541585,59,HTTP Request,200,OK,Thread Group 1-11,text,true,,952,3236,1,1,59,0,48
1536358541686,61,HTTP Request,200,OK,Thread Group 1-12,text,true,,952,3236,1,1,61,0,51
1536358541788,60,HTTP Request,200,OK,Thread Group 1-13,text,true,,957,3236,1,1,60,0,49
1536358541890,64,HTTP Request,200,OK,Thread Group 1-14,text,true,,952,3236,1,1,64,0,53
1536358541993,59,HTTP Request,200,OK,Thread Group 1-15,text,true,,952,3236,1,1,59,0,48
1536358542093,68,HTTP Request,200,OK,Thread Group 1-16,text,true,,957,3236,1,1,68,0,56
1536358542192,62,HTTP Request,200,OK,Thread Group 1-17,text,true,,957,3236,1,1,62,0,49
1536358542294,58,HTTP Request,200,OK,Thread Group 1-18,text,true,,952,3236,1,1,58,0,47
1536358542396,60,HTTP Request,200,OK,Thread Group 1-19,text,true,,957,3236,1,1,60,0,49
1536358542500,72,HTTP Request,200,OK,Thread Group 1-20,text,true,,952,3236,1,1,72,0,61
1536358542599,61,HTTP Request,200,OK,Thread Group 1-21,text,true,,957,3236,1,1,61,0,50
1536358542699,61,HTTP Request,200,OK,Thread Group 1-22,text,true,,952,3236,1,1,61,0,50
1536358542799,64,HTTP Request,200,OK,Thread Group 1-23,text,true,,957,3236,1,1,64,0,50
1536358542899,61,HTTP Request,200,OK,Thread Group 1-24,text,true,,957,3236,1,1,61,0,50
1536358543001,63,HTTP Request,200,OK,Thread Group 1-25,text,true,,957,3236,1,1,63,0,52
1536358543102,58,HTTP Request,200,OK,Thread Group 1-26,text,true,,952,3236,1,1,57,0,47
1536358543203,62,HTTP Request,200,OK,Thread Group 1-27,text,true,,957,3236,1,1,62,0,50
1536358543303,61,HTTP Request,200,OK,Thread Group 1-28,text,true,,952,3236,1,1,61,0,50
1536358543404,60,HTTP Request,200,OK,Thread Group 1-29,text,true,,952,3236,1,1,60,0,49
1536358543503,61,HTTP Request,200,OK,Thread Group 1-30,text,true,,952,3236,1,1,61,0,50
1536358543604,60,HTTP Request,200,OK,Thread Group 1-31,text,true,,952,3236,1,1,60,0,49
1536358543705,59,HTTP Request,200,OK,Thread Group 1-32,text,true,,952,3236,1,1,59,0,48
1536358543807,56,HTTP Request,200,OK,Thread Group 1-33,text,true,,952,3236,1,1,56,0,46
1536358543906,58,HTTP Request,200,OK,Thread Group 1-34,text,true,,952,3236,1,1,58,0,47
1536358544007,61,HTTP Request,200,OK,Thread Group 1-35,text,true,,957,3236,1,1,61,0,50
1536358544108,60,HTTP Request,200,OK,Thread Group 1-36,text,true,,952,3236,1,1,60,0,49
1536358544207,68,HTTP Request,200,OK,Thread Group 1-37,text,true,,957,3236,1,1,68,0,55
1536358544308,76,HTTP Request,200,OK,Thread Group 1-38,text,true,,957,3236,1,1,76,0,65
1536358544418,58,HTTP Request,200,OK,Thread Group 1-39,text,true,,957,3236,1,1,58,0,47
1536358544520,79,HTTP Request,200,OK,Thread Group 1-40,text,true,,952,3236,1,1,79,0,69
1536358544628,60,HTTP Request,200,OK,Thread Group 1-41,text,true,,952,3236,1,1,60,0,49
1536358544731,57,HTTP Request,200,OK,Thread Group 1-42,text,true,,957,3236,1,1,57,0,46
1536358544832,75,HTTP Request,200,OK,Thread Group 1-43,text,true,,957,3236,1,1,75,0,57
1536358544932,87,HTTP Request,200,OK,Thread Group 1-44,text,true,,952,3236,1,1,87,0,66
1536358545034,90,HTTP Request,200,OK,Thread Group 1-45,text,true,,957,3236,1,1,90,0,69
1536358545133,83,HTTP Request,200,OK,Thread Group 1-46,text,true,,952,3236,1,1,83,0,72
1536358545246,67,HTTP Request,200,OK,Thread Group 1-47,text,true,,957,3236,1,1,67,0,47
1536358545341,62,HTTP Request,200,OK,Thread Group 1-48,text,true,,952,3236,1,1,62,0,48
1536358545458,66,HTTP Request,200,OK,Thread Group 1-49,text,true,,952,3236,1,1,66,0,55
1536358545558,58,HTTP Request,200,OK,Thread Group 1-50,text,true,,957,3236,1,1,58,0,47
1536358545657,62,HTTP Request,200,OK,Thread Group 1-51,text,true,,957,3236,1,1,62,0,48
1536358545761,68,HTTP Request,200,OK,Thread Group 1-52,text,true,,957,3236,1,1,68,0,55
1536358545861,81,HTTP Request,200,OK,Thread Group 1-53,text,true,,952,3236,1,1,81,0,63
1536358545964,90,HTTP Request,200,OK,Thread Group 1-54,text,true,,957,3236,1,1,90,0,68
1536358546064,110,HTTP Request,200,OK,Thread Group 1-55,text,true,,957,3236,2,2,110,0,91
1536358546166,75,HTTP Request,200,OK,Thread Group 1-56,text,true,,952,3236,1,1,75,0,63
1536358546269,63,HTTP Request,200,OK,Thread Group 1-57,text,true,,952,3236,1,1,63,0,52
1536358546374,59,HTTP Request,200,OK,Thread Group 1-58,text,true,,957,3236,1,1,59,0,48
1536358546476,71,HTTP Request,200,OK,Thread Group 1-59,text,true,,952,3236,1,1,71,0,60
1536358546578,57,HTTP Request,200,OK,Thread Group 1-60,text,true,,957,3236,1,1,57,0,47
1536358546685,59,HTTP Request,200,OK,Thread Group 1-61,text,true,,952,3236,1,1,59,0,48
1536358546793,59,HTTP Request,200,OK,Thread Group 1-62,text,true,,957,3236,1,1,59,0,48
1536358546889,58,HTTP Request,200,OK,Thread Group 1-63,text,true,,952,3236,1,1,58,0,48
1536358546993,58,HTTP Request,200,OK,Thread Group 1-64,text,true,,957,3236,1,1,58,0,48
1536358547093,74,HTTP Request,200,OK,Thread Group 1-65,text,true,,957,3236,1,1,74,0,57
1536358547196,77,HTTP Request,200,OK,Thread Group 1-66,text,true,,952,3236,1,1,77,0,60
1536358547297,82,HTTP Request,200,OK,Thread Group 1-67,text,true,,957,3236,1,1,82,0,67
1536358547396,88,HTTP Request,200,OK,Thread Group 1-68,text,true,,957,3236,1,1,88,0,69
1536358547496,111,HTTP Request,200,OK,Thread Group 1-69,text,true,,952,3236,2,2,111,0,94
1536358547598,65,HTTP Request,200,OK,Thread Group 1-70,text,true,,957,3236,1,1,65,0,55
1536358547699,61,HTTP Request,200,OK,Thread Group 1-71,text,true,,952,3236,1,1,61,0,51
1536358547798,58,HTTP Request,200,OK,Thread Group 1-72,text,true,,952,3236,1,1,57,0,47
1536358547898,58,HTTP Request,200,OK,Thread Group 1-73,text,true,,952,3236,1,1,58,0,47
1536358547998,57,HTTP Request,200,OK,Thread Group 1-74,text,true,,957,3236,1,1,57,0,47
1536358548099,67,HTTP Request,200,OK,Thread Group 1-75,text,true,,957,3236,1,1,67,0,47
1536358548200,59,HTTP Request,200,OK,Thread Group 1-76,text,true,,952,3236,1,1,59,0,49
1536358548299,61,HTTP Request,200,OK,Thread Group 1-77,text,true,,952,3236,1,1,61,0,50
1536358548399,61,HTTP Request,200,OK,Thread Group 1-78,text,true,,952,3236,1,1,61,0,50
1536358548500,65,HTTP Request,200,OK,Thread Group 1-79,text,true,,952,3236,1,1,65,0,52
1536358548605,70,HTTP Request,200,OK,Thread Group 1-80,text,true,,957,3236,1,1,70,0,57
1536358548710,71,HTTP Request,200,OK,Thread Group 1-81,text,true,,957,3236,1,1,71,0,56
1536358548810,65,HTTP Request,200,OK,Thread Group 1-82,text,true,,957,3236,1,1,65,0,55
1536358548910,57,HTTP Request,200,OK,Thread Group 1-83,text,true,,957,3236,1,1,57,0,47
1536358549010,61,HTTP Request,200,OK,Thread Group 1-84,text,true,,952,3236,1,1,61,0,51
1536358549111,60,HTTP Request,200,OK,Thread Group 1-85,text,true,,952,3236,1,1,60,0,50
1536358549212,60,HTTP Request,200,OK,Thread Group 1-86,text,true,,952,3236,1,1,60,0,50
1536358549312,59,HTTP Request,200,OK,Thread Group 1-87,text,true,,957,3236,1,1,59,0,49
1536358549412,60,HTTP Request,200,OK,Thread Group 1-88,text,true,,957,3236,1,1,60,0,49
1536358549513,59,HTTP Request,200,OK,Thread Group 1-89,text,true,,952,3236,1,1,58,0,48
1536358549619,61,HTTP Request,200,OK,Thread Group 1-90,text,true,,957,3236,1,1,61,0,50
1536358549720,59,HTTP Request,200,OK,Thread Group 1-91,text,true,,957,3236,1,1,59,0,49
1536358549819,60,HTTP Request,200,OK,Thread Group 1-92,text,true,,957,3236,1,1,60,0,50
1536358549920,60,HTTP Request,200,OK,Thread Group 1-93,text,true,,952,3236,1,1,60,0,49
1536358550021,59,HTTP Request,200,OK,Thread Group 1-94,text,true,,952,3236,1,1,59,0,49
1536358550121,58,HTTP Request,200,OK,Thread Group 1-95,text,true,,952,3236,1,1,58,0,48
1536358550224,69,HTTP Request,200,OK,Thread Group 1-96,text,true,,952,3236,1,1,69,0,49
1536358550329,58,HTTP Request,200,OK,Thread Group 1-97,text,true,,957,3236,1,1,58,0,48
1536358550441,58,HTTP Request,200,OK,Thread Group 1-98,text,true,,952,3236,1,1,58,0,48
1536358550543,57,HTTP Request,200,OK,Thread Group 1-99,text,true,,957,3236,1,1,57,0,46
1536358550643,56,HTTP Request,200,OK,Thread Group 1-100,text,true,,957,3236,1,1,56,0,46
