timeStamp,elapsed,label,responseCode,responseMessage,threadName,dataType,success,failureMessage,bytes,sentBytes,grpThreads,allThreads,Latency,IdleTime,Connect
1534925352661,428,HTTP Request,200,OK,bzm - Arrivals Thread Group 1-3,text,true,,301,3226,3,3,427,0,297
1534925352163,1136,HTTP Request,200,OK,bzm - Arrivals Thread Group 1-2,text,true,,10634,3226,3,3,1136,0,795
1534925351724,1845,HTTP Request,200,OK,bzm - Arrivals Thread Group 1-1,text,true,,10634,3226,2,2,1845,0,1234
1534925353161,512,HTTP Request,200,OK,bzm - Arrivals Thread Group 1-4,text,true,,10634,3226,2,2,512,0,282
1534925353661,500,HTTP Request,200,OK,bzm - Arrivals Thread Group 1-5,text,true,,10634,3226,2,2,500,0,298
1534925354161,478,HTTP Request,200,OK,bzm - Arrivals Thread Group 1-6,text,true,,10634,3226,1,1,478,0,266
1534925354660,509,HTTP Request,200,OK,bzm - Arrivals Thread Group 1-7,text,true,,10634,3226,2,2,509,0,261
1534925355162,472,HTTP Request,200,OK,bzm - Arrivals Thread Group 1-8,text,true,,10634,3226,1,1,472,0,294
1534925355662,572,HTTP Request,200,OK,bzm - Arrivals Thread Group 1-9,text,true,,10634,3226,2,2,572,0,300
1534925356162,634,HTTP Request,200,OK,bzm - Arrivals Thread Group 1-10,text,true,,10634,3226,2,2,633,0,276
1534925356661,531,HTTP Request,200,OK,bzm - Arrivals Thread Group 1-11,text,true,,10634,3226,2,2,531,0,278
1534925357162,494,HTTP Request,200,OK,bzm - Arrivals Thread Group 1-12,text,true,,10634,3226,1,1,494,0,292
1534925357671,463,HTTP Request,200,OK,bzm - Arrivals Thread Group 1-13,text,true,,10634,3226,1,1,463,0,280
1534925358167,492,HTTP Request,200,OK,bzm - Arrivals Thread Group 1-14,text,true,,10634,3226,1,1,491,0,279
1534925358661,515,HTTP Request,200,OK,bzm - Arrivals Thread Group 1-15,text,true,,10634,3226,2,2,515,0,291
1534925359161,666,HTTP Request,200,OK,bzm - Arrivals Thread Group 1-16,text,true,,10634,3226,2,2,666,0,295
1534925359660,654,HTTP Request,200,OK,bzm - Arrivals Thread Group 1-17,text,true,,10634,3226,2,2,654,0,275
1534925360161,656,HTTP Request,200,OK,bzm - Arrivals Thread Group 1-18,text,true,,10634,3226,2,2,656,0,291
1534925360660,711,HTTP Request,200,OK,bzm - Arrivals Thread Group 1-19,text,true,,10634,3226,2,2,711,0,272
1534925361160,615,HTTP Request,200,OK,bzm - Arrivals Thread Group 1-20,text,true,,10634,3226,2,2,615,0,286
1534925361660,673,HTTP Request,200,OK,bzm - Arrivals Thread Group 1-21,text,true,,10634,3226,2,2,673,0,295
1534925362160,650,HTTP Request,200,OK,bzm - Arrivals Thread Group 1-22,text,true,,10634,3226,2,2,650,0,280
1534925362661,704,HTTP Request,200,OK,bzm - Arrivals Thread Group 1-23,text,true,,10634,3226,2,2,703,0,300
1534925363161,588,HTTP Request,200,OK,bzm - Arrivals Thread Group 1-24,text,true,,10634,3226,2,2,588,0,265
1534925363661,677,HTTP Request,200,OK,bzm - Arrivals Thread Group 1-25,text,true,,10634,3226,3,3,677,0,292
1534925363911,637,HTTP Request,200,OK,bzm - Arrivals Thread Group 1-26,text,true,,10634,3226,3,3,637,0,298
1534925364160,476,HTTP Request,200,OK,bzm - Arrivals Thread Group 1-27,text,true,,10634,3226,2,2,476,0,292
1534925364411,506,HTTP Request,200,OK,bzm - Arrivals Thread Group 1-28,text,true,,10634,3226,3,3,506,0,294
1534925364661,553,HTTP Request,200,OK,bzm - Arrivals Thread Group 1-29,text,true,,10634,3226,3,3,553,0,291
1534925364911,445,HTTP Request,200,OK,bzm - Arrivals Thread Group 1-30,text,true,,10634,3226,2,2,445,0,265
1534925365160,482,HTTP Request,200,OK,bzm - Arrivals Thread Group 1-31,text,true,,10634,3226,2,2,482,0,292
1534925365410,442,HTTP Request,200,OK,bzm - Arrivals Thread Group 1-32,text,true,,10634,3226,2,2,442,0,268
1534925365660,532,HTTP Request,200,OK,bzm - Arrivals Thread Group 1-33,text,true,,10634,3226,3,3,532,0,274
1534925365910,420,HTTP Request,200,OK,bzm - Arrivals Thread Group 1-34,text,true,,10634,3226,2,2,420,0,258
1534925366160,469,HTTP Request,200,OK,bzm - Arrivals Thread Group 1-35,text,true,,10634,3226,2,2,469,0,275
1534925366411,479,HTTP Request,200,OK,bzm - Arrivals Thread Group 1-36,text,true,,10634,3226,2,2,479,0,313
1534925366660,569,HTTP Request,200,OK,bzm - Arrivals Thread Group 1-37,text,true,,10634,3226,3,3,568,0,263
1534925366910,579,HTTP Request,200,OK,bzm - Arrivals Thread Group 1-38,text,true,,10634,3226,3,3,579,0,259
1534925367160,678,HTTP Request,200,OK,bzm - Arrivals Thread Group 1-39,text,true,,10634,3226,3,3,678,0,273
1534925367410,543,HTTP Request,200,OK,bzm - Arrivals Thread Group 1-40,text,true,,10634,3226,3,3,543,0,293
1534925367660,601,HTTP Request,200,OK,bzm - Arrivals Thread Group 1-41,text,true,,10634,3226,3,3,601,0,271
1534925367910,498,HTTP Request,200,OK,bzm - Arrivals Thread Group 1-42,text,true,,10634,3226,2,2,498,0,285
1534925368160,535,HTTP Request,200,OK,bzm - Arrivals Thread Group 1-43,text,true,,10634,3226,3,3,535,0,298
1534925368411,561,HTTP Request,200,OK,bzm - Arrivals Thread Group 1-44,text,true,,10634,3226,3,3,561,0,284
1534925368910,501,HTTP Request,200,OK,bzm - Arrivals Thread Group 1-46,text,true,,10634,3226,4,4,501,0,274
1534925368660,765,HTTP Request,200,OK,bzm - Arrivals Thread Group 1-45,text,true,,10634,3226,3,3,765,0,287
1534925369160,822,HTTP Request,200,OK,bzm - Arrivals Thread Group 1-47,text,true,,10634,3226,4,4,822,0,260
1534925369410,607,HTTP Request,200,OK,bzm - Arrivals Thread Group 1-48,text,true,,10634,3226,3,3,607,0,290
1534925369660,534,HTTP Request,200,OK,bzm - Arrivals Thread Group 1-49,text,true,,10634,3226,3,3,534,0,295
1534925370410,356,HTTP Request,200,OK,bzm - Arrivals Thread Group 1-52,text,true,,301,3226,4,4,356,0,281
1534925369910,859,HTTP Request,200,OK,bzm - Arrivals Thread Group 1-50,text,true,,10634,3226,3,3,859,0,268
1534925370910,367,HTTP Request,200,OK,bzm - Arrivals Thread Group 1-54,text,true,,301,3226,4,4,367,0,290
1534925370160,1130,HTTP Request,200,OK,bzm - Arrivals Thread Group 1-51,text,true,,10634,3226,3,3,1130,0,313
1534925370661,696,HTTP Request,200,OK,bzm - Arrivals Thread Group 1-53,text,true,,10634,3226,2,2,696,0,296
1534925371160,757,HTTP Request,200,OK,bzm - Arrivals Thread Group 1-55,text,true,,10634,3226,4,4,757,0,292
1534925371411,692,HTTP Request,200,OK,bzm - Arrivals Thread Group 1-56,text,true,,10634,3226,3,3,692,0,280
1534925371660,589,HTTP Request,200,OK,bzm - Arrivals Thread Group 1-57,text,true,,10634,3226,3,3,589,0,261
1534925371910,631,HTTP Request,200,OK,bzm - Arrivals Thread Group 1-58,text,true,,10634,3226,3,3,631,0,258
1534925372160,738,HTTP Request,200,OK,bzm - Arrivals Thread Group 1-59,text,true,,10634,3226,3,3,738,0,293
1534925372910,327,HTTP Request,200,OK,bzm - Arrivals Thread Group 1-62,text,true,,301,3226,4,4,327,0,258
1534925372661,611,HTTP Request,200,OK,bzm - Arrivals Thread Group 1-61,text,true,,10634,3226,3,3,611,0,259
1534925372410,898,HTTP Request,200,OK,bzm - Arrivals Thread Group 1-60,text,true,,10634,3226,2,2,898,0,272
1534925373660,372,HTTP Request,200,OK,bzm - Arrivals Thread Group 1-65,text,true,,301,3226,4,4,372,0,292
1534925373160,909,HTTP Request,200,OK,bzm - Arrivals Thread Group 1-63,text,true,,10634,3226,3,3,909,0,296
1534925373410,665,HTTP Request,200,OK,bzm - Arrivals Thread Group 1-64,text,true,,10634,3226,2,2,665,0,262
1534925373910,485,HTTP Request,200,OK,bzm - Arrivals Thread Group 1-66,text,true,,10634,3226,2,2,485,0,294
1534925374160,495,HTTP Request,200,OK,bzm - Arrivals Thread Group 1-67,text,true,,10634,3226,2,2,495,0,266
1534925374410,487,HTTP Request,200,OK,bzm - Arrivals Thread Group 1-68,text,true,,10634,3226,2,2,487,0,290
1534925374660,450,HTTP Request,200,OK,bzm - Arrivals Thread Group 1-69,text,true,,10634,3226,2,2,450,0,260
1534925374910,489,HTTP Request,200,OK,bzm - Arrivals Thread Group 1-70,text,true,,10634,3226,2,2,489,0,298
1534925375160,498,HTTP Request,200,OK,bzm - Arrivals Thread Group 1-71,text,true,,10634,3226,2,2,498,0,292
1534925375410,550,HTTP Request,200,OK,bzm - Arrivals Thread Group 1-72,text,true,,10634,3226,3,3,550,0,296
1534925375660,413,HTTP Request,200,OK,bzm - Arrivals Thread Group 1-73,text,true,,10634,3226,3,3,413,0,256
1534925375826,471,HTTP Request,200,OK,bzm - Arrivals Thread Group 1-74,text,true,,10634,3226,3,3,471,0,277
1534925375993,572,HTTP Request,200,OK,bzm - Arrivals Thread Group 1-75,text,true,,10634,3226,4,4,572,0,260
1534925376326,534,HTTP Request,200,OK,bzm - Arrivals Thread Group 1-77,text,true,,10634,3226,5,5,534,0,302
1534925376160,821,HTTP Request,200,OK,bzm - Arrivals Thread Group 1-76,text,true,,10634,3226,4,4,821,0,291
1534925376493,647,HTTP Request,200,OK,bzm - Arrivals Thread Group 1-78,text,true,,10634,3226,4,4,647,0,296
1534925376826,426,HTTP Request,200,OK,bzm - Arrivals Thread Group 1-80,text,true,,10634,3226,4,4,426,0,263
1534925376660,789,HTTP Request,200,OK,bzm - Arrivals Thread Group 1-79,text,true,,10634,3226,4,4,789,0,285
1534925377006,544,HTTP Request,200,OK,bzm - Arrivals Thread Group 1-81,text,true,,10634,3226,4,4,544,0,277
1534925377160,672,HTTP Request,200,OK,bzm - Arrivals Thread Group 1-82,text,true,,10634,3226,5,5,672,0,289
1534925377660,349,HTTP Request,200,OK,bzm - Arrivals Thread Group 1-85,text,true,,301,3226,5,5,349,0,275
1534925377326,708,HTTP Request,200,OK,bzm - Arrivals Thread Group 1-83,text,true,,10634,3226,4,4,708,0,290
1534925377493,587,HTTP Request,200,OK,bzm - Arrivals Thread Group 1-84,text,true,,10634,3226,3,3,587,0,273
1534925377826,547,HTTP Request,200,OK,bzm - Arrivals Thread Group 1-86,text,true,,10634,3226,4,4,547,0,330
1534925377993,532,HTTP Request,200,OK,bzm - Arrivals Thread Group 1-87,text,true,,10634,3226,4,4,532,0,301
1534925378160,474,HTTP Request,200,OK,bzm - Arrivals Thread Group 1-88,text,true,,10634,3226,3,3,474,0,282
1534925378326,448,HTTP Request,200,OK,bzm - Arrivals Thread Group 1-89,text,true,,10634,3226,3,3,448,0,277
1534925378493,436,HTTP Request,200,OK,bzm - Arrivals Thread Group 1-90,text,true,,10634,3226,3,3,436,0,260
1534925378660,460,HTTP Request,200,OK,bzm - Arrivals Thread Group 1-91,text,true,,10634,3226,3,3,460,0,294
1534925378826,470,HTTP Request,200,OK,bzm - Arrivals Thread Group 1-92,text,true,,10634,3226,3,3,470,0,272
1534925378993,480,HTTP Request,200,OK,bzm - Arrivals Thread Group 1-93,text,true,,10634,3226,3,3,480,0,285
1534925379160,438,HTTP Request,200,OK,bzm - Arrivals Thread Group 1-94,text,true,,10634,3226,3,3,437,0,288
1534925379326,592,HTTP Request,200,OK,bzm - Arrivals Thread Group 1-95,text,true,,10634,3226,4,4,592,0,302
1534925379493,531,HTTP Request,200,OK,bzm - Arrivals Thread Group 1-96,text,true,,10634,3226,4,4,531,0,261
1534925379660,652,HTTP Request,200,OK,bzm - Arrivals Thread Group 1-97,text,true,,10634,3226,4,4,652,0,300
1534925379826,603,HTTP Request,200,OK,bzm - Arrivals Thread Group 1-98,text,true,,10634,3226,4,4,603,0,258
1534925379993,662,HTTP Request,200,OK,bzm - Arrivals Thread Group 1-99,text,true,,10634,3226,4,4,662,0,294
1534925380160,628,HTTP Request,200,OK,bzm - Arrivals Thread Group 1-100,text,true,,10634,3226,4,4,628,0,287
1534925380326,505,HTTP Request,200,OK,bzm - Arrivals Thread Group 1-101,text,true,,10634,3226,4,4,505,0,294
1534925380493,506,HTTP Request,200,OK,bzm - Arrivals Thread Group 1-102,text,true,,10634,3226,4,4,506,0,295
1534925380660,526,HTTP Request,200,OK,bzm - Arrivals Thread Group 1-103,text,true,,10634,3226,4,4,526,0,266
1534925380826,611,HTTP Request,200,OK,bzm - Arrivals Thread Group 1-104,text,true,,10634,3226,4,4,611,0,290
1534925380993,475,HTTP Request,200,OK,bzm - Arrivals Thread Group 1-105,text,true,,10634,3226,3,3,475,0,282
1534925381160,505,HTTP Request,200,OK,bzm - Arrivals Thread Group 1-106,text,true,,10634,3226,4,4,505,0,278
1534925381326,426,HTTP Request,200,OK,bzm - Arrivals Thread Group 1-107,text,true,,10634,3226,3,3,426,0,258
1534925381493,501,HTTP Request,200,OK,bzm - Arrivals Thread Group 1-108,text,true,,10634,3226,4,4,501,0,287
1534925381660,440,HTTP Request,200,OK,bzm - Arrivals Thread Group 1-109,text,true,,10634,3226,3,3,440,0,288
1534925381825,501,HTTP Request,200,OK,bzm - Arrivals Thread Group 1-110,text,true,,10634,3226,4,4,501,0,258
1534925381992,507,HTTP Request,200,OK,bzm - Arrivals Thread Group 1-111,text,true,,10634,3226,4,4,507,0,291
1534925382159,508,HTTP Request,200,OK,bzm - Arrivals Thread Group 1-112,text,true,,10634,3226,4,4,508,0,261
1534925382325,568,HTTP Request,200,OK,bzm - Arrivals Thread Group 1-113,text,true,,10634,3226,4,4,568,0,290
1534925382492,557,HTTP Request,200,OK,bzm - Arrivals Thread Group 1-114,text,true,,10634,3226,4,4,557,0,275
1534925382659,499,HTTP Request,200,OK,bzm - Arrivals Thread Group 1-115,text,true,,10634,3226,4,3,499,0,260
1534925382825,543,HTTP Request,200,OK,bzm - Arrivals Thread Group 1-116,text,true,,10634,3226,4,4,543,0,254
1534925382992,492,HTTP Request,200,OK,bzm - Arrivals Thread Group 1-117,text,true,,10634,3226,3,3,491,0,271
1534925383159,556,HTTP Request,200,OK,bzm - Arrivals Thread Group 1-118,text,true,,10634,3226,4,4,556,0,279
1534925383325,490,HTTP Request,200,OK,bzm - Arrivals Thread Group 1-119,text,true,,10634,3226,3,3,490,0,282
1534925383492,440,HTTP Request,200,OK,bzm - Arrivals Thread Group 1-120,text,true,,10634,3226,3,3,440,0,282
1534925383659,517,HTTP Request,200,OK,bzm - Arrivals Thread Group 1-121,text,true,,10634,3226,4,4,517,0,297
1534925383825,606,HTTP Request,200,OK,bzm - Arrivals Thread Group 1-122,text,true,,10634,3226,4,4,606,0,294
1534925383992,512,HTTP Request,200,OK,bzm - Arrivals Thread Group 1-123,text,true,,10634,3226,4,4,512,0,259
1534925384159,554,HTTP Request,200,OK,bzm - Arrivals Thread Group 1-124,text,true,,10634,3226,4,4,554,0,292
1534925384325,475,HTTP Request,200,OK,bzm - Arrivals Thread Group 1-125,text,true,,10634,3226,3,3,475,0,277
1534925384492,479,HTTP Request,200,OK,bzm - Arrivals Thread Group 1-126,text,true,,10634,3226,3,3,479,0,289
1534925384659,472,HTTP Request,200,OK,bzm - Arrivals Thread Group 1-127,text,true,,10634,3226,3,3,472,0,297
1534925384825,528,HTTP Request,200,OK,bzm - Arrivals Thread Group 1-128,text,true,,10634,3226,4,4,528,0,306
1534925384992,579,HTTP Request,200,OK,bzm - Arrivals Thread Group 1-129,text,true,,10634,3226,4,4,578,0,317
1534925385159,500,HTTP Request,200,OK,bzm - Arrivals Thread Group 1-130,text,true,,10634,3226,4,4,500,0,287
1534925385492,416,HTTP Request,200,OK,bzm - Arrivals Thread Group 1-132,text,true,,10634,3226,4,4,416,0,259
1534925385325,657,HTTP Request,200,OK,bzm - Arrivals Thread Group 1-131,text,true,,10634,3226,3,3,656,0,272
1534925385992,344,HTTP Request,200,OK,bzm - Arrivals Thread Group 1-135,text,true,,301,3226,5,5,344,0,260
1534925386159,366,HTTP Request,200,OK,bzm - Arrivals Thread Group 1-136,text,true,,301,3226,5,5,366,0,278
1534925385659,967,HTTP Request,200,OK,bzm - Arrivals Thread Group 1-133,text,true,,10634,3226,4,4,967,0,293
1534925385825,870,HTTP Request,200,OK,bzm - Arrivals Thread Group 1-134,text,true,,10634,3226,4,4,870,0,272
1534925386659,366,HTTP Request,200,OK,bzm - Arrivals Thread Group 1-139,text,true,,301,3226,5,5,366,0,288
1534925386492,559,HTTP Request,200,OK,bzm - Arrivals Thread Group 1-138,text,true,,10634,3226,4,4,559,0,263
1534925386325,738,HTTP Request,200,OK,bzm - Arrivals Thread Group 1-137,text,true,,10634,3226,3,3,738,0,280
1534925387160,342,HTTP Request,200,OK,bzm - Arrivals Thread Group 1-142,text,true,,301,3226,5,5,342,0,273
1534925386993,535,HTTP Request,200,OK,bzm - Arrivals Thread Group 1-141,text,true,,10634,3226,4,4,535,0,283
1534925386826,822,HTTP Request,200,OK,bzm - Arrivals Thread Group 1-140,text,true,,10634,3226,3,3,822,0,290
1534925387493,437,HTTP Request,200,OK,bzm - Arrivals Thread Group 1-144,text,true,,10634,3226,5,5,437,0,264
1534925387326,676,HTTP Request,200,OK,bzm - Arrivals Thread Group 1-143,text,true,,10634,3226,4,4,676,0,258
1534925387660,487,HTTP Request,200,OK,bzm - Arrivals Thread Group 1-145,text,true,,10634,3226,4,4,487,0,287
1534925387785,500,HTTP Request,200,OK,bzm - Arrivals Thread Group 1-146,text,true,,10634,3226,5,5,500,0,270
1534925387910,538,HTTP Request,200,OK,bzm - Arrivals Thread Group 1-147,text,true,,10634,3226,5,5,538,0,291
1534925388035,536,HTTP Request,200,OK,bzm - Arrivals Thread Group 1-148,text,true,,10634,3226,5,5,536,0,336
1534925388161,432,HTTP Request,200,OK,bzm - Arrivals Thread Group 1-149,text,true,,10634,3226,4,4,432,0,255
1534925388535,354,HTTP Request,200,OK,bzm - Arrivals Thread Group 1-152,text,true,,301,3226,5,5,354,0,281
1534925388285,668,HTTP Request,200,OK,bzm - Arrivals Thread Group 1-150,text,true,,10634,3226,5,5,668,0,321
1534925388410,548,HTTP Request,200,OK,bzm - Arrivals Thread Group 1-151,text,true,,10634,3226,4,4,547,0,307
1534925388785,485,HTTP Request,200,OK,bzm - Arrivals Thread Group 1-154,text,true,,10634,3226,5,5,485,0,291
1534925388910,360,HTTP Request,200,OK,bzm - Arrivals Thread Group 1-155,text,true,,301,3226,5,5,360,0,276
1534925388660,719,HTTP Request,200,OK,bzm - Arrivals Thread Group 1-153,text,true,,10634,3226,4,4,719,0,293
1534925389160,340,HTTP Request,200,OK,bzm - Arrivals Thread Group 1-157,text,true,,301,3226,4,4,340,0,269
1534925389285,333,HTTP Request,200,OK,bzm - Arrivals Thread Group 1-158,text,true,,301,3226,4,4,332,0,259
1534925389035,615,HTTP Request,200,OK,bzm - Arrivals Thread Group 1-156,text,true,,10634,3226,3,3,615,0,291
1534925389535,329,HTTP Request,200,OK,bzm - Arrivals Thread Group 1-160,text,true,,301,3226,4,4,329,0,259
1534925389410,546,HTTP Request,200,OK,bzm - Arrivals Thread Group 1-159,text,true,,10634,3226,4,4,546,0,276
1534925389785,330,HTTP Request,200,OK,bzm - Arrivals Thread Group 1-162,text,true,,301,3226,4,4,330,0,259
1534925389660,517,HTTP Request,200,OK,bzm - Arrivals Thread Group 1-161,text,true,,10634,3226,4,4,517,0,256
1534925390035,361,HTTP Request,200,OK,bzm - Arrivals Thread Group 1-164,text,true,,301,3226,4,4,360,0,289
1534925389910,501,HTTP Request,200,OK,bzm - Arrivals Thread Group 1-163,text,true,,10634,3226,4,4,501,0,268
1534925390160,431,HTTP Request,200,OK,bzm - Arrivals Thread Group 1-165,text,true,,10634,3226,4,4,431,0,274
1534925390285,486,HTTP Request,200,OK,bzm - Arrivals Thread Group 1-166,text,true,,10634,3226,4,4,486,0,291
1534925390410,483,HTTP Request,200,OK,bzm - Arrivals Thread Group 1-167,text,true,,10634,3226,4,4,483,0,272
1534925390535,462,HTTP Request,200,OK,bzm - Arrivals Thread Group 1-168,text,true,,10634,3226,4,4,462,0,297
1534925390785,365,HTTP Request,200,OK,bzm - Arrivals Thread Group 1-170,text,true,,301,3226,4,4,365,0,278
1534925390660,554,HTTP Request,200,OK,bzm - Arrivals Thread Group 1-169,text,true,,10634,3226,4,4,554,0,289
1534925390911,445,HTTP Request,200,OK,bzm - Arrivals Thread Group 1-171,text,true,,10634,3226,4,4,445,0,279
1534925391160,337,HTTP Request,200,OK,bzm - Arrivals Thread Group 1-173,text,true,,301,3226,4,4,337,0,266
1534925391035,480,HTTP Request,200,OK,bzm - Arrivals Thread Group 1-172,text,true,,10634,3226,3,3,480,0,264
1534925391410,363,HTTP Request,200,OK,bzm - Arrivals Thread Group 1-175,text,true,,301,3226,4,4,363,0,288
1534925391285,523,HTTP Request,200,OK,bzm - Arrivals Thread Group 1-174,text,true,,10634,3226,4,4,522,0,263
1534925391660,353,HTTP Request,200,OK,bzm - Arrivals Thread Group 1-177,text,true,,301,3226,4,4,353,0,281
1534925391785,343,HTTP Request,200,OK,bzm - Arrivals Thread Group 1-178,text,true,,301,3226,4,4,343,0,259
1534925391535,683,HTTP Request,200,OK,bzm - Arrivals Thread Group 1-176,text,true,,10634,3226,4,4,683,0,295
1534925392035,393,HTTP Request,200,OK,bzm - Arrivals Thread Group 1-180,text,true,,301,3226,5,5,393,0,304
1534925391910,518,HTTP Request,200,OK,bzm - Arrivals Thread Group 1-179,text,true,,10634,3226,5,5,518,0,269
1534925392160,461,HTTP Request,200,OK,bzm - Arrivals Thread Group 1-181,text,true,,10634,3226,4,4,461,0,291
1534925392285,437,HTTP Request,200,OK,bzm - Arrivals Thread Group 1-182,text,true,,10634,3226,4,4,437,0,273
1534925392410,451,HTTP Request,200,OK,bzm - Arrivals Thread Group 1-183,text,true,,10634,3226,4,4,451,0,290
1534925392660,342,HTTP Request,200,OK,bzm - Arrivals Thread Group 1-185,text,true,,301,3226,4,4,341,0,271
1534925392535,483,HTTP Request,200,OK,bzm - Arrivals Thread Group 1-184,text,true,,10634,3226,3,3,483,0,297
1534925392910,355,HTTP Request,200,OK,bzm - Arrivals Thread Group 1-187,text,true,,301,3226,4,4,355,0,280
1534925392804,562,HTTP Request,200,OK,bzm - Arrivals Thread Group 1-186,text,true,,10634,3226,4,4,562,0,270
1534925393160,369,HTTP Request,200,OK,bzm - Arrivals Thread Group 1-189,text,true,,301,3226,4,4,369,0,289
1534925393035,560,HTTP Request,200,OK,bzm - Arrivals Thread Group 1-188,text,true,,10634,3226,4,4,559,0,273
1534925393285,429,HTTP Request,200,OK,bzm - Arrivals Thread Group 1-190,text,true,,10634,3226,4,4,429,0,260
1534925393535,353,HTTP Request,200,OK,bzm - Arrivals Thread Group 1-192,text,true,,301,3226,4,4,353,0,280
1534925393410,601,HTTP Request,200,OK,bzm - Arrivals Thread Group 1-191,text,true,,10634,3226,4,4,601,0,272
1534925393785,369,HTTP Request,200,OK,bzm - Arrivals Thread Group 1-194,text,true,,301,3226,4,4,369,0,292
1534925393910,328,HTTP Request,200,OK,bzm - Arrivals Thread Group 1-195,text,true,,301,3226,4,4,328,0,258
1534925393660,679,HTTP Request,200,OK,bzm - Arrivals Thread Group 1-193,text,true,,10634,3226,4,4,679,0,292
1534925394160,372,HTTP Request,200,OK,bzm - Arrivals Thread Group 1-197,text,true,,301,3226,4,4,372,0,297
1534925394285,328,HTTP Request,200,OK,bzm - Arrivals Thread Group 1-198,text,true,,301,3226,4,4,328,0,259
1534925394410,361,HTTP Request,200,OK,bzm - Arrivals Thread Group 1-199,text,true,,301,3226,4,4,361,0,286
1534925394535,334,HTTP Request,200,OK,bzm - Arrivals Thread Group 1-200,text,true,,301,3226,4,4,334,0,266
1534925394035,941,HTTP Request,200,OK,bzm - Arrivals Thread Group 1-196,text,true,,10634,3226,4,4,941,0,296
1534925394785,342,HTTP Request,200,OK,bzm - Arrivals Thread Group 1-202,text,true,,301,3226,4,4,342,0,260
1534925394660,608,HTTP Request,200,OK,bzm - Arrivals Thread Group 1-201,text,true,,10634,3226,4,4,608,0,281
1534925395035,354,HTTP Request,200,OK,bzm - Arrivals Thread Group 1-204,text,true,,301,3226,4,4,354,0,282
1534925394910,513,HTTP Request,200,OK,bzm - Arrivals Thread Group 1-203,text,true,,10634,3226,4,4,513,0,300
1534925395160,467,HTTP Request,200,OK,bzm - Arrivals Thread Group 1-205,text,true,,10634,3226,4,4,467,0,294
1534925395285,446,HTTP Request,200,OK,bzm - Arrivals Thread Group 1-206,text,true,,10634,3226,4,4,446,0,282
1534925395535,375,HTTP Request,200,OK,bzm - Arrivals Thread Group 1-208,text,true,,301,3226,5,5,375,0,295
1534925395660,350,HTTP Request,200,OK,bzm - Arrivals Thread Group 1-209,text,true,,301,3226,4,4,350,0,278
1534925395411,623,HTTP Request,200,OK,bzm - Arrivals Thread Group 1-207,text,true,,10634,3226,4,3,623,0,280
1534925395910,346,HTTP Request,200,OK,bzm - Arrivals Thread Group 1-211,text,true,,301,3226,4,4,346,0,274
1534925395785,609,HTTP Request,200,OK,bzm - Arrivals Thread Group 1-210,text,true,,10634,3226,4,4,609,0,280
1534925396160,388,HTTP Request,200,OK,bzm - Arrivals Thread Group 1-213,text,true,,301,3226,5,5,388,0,319
1534925396035,524,HTTP Request,200,OK,bzm - Arrivals Thread Group 1-212,text,true,,10634,3226,4,4,524,0,291
1534925396285,331,HTTP Request,200,OK,bzm - Arrivals Thread Group 1-214,text,true,,301,3226,3,3,331,0,260
1534925396410,375,HTTP Request,200,OK,bzm - Arrivals Thread Group 1-215,text,true,,301,3226,4,4,375,0,302
1534925396535,373,HTTP Request,200,OK,bzm - Arrivals Thread Group 1-216,text,true,,301,3226,3,3,373,0,297
1534925396660,368,HTTP Request,200,OK,bzm - Arrivals Thread Group 1-217,text,true,,301,3226,3,3,368,0,278
1534925396785,339,HTTP Request,200,OK,bzm - Arrivals Thread Group 1-218,text,true,,301,3226,3,3,339,0,259
1534925396910,378,HTTP Request,200,OK,bzm - Arrivals Thread Group 1-219,text,true,,301,3226,4,4,378,0,298
1534925397035,342,HTTP Request,200,OK,bzm - Arrivals Thread Group 1-220,text,true,,301,3226,3,3,342,0,274
1534925397160,331,HTTP Request,200,OK,bzm - Arrivals Thread Group 1-221,text,true,,301,3226,3,3,331,0,260
1534925397285,371,HTTP Request,200,OK,bzm - Arrivals Thread Group 1-222,text,true,,301,3226,3,3,371,0,297
1534925397410,343,HTTP Request,200,OK,bzm - Arrivals Thread Group 1-223,text,true,,301,3226,3,3,343,0,268
1534925397535,343,HTTP Request,200,OK,bzm - Arrivals Thread Group 1-224,text,true,,301,3226,3,3,343,0,260
1534925397660,386,HTTP Request,200,OK,bzm - Arrivals Thread Group 1-225,text,true,,301,3226,4,4,386,0,308
1534925397785,392,HTTP Request,200,OK,bzm - Arrivals Thread Group 1-226,text,true,,301,3226,4,4,392,0,308
1534925397910,345,HTTP Request,200,OK,bzm - Arrivals Thread Group 1-227,text,true,,301,3226,3,3,344,0,275
1534925398035,338,HTTP Request,200,OK,bzm - Arrivals Thread Group 1-228,text,true,,301,3226,3,3,338,0,259
1534925398160,377,HTTP Request,200,OK,bzm - Arrivals Thread Group 1-229,text,true,,301,3226,4,4,377,0,296
1534925398285,387,HTTP Request,200,OK,bzm - Arrivals Thread Group 1-230,text,true,,301,3226,4,4,387,0,311
1534925398410,360,HTTP Request,200,OK,bzm - Arrivals Thread Group 1-231,text,true,,301,3226,3,3,360,0,282
1534925398535,350,HTTP Request,200,OK,bzm - Arrivals Thread Group 1-232,text,true,,301,3226,3,3,350,0,273
1534925398660,344,HTTP Request,200,OK,bzm - Arrivals Thread Group 1-233,text,true,,301,3226,3,3,344,0,270
1534925398785,364,HTTP Request,200,OK,bzm - Arrivals Thread Group 1-234,text,true,,301,3226,3,3,364,0,294
1534925398910,354,HTTP Request,200,OK,bzm - Arrivals Thread Group 1-235,text,true,,301,3226,3,3,354,0,284
1534925399037,380,HTTP Request,200,OK,bzm - Arrivals Thread Group 1-236,text,true,,301,3226,4,4,380,0,305
1534925399160,358,HTTP Request,200,OK,bzm - Arrivals Thread Group 1-237,text,true,,301,3226,3,3,358,0,283
1534925399285,373,HTTP Request,200,OK,bzm - Arrivals Thread Group 1-238,text,true,,301,3226,3,3,373,0,289
1534925399410,366,HTTP Request,200,OK,bzm - Arrivals Thread Group 1-239,text,true,,301,3226,4,4,366,0,291
1534925399535,337,HTTP Request,200,OK,bzm - Arrivals Thread Group 1-240,text,true,,301,3226,4,4,337,0,267
1534925399660,362,HTTP Request,200,OK,bzm - Arrivals Thread Group 1-241,text,true,,301,3226,4,4,361,0,288
1534925399760,376,HTTP Request,200,OK,bzm - Arrivals Thread Group 1-242,text,true,,301,3226,4,4,376,0,297
1534925399860,375,HTTP Request,200,OK,bzm - Arrivals Thread Group 1-243,text,true,,301,3226,4,4,375,0,296
1534925399960,365,HTTP Request,200,OK,bzm - Arrivals Thread Group 1-244,text,true,,301,3226,4,4,365,0,287
1534925400060,357,HTTP Request,200,OK,bzm - Arrivals Thread Group 1-245,text,true,,301,3226,4,4,357,0,283
1534925400260,369,HTTP Request,200,OK,bzm - Arrivals Thread Group 1-247,text,true,,301,3226,5,5,369,0,293
1534925400160,478,HTTP Request,200,OK,bzm - Arrivals Thread Group 1-246,text,true,,301,3226,4,4,478,0,318
1534925400360,358,HTTP Request,200,OK,bzm - Arrivals Thread Group 1-248,text,true,,301,3226,4,4,358,0,283
1534925400460,353,HTTP Request,200,OK,bzm - Arrivals Thread Group 1-249,text,true,,301,3226,4,4,353,0,284
1534925400560,379,HTTP Request,200,OK,bzm - Arrivals Thread Group 1-250,text,true,,301,3226,4,4,379,0,302
1534925400660,364,HTTP Request,200,OK,bzm - Arrivals Thread Group 1-251,text,true,,301,3226,4,4,364,0,283
1534925400760,407,HTTP Request,200,OK,bzm - Arrivals Thread Group 1-252,text,true,,301,3226,5,5,407,0,300
1534925400860,384,HTTP Request,200,OK,bzm - Arrivals Thread Group 1-253,text,true,,301,3226,4,4,384,0,306
1534925400960,375,HTTP Request,200,OK,bzm - Arrivals Thread Group 1-254,text,true,,301,3226,4,4,375,0,298
1534925401060,411,HTTP Request,200,OK,bzm - Arrivals Thread Group 1-255,text,true,,301,3226,5,5,411,0,338
1534925401160,430,HTTP Request,200,OK,bzm - Arrivals Thread Group 1-256,text,true,,301,3226,5,5,429,0,341
1534925401260,364,HTTP Request,200,OK,bzm - Arrivals Thread Group 1-257,text,true,,301,3226,4,4,364,0,291
1534925401360,330,HTTP Request,200,OK,bzm - Arrivals Thread Group 1-258,text,true,,301,3226,4,4,330,0,259
1534925401460,389,HTTP Request,200,OK,bzm - Arrivals Thread Group 1-259,text,true,,301,3226,4,4,389,0,310
1534925401560,377,HTTP Request,200,OK,bzm - Arrivals Thread Group 1-260,text,true,,301,3226,4,4,377,0,300
1534925401660,377,HTTP Request,200,OK,bzm - Arrivals Thread Group 1-261,text,true,,301,3226,4,4,377,0,297
1534925401760,353,HTTP Request,200,OK,bzm - Arrivals Thread Group 1-262,text,true,,301,3226,4,4,353,0,281
1534925401860,333,HTTP Request,200,OK,bzm - Arrivals Thread Group 1-263,text,true,,301,3226,4,4,333,0,264
1534925401960,360,HTTP Request,200,OK,bzm - Arrivals Thread Group 1-264,text,true,,301,3226,4,4,360,0,284
1534925402060,330,HTTP Request,200,OK,bzm - Arrivals Thread Group 1-265,text,true,,301,3226,4,4,329,0,259
1534925402160,363,HTTP Request,200,OK,bzm - Arrivals Thread Group 1-266,text,true,,301,3226,4,4,363,0,283
1534925402260,369,HTTP Request,200,OK,bzm - Arrivals Thread Group 1-267,text,true,,301,3226,4,4,369,0,293
1534925402360,347,HTTP Request,200,OK,bzm - Arrivals Thread Group 1-268,text,true,,301,3226,4,4,347,0,273
1534925402460,334,HTTP Request,200,OK,bzm - Arrivals Thread Group 1-269,text,true,,301,3226,4,4,334,0,257
1534925402560,368,HTTP Request,200,OK,bzm - Arrivals Thread Group 1-270,text,true,,301,3226,4,4,368,0,284
1534925402660,383,HTTP Request,200,OK,bzm - Arrivals Thread Group 1-271,text,true,,301,3226,4,4,383,0,297
1534925402760,327,HTTP Request,200,OK,bzm - Arrivals Thread Group 1-272,text,true,,301,3226,4,4,327,0,257
1534925402860,356,HTTP Request,200,OK,bzm - Arrivals Thread Group 1-273,text,true,,301,3226,4,4,356,0,285
1534925402960,371,HTTP Request,200,OK,bzm - Arrivals Thread Group 1-274,text,true,,301,3226,4,4,371,0,295
1534925403060,369,HTTP Request,200,OK,bzm - Arrivals Thread Group 1-275,text,true,,301,3226,4,4,368,0,290
1534925403160,375,HTTP Request,200,OK,bzm - Arrivals Thread Group 1-276,text,true,,301,3226,4,4,375,0,293
1534925403260,352,HTTP Request,200,OK,bzm - Arrivals Thread Group 1-277,text,true,,301,3226,4,4,352,0,282
1534925403360,343,HTTP Request,200,OK,bzm - Arrivals Thread Group 1-278,text,true,,301,3226,4,4,343,0,273
1534925403460,367,HTTP Request,200,OK,bzm - Arrivals Thread Group 1-279,text,true,,301,3226,4,4,367,0,288
1534925403560,352,HTTP Request,200,OK,bzm - Arrivals Thread Group 1-280,text,true,,301,3226,4,4,352,0,278
1534925403660,366,HTTP Request,200,OK,bzm - Arrivals Thread Group 1-281,text,true,,301,3226,4,4,366,0,288
1534925403760,365,HTTP Request,200,OK,bzm - Arrivals Thread Group 1-282,text,true,,301,3226,4,4,365,0,288
1534925403860,331,HTTP Request,200,OK,bzm - Arrivals Thread Group 1-283,text,true,,301,3226,4,4,331,0,261
1534925403960,378,HTTP Request,200,OK,bzm - Arrivals Thread Group 1-284,text,true,,301,3226,4,4,378,0,286
1534925404060,347,HTTP Request,200,OK,bzm - Arrivals Thread Group 1-285,text,true,,301,3226,4,4,346,0,278
1534925404160,369,HTTP Request,200,OK,bzm - Arrivals Thread Group 1-286,text,true,,301,3226,4,4,369,0,295
1534925404260,396,HTTP Request,200,OK,bzm - Arrivals Thread Group 1-287,text,true,,301,3226,4,4,396,0,312
1534925404360,366,HTTP Request,200,OK,bzm - Arrivals Thread Group 1-288,text,true,,301,3226,4,4,366,0,273
1534925404460,336,HTTP Request,200,OK,bzm - Arrivals Thread Group 1-289,text,true,,301,3226,4,4,336,0,266
1534925404560,348,HTTP Request,200,OK,bzm - Arrivals Thread Group 1-290,text,true,,301,3226,4,4,348,0,277
1534925404660,365,HTTP Request,200,OK,bzm - Arrivals Thread Group 1-291,text,true,,301,3226,4,4,365,0,291
1534925404760,331,HTTP Request,200,OK,bzm - Arrivals Thread Group 1-292,text,true,,301,3226,4,4,331,0,256
1534925404860,387,HTTP Request,200,OK,bzm - Arrivals Thread Group 1-293,text,true,,301,3226,4,4,387,0,308
1534925404960,362,HTTP Request,200,OK,bzm - Arrivals Thread Group 1-294,text,true,,301,3226,4,4,362,0,294
1534925405060,377,HTTP Request,200,OK,bzm - Arrivals Thread Group 1-295,text,true,,301,3226,4,4,376,0,302
1534925405160,367,HTTP Request,200,OK,bzm - Arrivals Thread Group 1-296,text,true,,301,3226,4,4,367,0,288
1534925405260,368,HTTP Request,200,OK,bzm - Arrivals Thread Group 1-297,text,true,,301,3226,4,4,368,0,292
1534925405360,358,HTTP Request,200,OK,bzm - Arrivals Thread Group 1-298,text,true,,301,3226,4,4,358,0,287
1534925405460,369,HTTP Request,200,OK,bzm - Arrivals Thread Group 1-299,text,true,,301,3226,4,4,369,0,282
1534925405560,329,HTTP Request,200,OK,bzm - Arrivals Thread Group 1-300,text,true,,301,3226,4,4,329,0,260
1534925405660,327,HTTP Request,200,OK,bzm - Arrivals Thread Group 1-301,text,true,,301,3226,4,4,327,0,257
1534925405760,368,HTTP Request,200,OK,bzm - Arrivals Thread Group 1-302,text,true,,301,3226,4,4,368,0,292
1534925405860,338,HTTP Request,200,OK,bzm - Arrivals Thread Group 1-303,text,true,,301,3226,4,4,338,0,267
1534925405960,354,HTTP Request,200,OK,bzm - Arrivals Thread Group 1-304,text,true,,301,3226,4,4,354,0,281
1534925406060,342,HTTP Request,200,OK,bzm - Arrivals Thread Group 1-305,text,true,,301,3226,4,4,342,0,273
1534925406160,330,HTTP Request,200,OK,bzm - Arrivals Thread Group 1-306,text,true,,301,3226,4,4,330,0,262
1534925406260,350,HTTP Request,200,OK,bzm - Arrivals Thread Group 1-307,text,true,,301,3226,4,4,350,0,278
1534925406360,341,HTTP Request,200,OK,bzm - Arrivals Thread Group 1-308,text,true,,301,3226,4,4,341,0,271
1534925406460,371,HTTP Request,200,OK,bzm - Arrivals Thread Group 1-309,text,true,,301,3226,4,4,371,0,283
1534925406560,342,HTTP Request,200,OK,bzm - Arrivals Thread Group 1-310,text,true,,301,3226,4,4,341,0,272
1534925406660,327,HTTP Request,200,OK,bzm - Arrivals Thread Group 1-311,text,true,,301,3226,4,4,327,0,256
1534925406760,348,HTTP Request,200,OK,bzm - Arrivals Thread Group 1-312,text,true,,301,3226,4,4,347,0,276
1534925406860,346,HTTP Request,200,OK,bzm - Arrivals Thread Group 1-313,text,true,,301,3226,4,4,345,0,274
1534925406960,329,HTTP Request,200,OK,bzm - Arrivals Thread Group 1-314,text,true,,301,3226,4,4,329,0,256
1534925407060,360,HTTP Request,200,OK,bzm - Arrivals Thread Group 1-315,text,true,,301,3226,4,4,360,0,283
1534925407160,378,HTTP Request,200,OK,bzm - Arrivals Thread Group 1-316,text,true,,301,3226,4,4,378,0,298
1534925407260,350,HTTP Request,200,OK,bzm - Arrivals Thread Group 1-317,text,true,,301,3226,4,4,350,0,277
1534925407360,372,HTTP Request,200,OK,bzm - Arrivals Thread Group 1-318,text,true,,301,3226,4,4,372,0,286
1534925407460,373,HTTP Request,200,OK,bzm - Arrivals Thread Group 1-319,text,true,,301,3226,4,4,373,0,293
1534925407560,348,HTTP Request,200,OK,bzm - Arrivals Thread Group 1-320,text,true,,301,3226,4,4,348,0,271
1534925407660,414,HTTP Request,200,OK,bzm - Arrivals Thread Group 1-321,text,true,,301,3226,5,5,414,0,316
1534925407760,350,HTTP Request,200,OK,bzm - Arrivals Thread Group 1-322,text,true,,301,3226,4,4,350,0,277
1534925407860,382,HTTP Request,200,OK,bzm - Arrivals Thread Group 1-323,text,true,,301,3226,4,4,382,0,310
1534925407960,340,HTTP Request,200,OK,bzm - Arrivals Thread Group 1-324,text,true,,301,3226,4,4,340,0,266
1534925408060,442,HTTP Request,200,OK,bzm - Arrivals Thread Group 1-325,text,true,,301,3226,5,5,442,0,350
1534925408160,415,HTTP Request,200,OK,bzm - Arrivals Thread Group 1-326,text,true,,301,3226,5,5,415,0,276
1534925408260,380,HTTP Request,200,OK,bzm - Arrivals Thread Group 1-327,text,true,,301,3226,4,4,380,0,306
1534925408360,362,HTTP Request,200,OK,bzm - Arrivals Thread Group 1-328,text,true,,301,3226,4,4,362,0,292
1534925408460,430,HTTP Request,200,OK,bzm - Arrivals Thread Group 1-329,text,true,,301,3226,5,5,430,0,340
1534925408560,366,HTTP Request,200,OK,bzm - Arrivals Thread Group 1-330,text,true,,301,3226,4,4,366,0,271
1534925408660,334,HTTP Request,200,OK,bzm - Arrivals Thread Group 1-331,text,true,,301,3226,4,4,334,0,266
1534925408760,359,HTTP Request,200,OK,bzm - Arrivals Thread Group 1-332,text,true,,301,3226,4,4,359,0,287
1534925408860,384,HTTP Request,200,OK,bzm - Arrivals Thread Group 1-333,text,true,,301,3226,4,4,384,0,307
1534925408960,369,HTTP Request,200,OK,bzm - Arrivals Thread Group 1-334,text,true,,301,3226,4,4,369,0,292
1534925409060,367,HTTP Request,200,OK,bzm - Arrivals Thread Group 1-335,text,true,,301,3226,4,4,367,0,292
1534925409160,333,HTTP Request,200,OK,bzm - Arrivals Thread Group 1-336,text,true,,301,3226,4,4,333,0,264
1534925409260,368,HTTP Request,200,OK,bzm - Arrivals Thread Group 1-337,text,true,,301,3226,4,4,368,0,279
1534925409360,340,HTTP Request,200,OK,bzm - Arrivals Thread Group 1-338,text,true,,301,3226,4,4,340,0,269
1534925409460,370,HTTP Request,200,OK,bzm - Arrivals Thread Group 1-339,text,true,,301,3226,4,4,370,0,292
1534925409560,364,HTTP Request,200,OK,bzm - Arrivals Thread Group 1-340,text,true,,301,3226,4,4,364,0,290
1534925409660,357,HTTP Request,200,OK,bzm - Arrivals Thread Group 1-341,text,true,,301,3226,4,4,357,0,278
1534925409760,369,HTTP Request,200,OK,bzm - Arrivals Thread Group 1-342,text,true,,301,3226,4,4,369,0,289
1534925409860,327,HTTP Request,200,OK,bzm - Arrivals Thread Group 1-343,text,true,,301,3226,4,4,327,0,256
1534925409960,367,HTTP Request,200,OK,bzm - Arrivals Thread Group 1-344,text,true,,301,3226,4,4,367,0,288
1534925410060,367,HTTP Request,200,OK,bzm - Arrivals Thread Group 1-345,text,true,,301,3226,4,4,367,0,287
1534925410160,351,HTTP Request,200,OK,bzm - Arrivals Thread Group 1-346,text,true,,301,3226,4,4,351,0,279
1534925410260,404,HTTP Request,200,OK,bzm - Arrivals Thread Group 1-347,text,true,,301,3226,5,5,403,0,330
1534925410360,353,HTTP Request,200,OK,bzm - Arrivals Thread Group 1-348,text,true,,301,3226,4,4,353,0,281
1534925410460,347,HTTP Request,200,OK,bzm - Arrivals Thread Group 1-349,text,true,,301,3226,4,4,347,0,276
1534925410560,384,HTTP Request,200,OK,bzm - Arrivals Thread Group 1-350,text,true,,301,3226,4,4,384,0,308
1534925410660,335,HTTP Request,200,OK,bzm - Arrivals Thread Group 1-351,text,true,,301,3226,4,4,335,0,267
1534925410760,343,HTTP Request,200,OK,bzm - Arrivals Thread Group 1-352,text,true,,301,3226,4,4,343,0,272
1534925410860,326,HTTP Request,200,OK,bzm - Arrivals Thread Group 1-353,text,true,,301,3226,4,4,326,0,256
1534925410960,384,HTTP Request,200,OK,bzm - Arrivals Thread Group 1-354,text,true,,301,3226,4,4,384,0,309
1534925411060,366,HTTP Request,200,OK,bzm - Arrivals Thread Group 1-355,text,true,,301,3226,4,4,366,0,288
1534925411160,348,HTTP Request,200,OK,bzm - Arrivals Thread Group 1-356,text,true,,301,3226,4,4,348,0,273
1534925411260,358,HTTP Request,200,OK,bzm - Arrivals Thread Group 1-357,text,true,,301,3226,4,4,358,0,284
1534925411360,388,HTTP Request,200,OK,bzm - Arrivals Thread Group 1-358,text,true,,301,3226,4,4,388,0,307
1534925411460,370,HTTP Request,200,OK,bzm - Arrivals Thread Group 1-359,text,true,,301,3226,4,4,370,0,293
1534925411560,391,HTTP Request,200,OK,bzm - Arrivals Thread Group 1-360,text,true,,301,3226,4,4,391,0,296
1534925411660,380,HTTP Request,200,OK,bzm - Arrivals Thread Group 1-361,text,true,,301,3226,4,4,380,0,308
1534925411760,371,HTTP Request,200,OK,bzm - Arrivals Thread Group 1-362,text,true,,301,3226,4,4,371,0,298
1534925411860,347,HTTP Request,200,OK,bzm - Arrivals Thread Group 1-363,text,true,,301,3226,4,4,347,0,276
1534925411960,333,HTTP Request,200,OK,bzm - Arrivals Thread Group 1-364,text,true,,301,3226,4,4,333,0,263
1534925412060,369,HTTP Request,200,OK,bzm - Arrivals Thread Group 1-365,text,true,,301,3226,4,4,369,0,293
1534925412160,371,HTTP Request,200,OK,bzm - Arrivals Thread Group 1-366,text,true,,301,3226,4,4,371,0,290
1534925412260,390,HTTP Request,200,OK,bzm - Arrivals Thread Group 1-367,text,true,,301,3226,4,4,390,0,320
1534925412360,374,HTTP Request,200,OK,bzm - Arrivals Thread Group 1-368,text,true,,301,3226,4,4,374,0,299
1534925412460,440,HTTP Request,200,OK,bzm - Arrivals Thread Group 1-369,text,true,,301,3226,5,5,440,0,278
1534925412560,351,HTTP Request,200,OK,bzm - Arrivals Thread Group 1-370,text,true,,301,3226,4,4,351,0,278
1534925412660,358,HTTP Request,200,OK,bzm - Arrivals Thread Group 1-371,text,true,,301,3226,4,4,358,0,284
1534925412760,366,HTTP Request,200,OK,bzm - Arrivals Thread Group 1-372,text,true,,301,3226,4,4,366,0,278
1534925412860,350,HTTP Request,200,OK,bzm - Arrivals Thread Group 1-373,text,true,,301,3226,4,4,350,0,275
1534925412960,348,HTTP Request,200,OK,bzm - Arrivals Thread Group 1-374,text,true,,301,3226,4,4,348,0,275
1534925413060,357,HTTP Request,200,OK,bzm - Arrivals Thread Group 1-375,text,true,,301,3226,4,4,357,0,284
1534925413160,356,HTTP Request,200,OK,bzm - Arrivals Thread Group 1-376,text,true,,301,3226,4,4,356,0,281
1534925413286,355,HTTP Request,200,OK,bzm - Arrivals Thread Group 1-377,text,true,,301,3226,4,4,355,0,280
1534925413360,363,HTTP Request,200,OK,bzm - Arrivals Thread Group 1-378,text,true,,301,3226,4,4,363,0,277
1534925413460,334,HTTP Request,200,OK,bzm - Arrivals Thread Group 1-379,text,true,,301,3226,4,4,334,0,264
1534925413560,403,HTTP Request,200,OK,bzm - Arrivals Thread Group 1-380,text,true,,301,3226,5,5,403,0,326
1534925413688,382,HTTP Request,200,OK,bzm - Arrivals Thread Group 1-381,text,true,,301,3226,5,5,382,0,301
1534925413760,348,HTTP Request,200,OK,bzm - Arrivals Thread Group 1-382,text,true,,301,3226,4,4,348,0,279
1534925413860,425,HTTP Request,200,OK,bzm - Arrivals Thread Group 1-383,text,true,,301,3226,5,5,425,0,295
1534925413960,375,HTTP Request,200,OK,bzm - Arrivals Thread Group 1-384,text,true,,301,3226,4,4,374,0,305
1534925414060,378,HTTP Request,200,OK,bzm - Arrivals Thread Group 1-385,text,true,,301,3226,4,4,378,0,270
1534925414160,392,HTTP Request,200,OK,bzm - Arrivals Thread Group 1-386,text,true,,301,3226,4,4,392,0,304
1534925414260,457,HTTP Request,200,OK,bzm - Arrivals Thread Group 1-387,text,true,,301,3226,5,5,457,0,375
1534925414360,419,HTTP Request,200,OK,bzm - Arrivals Thread Group 1-388,text,true,,301,3226,5,5,419,0,341
1534925414460,358,HTTP Request,200,OK,bzm - Arrivals Thread Group 1-389,text,true,,301,3226,4,4,358,0,289
1534925414560,342,HTTP Request,200,OK,bzm - Arrivals Thread Group 1-390,text,true,,301,3226,4,4,341,0,269
1534925414660,401,HTTP Request,200,OK,bzm - Arrivals Thread Group 1-391,text,true,,301,3226,5,5,401,0,292
1534925414760,367,HTTP Request,200,OK,bzm - Arrivals Thread Group 1-392,text,true,,301,3226,4,4,367,0,291
1534925414860,445,HTTP Request,200,OK,bzm - Arrivals Thread Group 1-393,text,true,,301,3226,5,5,445,0,369
1534925414960,397,HTTP Request,200,OK,bzm - Arrivals Thread Group 1-394,text,true,,301,3226,4,4,397,0,325
1534925415060,331,HTTP Request,200,OK,bzm - Arrivals Thread Group 1-395,text,true,,301,3226,4,4,331,0,260
1534925415160,359,HTTP Request,200,OK,bzm - Arrivals Thread Group 1-396,text,true,,301,3226,4,4,359,0,287
1534925415260,354,HTTP Request,200,OK,bzm - Arrivals Thread Group 1-397,text,true,,301,3226,4,4,354,0,276
1534925415360,352,HTTP Request,200,OK,bzm - Arrivals Thread Group 1-398,text,true,,301,3226,4,4,352,0,281
1534925415460,352,HTTP Request,200,OK,bzm - Arrivals Thread Group 1-399,text,true,,301,3226,4,4,352,0,280
1534925415560,369,HTTP Request,200,OK,bzm - Arrivals Thread Group 1-400,text,true,,301,3226,4,4,369,0,275
1534925415660,291,HTTP Request,200,OK,bzm - Arrivals Thread Group 1-401,text,true,,301,3226,3,3,291,0,221
1534925415760,332,HTTP Request,200,OK,bzm - Arrivals Thread Group 1-402,text,true,,301,3226,4,4,332,0,263
1534925415860,348,HTTP Request,200,OK,bzm - Arrivals Thread Group 1-403,text,true,,301,3226,4,4,348,0,277
1534925415960,352,HTTP Request,200,OK,bzm - Arrivals Thread Group 1-404,text,true,,301,3226,4,4,352,0,277
1534925416060,372,HTTP Request,200,OK,bzm - Arrivals Thread Group 1-405,text,true,,301,3226,4,4,372,0,294
1534925416160,366,HTTP Request,200,OK,bzm - Arrivals Thread Group 1-406,text,true,,301,3226,4,4,366,0,293
1534925416260,352,HTTP Request,200,OK,bzm - Arrivals Thread Group 1-407,text,true,,301,3226,4,4,352,0,277
1534925416360,357,HTTP Request,200,OK,bzm - Arrivals Thread Group 1-408,text,true,,301,3226,4,4,357,0,282
1534925416460,342,HTTP Request,200,OK,bzm - Arrivals Thread Group 1-409,text,true,,301,3226,4,4,342,0,265
1534925416560,329,HTTP Request,200,OK,bzm - Arrivals Thread Group 1-410,text,true,,301,3226,4,4,329,0,259
1534925416660,373,HTTP Request,200,OK,bzm - Arrivals Thread Group 1-411,text,true,,301,3226,4,4,373,0,287
1534925416760,343,HTTP Request,200,OK,bzm - Arrivals Thread Group 1-412,text,true,,301,3226,4,4,343,0,273
1534925416860,334,HTTP Request,200,OK,bzm - Arrivals Thread Group 1-413,text,true,,301,3226,4,4,334,0,264
1534925416960,367,HTTP Request,200,OK,bzm - Arrivals Thread Group 1-414,text,true,,301,3226,4,4,367,0,291
1534925417060,339,HTTP Request,200,OK,bzm - Arrivals Thread Group 1-415,text,true,,301,3226,4,4,339,0,266
1534925417160,352,HTTP Request,200,OK,bzm - Arrivals Thread Group 1-416,text,true,,301,3226,4,4,352,0,273
1534925417260,344,HTTP Request,200,OK,bzm - Arrivals Thread Group 1-417,text,true,,301,3226,4,4,344,0,274
1534925417360,355,HTTP Request,200,OK,bzm - Arrivals Thread Group 1-418,text,true,,301,3226,4,4,355,0,280
1534925417460,348,HTTP Request,200,OK,bzm - Arrivals Thread Group 1-419,text,true,,301,3226,4,4,348,0,270
1534925417560,424,HTTP Request,200,OK,bzm - Arrivals Thread Group 1-420,text,true,,301,3226,5,5,424,0,343
1534925417660,390,HTTP Request,200,OK,bzm - Arrivals Thread Group 1-421,text,true,,301,3226,4,4,390,0,314
1534925417760,447,HTTP Request,200,OK,bzm - Arrivals Thread Group 1-422,text,true,,301,3226,5,5,447,0,374
1534925417860,359,HTTP Request,200,OK,bzm - Arrivals Thread Group 1-423,text,true,,301,3226,4,4,359,0,281
1534925417960,331,HTTP Request,200,OK,bzm - Arrivals Thread Group 1-424,text,true,,301,3226,4,4,331,0,263
1534925418060,342,HTTP Request,200,OK,bzm - Arrivals Thread Group 1-425,text,true,,301,3226,4,4,342,0,270
1534925418160,349,HTTP Request,200,OK,bzm - Arrivals Thread Group 1-426,text,true,,301,3226,4,4,349,0,276
1534925418260,355,HTTP Request,200,OK,bzm - Arrivals Thread Group 1-427,text,true,,301,3226,4,4,355,0,282
1534925418360,367,HTTP Request,200,OK,bzm - Arrivals Thread Group 1-428,text,true,,301,3226,4,4,367,0,275
1534925418460,345,HTTP Request,200,OK,bzm - Arrivals Thread Group 1-429,text,true,,301,3226,4,4,345,0,274
1534925418560,354,HTTP Request,200,OK,bzm - Arrivals Thread Group 1-430,text,true,,301,3226,4,4,354,0,277
1534925418660,374,HTTP Request,200,OK,bzm - Arrivals Thread Group 1-431,text,true,,301,3226,4,4,374,0,300
1534925418760,367,HTTP Request,200,OK,bzm - Arrivals Thread Group 1-432,text,true,,301,3226,4,4,367,0,294
1534925418860,364,HTTP Request,200,OK,bzm - Arrivals Thread Group 1-433,text,true,,301,3226,4,4,364,0,286
1534925418960,358,HTTP Request,200,OK,bzm - Arrivals Thread Group 1-434,text,true,,301,3226,4,4,358,0,285
1534925419060,369,HTTP Request,200,OK,bzm - Arrivals Thread Group 1-435,text,true,,301,3226,4,4,369,0,293
1534925419160,350,HTTP Request,200,OK,bzm - Arrivals Thread Group 1-436,text,true,,301,3226,4,4,350,0,274
1534925419260,329,HTTP Request,200,OK,bzm - Arrivals Thread Group 1-437,text,true,,301,3226,4,4,329,0,260
1534925419360,349,HTTP Request,200,OK,bzm - Arrivals Thread Group 1-438,text,true,,301,3226,4,4,349,0,276
1534925419460,350,HTTP Request,200,OK,bzm - Arrivals Thread Group 1-439,text,true,,301,3226,4,4,350,0,276
1534925419560,354,HTTP Request,200,OK,bzm - Arrivals Thread Group 1-440,text,true,,301,3226,4,4,354,0,277
1534925419660,380,HTTP Request,200,OK,bzm - Arrivals Thread Group 1-441,text,true,,301,3226,4,4,380,0,275
1534925419760,381,HTTP Request,200,OK,bzm - Arrivals Thread Group 1-442,text,true,,301,3226,4,4,381,0,280
1534925419860,355,HTTP Request,200,OK,bzm - Arrivals Thread Group 1-443,text,true,,301,3226,4,4,355,0,281
1534925419960,413,HTTP Request,200,OK,bzm - Arrivals Thread Group 1-444,text,true,,301,3226,5,5,413,0,340
1534925420060,383,HTTP Request,200,OK,bzm - Arrivals Thread Group 1-445,text,true,,301,3226,4,4,383,0,304
1534925420160,349,HTTP Request,200,OK,bzm - Arrivals Thread Group 1-446,text,true,,301,3226,4,4,349,0,275
1534925420260,293,HTTP Request,200,OK,bzm - Arrivals Thread Group 1-447,text,true,,301,3226,3,3,293,0,219
1534925420360,348,HTTP Request,200,OK,bzm - Arrivals Thread Group 1-448,text,true,,301,3226,4,4,348,0,276
1534925420460,329,HTTP Request,200,OK,bzm - Arrivals Thread Group 1-449,text,true,,301,3226,4,4,329,0,260
1534925420560,336,HTTP Request,200,OK,bzm - Arrivals Thread Group 1-450,text,true,,301,3226,4,4,336,0,266
1534925420660,329,HTTP Request,200,OK,bzm - Arrivals Thread Group 1-451,text,true,,301,3226,4,4,328,0,260
1534925420760,360,HTTP Request,200,OK,bzm - Arrivals Thread Group 1-452,text,true,,301,3226,4,4,360,0,286
1534925420860,335,HTTP Request,200,OK,bzm - Arrivals Thread Group 1-453,text,true,,301,3226,4,4,335,0,261
1534925420960,370,HTTP Request,200,OK,bzm - Arrivals Thread Group 1-454,text,true,,301,3226,4,4,370,0,277
1534925421060,365,HTTP Request,200,OK,bzm - Arrivals Thread Group 1-455,text,true,,301,3226,4,4,365,0,287
1534925421160,366,HTTP Request,200,OK,bzm - Arrivals Thread Group 1-456,text,true,,301,3226,4,4,366,0,272
1534925421260,293,HTTP Request,200,OK,bzm - Arrivals Thread Group 1-457,text,true,,301,3226,3,3,293,0,221
1534925421360,346,HTTP Request,200,OK,bzm - Arrivals Thread Group 1-458,text,true,,301,3226,4,4,346,0,274
1534925421460,355,HTTP Request,200,OK,bzm - Arrivals Thread Group 1-459,text,true,,301,3226,4,4,355,0,282
1534925421560,370,HTTP Request,200,OK,bzm - Arrivals Thread Group 1-460,text,true,,301,3226,4,4,370,0,279
1534925421660,347,HTTP Request,200,OK,bzm - Arrivals Thread Group 1-461,text,true,,301,3226,4,4,347,0,271
1534925421759,353,HTTP Request,200,OK,bzm - Arrivals Thread Group 1-462,text,true,,301,3226,4,4,353,0,279
1534925421860,366,HTTP Request,200,OK,bzm - Arrivals Thread Group 1-463,text,true,,301,3226,4,4,366,0,280
1534925421960,342,HTTP Request,200,OK,bzm - Arrivals Thread Group 1-464,text,true,,301,3226,4,4,342,0,271
1534925422060,346,HTTP Request,200,OK,bzm - Arrivals Thread Group 1-465,text,true,,301,3226,4,4,346,0,274
1534925422160,360,HTTP Request,200,OK,bzm - Arrivals Thread Group 1-466,text,true,,301,3226,4,4,360,0,286
1534925422260,346,HTTP Request,200,OK,bzm - Arrivals Thread Group 1-467,text,true,,301,3226,4,4,346,0,274
1534925422360,349,HTTP Request,200,OK,bzm - Arrivals Thread Group 1-468,text,true,,301,3226,4,4,349,0,277
1534925422460,353,HTTP Request,200,OK,bzm - Arrivals Thread Group 1-469,text,true,,301,3226,4,4,353,0,281
1534925422560,413,HTTP Request,200,OK,bzm - Arrivals Thread Group 1-470,text,true,,301,3226,5,5,413,0,282
1534925422660,357,HTTP Request,200,OK,bzm - Arrivals Thread Group 1-471,text,true,,301,3226,4,4,357,0,284
1534925422760,349,HTTP Request,200,OK,bzm - Arrivals Thread Group 1-472,text,true,,301,3226,4,4,349,0,276
1534925422860,359,HTTP Request,200,OK,bzm - Arrivals Thread Group 1-473,text,true,,301,3226,4,4,359,0,286
1534925422960,346,HTTP Request,200,OK,bzm - Arrivals Thread Group 1-474,text,true,,301,3226,4,4,346,0,256
1534925423060,341,HTTP Request,200,OK,bzm - Arrivals Thread Group 1-475,text,true,,301,3226,4,4,341,0,270
1534925423160,346,HTTP Request,200,OK,bzm - Arrivals Thread Group 1-476,text,true,,301,3226,4,4,346,0,274
1534925423260,366,HTTP Request,200,OK,bzm - Arrivals Thread Group 1-477,text,true,,301,3226,4,4,366,0,275
1534925423360,337,HTTP Request,200,OK,bzm - Arrivals Thread Group 1-478,text,true,,301,3226,4,4,337,0,267
1534925423460,344,HTTP Request,200,OK,bzm - Arrivals Thread Group 1-479,text,true,,301,3226,4,4,344,0,270
1534925423560,365,HTTP Request,200,OK,bzm - Arrivals Thread Group 1-480,text,true,,301,3226,4,4,365,0,288
1534925423660,356,HTTP Request,200,OK,bzm - Arrivals Thread Group 1-481,text,true,,301,3226,4,4,356,0,283
1534925423760,327,HTTP Request,200,OK,bzm - Arrivals Thread Group 1-482,text,true,,301,3226,4,4,327,0,259
1534925423860,369,HTTP Request,200,OK,bzm - Arrivals Thread Group 1-483,text,true,,301,3226,4,4,369,0,278
1534925423960,363,HTTP Request,200,OK,bzm - Arrivals Thread Group 1-484,text,true,,301,3226,4,4,363,0,289
1534925424060,337,HTTP Request,200,OK,bzm - Arrivals Thread Group 1-485,text,true,,301,3226,4,4,337,0,262
1534925424160,395,HTTP Request,200,OK,bzm - Arrivals Thread Group 1-486,text,true,,301,3226,4,4,395,0,322
1534925424260,344,HTTP Request,200,OK,bzm - Arrivals Thread Group 1-487,text,true,,301,3226,4,4,344,0,273
1534925424360,352,HTTP Request,200,OK,bzm - Arrivals Thread Group 1-488,text,true,,301,3226,4,4,352,0,278
1534925424460,342,HTTP Request,200,OK,bzm - Arrivals Thread Group 1-489,text,true,,301,3226,4,4,342,0,269
1534925424560,333,HTTP Request,200,OK,bzm - Arrivals Thread Group 1-490,text,true,,301,3226,4,4,333,0,261
1534925424660,358,HTTP Request,200,OK,bzm - Arrivals Thread Group 1-491,text,true,,301,3226,4,4,358,0,264
1534925424760,382,HTTP Request,200,OK,bzm - Arrivals Thread Group 1-492,text,true,,301,3226,4,4,382,0,278
1534925424860,363,HTTP Request,200,OK,bzm - Arrivals Thread Group 1-493,text,true,,301,3226,4,4,363,0,289
1534925424960,357,HTTP Request,200,OK,bzm - Arrivals Thread Group 1-494,text,true,,301,3226,4,4,357,0,282
1534925425060,372,HTTP Request,200,OK,bzm - Arrivals Thread Group 1-495,text,true,,301,3226,4,4,372,0,298
1534925425160,359,HTTP Request,200,OK,bzm - Arrivals Thread Group 1-496,text,true,,301,3226,4,4,359,0,279
1534925425260,361,HTTP Request,200,OK,bzm - Arrivals Thread Group 1-497,text,true,,301,3226,4,4,361,0,288
1534925425360,331,HTTP Request,200,OK,bzm - Arrivals Thread Group 1-498,text,true,,301,3226,4,4,331,0,262
1534925425460,359,HTTP Request,200,OK,bzm - Arrivals Thread Group 1-499,text,true,,301,3226,4,4,359,0,288
1534925425560,360,HTTP Request,200,OK,bzm - Arrivals Thread Group 1-500,text,true,,301,3226,4,4,360,0,283
1534925425660,372,HTTP Request,200,OK,bzm - Arrivals Thread Group 1-501,text,true,,301,3226,4,4,372,0,297
1534925425760,351,HTTP Request,200,OK,bzm - Arrivals Thread Group 1-502,text,true,,301,3226,4,4,351,0,278
1534925425859,353,HTTP Request,200,OK,bzm - Arrivals Thread Group 1-503,text,true,,301,3226,4,4,353,0,279
1534925425960,354,HTTP Request,200,OK,bzm - Arrivals Thread Group 1-504,text,true,,301,3226,4,4,354,0,280
1534925426060,355,HTTP Request,200,OK,bzm - Arrivals Thread Group 1-505,text,true,,301,3226,4,4,355,0,270
1534925426160,353,HTTP Request,200,OK,bzm - Arrivals Thread Group 1-506,text,true,,301,3226,4,4,353,0,276
1534925426260,349,HTTP Request,200,OK,bzm - Arrivals Thread Group 1-507,text,true,,301,3226,4,4,349,0,273
1534925426360,363,HTTP Request,200,OK,bzm - Arrivals Thread Group 1-508,text,true,,301,3226,4,4,363,0,290
1534925426460,347,HTTP Request,200,OK,bzm - Arrivals Thread Group 1-509,text,true,,301,3226,4,4,347,0,274
1534925426560,337,HTTP Request,200,OK,bzm - Arrivals Thread Group 1-510,text,true,,301,3226,4,4,337,0,268
1534925426660,349,HTTP Request,200,OK,bzm - Arrivals Thread Group 1-511,text,true,,301,3226,4,4,349,0,275
1534925426761,369,HTTP Request,200,OK,bzm - Arrivals Thread Group 1-512,text,true,,301,3226,4,4,368,0,281
1534925426860,362,HTTP Request,200,OK,bzm - Arrivals Thread Group 1-513,text,true,,301,3226,4,4,362,0,279
1534925426960,360,HTTP Request,200,OK,bzm - Arrivals Thread Group 1-514,text,true,,301,3226,4,4,360,0,268
1534925427060,355,HTTP Request,200,OK,bzm - Arrivals Thread Group 1-515,text,true,,301,3226,4,4,355,0,283
1534925427160,367,HTTP Request,200,OK,bzm - Arrivals Thread Group 1-516,text,true,,301,3226,4,4,367,0,299
1534925427260,330,HTTP Request,200,OK,bzm - Arrivals Thread Group 1-517,text,true,,301,3226,4,4,330,0,259
1534925427360,351,HTTP Request,200,OK,bzm - Arrivals Thread Group 1-518,text,true,,301,3226,4,4,351,0,276
1534925427460,334,HTTP Request,200,OK,bzm - Arrivals Thread Group 1-519,text,true,,301,3226,4,4,334,0,264
1534925427560,351,HTTP Request,200,OK,bzm - Arrivals Thread Group 1-520,text,true,,301,3226,4,4,351,0,266
1534925427660,347,HTTP Request,200,OK,bzm - Arrivals Thread Group 1-521,text,true,,301,3226,4,4,347,0,274
1534925427760,373,HTTP Request,200,OK,bzm - Arrivals Thread Group 1-522,text,true,,301,3226,4,4,373,0,282
1534925427860,396,HTTP Request,200,OK,bzm - Arrivals Thread Group 1-523,text,true,,301,3226,4,4,396,0,320
1534925427960,441,HTTP Request,200,OK,bzm - Arrivals Thread Group 1-524,text,true,,301,3226,5,5,440,0,353
1534925428060,386,HTTP Request,200,OK,bzm - Arrivals Thread Group 1-525,text,true,,301,3226,4,4,386,0,313
1534925428160,358,HTTP Request,200,OK,bzm - Arrivals Thread Group 1-526,text,true,,301,3226,4,4,358,0,278
1534925428260,359,HTTP Request,200,OK,bzm - Arrivals Thread Group 1-527,text,true,,301,3226,4,4,359,0,274
1534925428360,367,HTTP Request,200,OK,bzm - Arrivals Thread Group 1-528,text,true,,301,3226,4,4,367,0,278
1534925428460,337,HTTP Request,200,OK,bzm - Arrivals Thread Group 1-529,text,true,,301,3226,4,4,337,0,267
1534925428560,350,HTTP Request,200,OK,bzm - Arrivals Thread Group 1-530,text,true,,301,3226,4,4,350,0,278
1534925428659,360,HTTP Request,200,OK,bzm - Arrivals Thread Group 1-531,text,true,,301,3226,4,4,360,0,287
1534925428760,359,HTTP Request,200,OK,bzm - Arrivals Thread Group 1-532,text,true,,301,3226,4,4,359,0,284
1534925428860,366,HTTP Request,200,OK,bzm - Arrivals Thread Group 1-533,text,true,,301,3226,4,4,366,0,274
1534925428960,345,HTTP Request,200,OK,bzm - Arrivals Thread Group 1-534,text,true,,301,3226,4,4,345,0,274
1534925429060,357,HTTP Request,200,OK,bzm - Arrivals Thread Group 1-535,text,true,,301,3226,4,4,357,0,286
1534925429160,344,HTTP Request,200,OK,bzm - Arrivals Thread Group 1-536,text,true,,301,3226,4,4,344,0,273
1534925429260,355,HTTP Request,200,OK,bzm - Arrivals Thread Group 1-537,text,true,,301,3226,4,4,355,0,279
1534925429360,350,HTTP Request,200,OK,bzm - Arrivals Thread Group 1-538,text,true,,301,3226,4,4,350,0,274
1534925429460,352,HTTP Request,200,OK,bzm - Arrivals Thread Group 1-539,text,true,,301,3226,4,4,352,0,278
1534925429560,342,HTTP Request,200,OK,bzm - Arrivals Thread Group 1-540,text,true,,301,3226,4,4,342,0,264
1534925429660,353,HTTP Request,200,OK,bzm - Arrivals Thread Group 1-541,text,true,,301,3226,4,4,353,0,277
1534925429760,353,HTTP Request,200,OK,bzm - Arrivals Thread Group 1-542,text,true,,301,3226,4,4,353,0,279
1534925429860,371,HTTP Request,200,OK,bzm - Arrivals Thread Group 1-543,text,true,,301,3226,4,4,371,0,295
1534925429960,350,HTTP Request,200,OK,bzm - Arrivals Thread Group 1-544,text,true,,301,3226,4,4,350,0,274
1534925430060,334,HTTP Request,200,OK,bzm - Arrivals Thread Group 1-545,text,true,,301,3226,4,4,334,0,264
1534925430160,358,HTTP Request,200,OK,bzm - Arrivals Thread Group 1-546,text,true,,301,3226,4,4,358,0,282
1534925430260,368,HTTP Request,200,OK,bzm - Arrivals Thread Group 1-547,text,true,,301,3226,4,4,368,0,270
1534925430360,352,HTTP Request,200,OK,bzm - Arrivals Thread Group 1-548,text,true,,301,3226,4,4,352,0,280
1534925430460,354,HTTP Request,200,OK,bzm - Arrivals Thread Group 1-549,text,true,,301,3226,4,4,354,0,277
1534925430560,360,HTTP Request,200,OK,bzm - Arrivals Thread Group 1-550,text,true,,301,3226,4,4,360,0,288
1534925430660,346,HTTP Request,200,OK,bzm - Arrivals Thread Group 1-551,text,true,,301,3226,4,4,346,0,275
1534925430760,351,HTTP Request,200,OK,bzm - Arrivals Thread Group 1-552,text,true,,301,3226,4,4,351,0,276
1534925430860,345,HTTP Request,200,OK,bzm - Arrivals Thread Group 1-553,text,true,,301,3226,4,4,345,0,273
1534925430960,349,HTTP Request,200,OK,bzm - Arrivals Thread Group 1-554,text,true,,301,3226,4,4,349,0,275
1534925431060,349,HTTP Request,200,OK,bzm - Arrivals Thread Group 1-555,text,true,,301,3226,4,4,349,0,276
1534925431160,354,HTTP Request,200,OK,bzm - Arrivals Thread Group 1-556,text,true,,301,3226,4,4,354,0,279
1534925431260,364,HTTP Request,200,OK,bzm - Arrivals Thread Group 1-557,text,true,,301,3226,4,4,364,0,288
1534925431360,360,HTTP Request,200,OK,bzm - Arrivals Thread Group 1-558,text,true,,301,3226,3,3,360,0,284
1534925431460,332,HTTP Request,200,OK,bzm - Arrivals Thread Group 1-559,text,true,,301,3226,2,2,332,0,261
1534925431560,350,HTTP Request,200,OK,bzm - Arrivals Thread Group 1-560,text,true,,301,3226,1,1,350,0,280
