timeStamp,elapsed,label,responseCode,responseMessage,threadName,dataType,success,failureMessage,bytes,sentBytes,grpThreads,allThreads,Latency,IdleTime,Connect
1535012221368,876,HTTP Request,200,OK,bzm - Arrivals Thread Group 1-2,text,true,,1030,3206,3,3,876,0,283
1535012220928,1378,HTTP Request,200,OK,bzm - Arrivals Thread Group 1-1,text,true,,1038,3206,2,2,1378,0,723
1535012221868,603,HTTP Request,200,OK,bzm - Arrivals Thread Group 1-3,text,true,,1030,3206,2,2,603,0,282
1535012222367,531,HTTP Request,200,OK,bzm - Arrivals Thread Group 1-4,text,true,,1038,3206,2,2,531,0,273
1535012222867,484,HTTP Request,200,OK,bzm - Arrivals Thread Group 1-5,text,true,,1030,3206,1,1,484,0,264
1535012223367,507,HTTP Request,200,OK,bzm - Arrivals Thread Group 1-6,text,true,,1038,3206,2,2,507,0,295
1535012223868,472,HTTP Request,200,OK,bzm - Arrivals Thread Group 1-7,text,true,,1038,3206,1,1,472,0,293
1535012224369,541,HTTP Request,200,OK,bzm - Arrivals Thread Group 1-8,text,true,,1030,3206,2,2,541,0,286
1535012224869,545,HTTP Request,200,OK,bzm - Arrivals Thread Group 1-9,text,true,,1030,3206,2,2,545,0,295
1535012225369,703,HTTP Request,200,OK,bzm - Arrivals Thread Group 1-10,text,true,,1030,3206,2,2,703,0,302
1535012225868,561,HTTP Request,200,OK,bzm - Arrivals Thread Group 1-11,text,true,,1038,3206,2,2,561,0,284
1535012226369,758,HTTP Request,200,OK,bzm - Arrivals Thread Group 1-12,text,true,,1038,3206,2,2,758,0,262
1535012226869,617,HTTP Request,200,OK,bzm - Arrivals Thread Group 1-13,text,true,,1038,3206,2,2,617,0,278
1535012227372,442,HTTP Request,200,OK,bzm - Arrivals Thread Group 1-14,text,true,,1030,3206,1,1,442,0,262
1535012227867,452,HTTP Request,200,OK,bzm - Arrivals Thread Group 1-15,text,true,,1038,3206,1,1,451,0,293
1535012228367,459,HTTP Request,200,OK,bzm - Arrivals Thread Group 1-16,text,true,,1038,3206,1,1,459,0,272
1535012228867,601,HTTP Request,200,OK,bzm - Arrivals Thread Group 1-17,text,true,,1038,3206,2,2,601,0,272
1535012229367,561,HTTP Request,200,OK,bzm - Arrivals Thread Group 1-18,text,true,,1030,3206,2,2,561,0,264
1535012229867,494,HTTP Request,200,OK,bzm - Arrivals Thread Group 1-19,text,true,,1030,3206,1,1,494,0,298
1535012230367,412,HTTP Request,200,OK,bzm - Arrivals Thread Group 1-20,text,true,,1038,3206,1,1,412,0,265
1535012230867,489,HTTP Request,200,OK,bzm - Arrivals Thread Group 1-21,text,true,,1038,3206,1,1,489,0,294
1535012231367,462,HTTP Request,200,OK,bzm - Arrivals Thread Group 1-22,text,true,,1030,3206,1,1,462,0,272
1535012231867,644,HTTP Request,200,OK,bzm - Arrivals Thread Group 1-23,text,true,,1038,3206,2,2,644,0,299
1535012232367,508,HTTP Request,200,OK,bzm - Arrivals Thread Group 1-24,text,true,,1030,3206,2,2,508,0,272
1535012232868,446,HTTP Request,200,OK,bzm - Arrivals Thread Group 1-25,text,true,,1038,3206,2,2,446,0,278
1535012233117,398,HTTP Request,200,OK,bzm - Arrivals Thread Group 1-26,text,true,,1038,3206,2,2,398,0,262
1535012233367,488,HTTP Request,200,OK,bzm - Arrivals Thread Group 1-27,text,true,,1038,3206,2,2,488,0,284
1535012233617,697,HTTP Request,200,OK,bzm - Arrivals Thread Group 1-28,text,true,,1038,3206,3,3,697,0,293
1535012233867,526,HTTP Request,200,OK,bzm - Arrivals Thread Group 1-29,text,true,,1030,3206,3,3,526,0,289
1535012234117,567,HTTP Request,200,OK,bzm - Arrivals Thread Group 1-30,text,true,,1030,3206,3,3,567,0,269
1535012234367,639,HTTP Request,200,OK,bzm - Arrivals Thread Group 1-31,text,true,,1030,3206,3,3,639,0,264
1535012234617,456,HTTP Request,200,OK,bzm - Arrivals Thread Group 1-32,text,true,,1038,3206,2,2,456,0,262
1535012234867,503,HTTP Request,200,OK,bzm - Arrivals Thread Group 1-33,text,true,,1038,3206,3,3,503,0,289
1535012235117,428,HTTP Request,200,OK,bzm - Arrivals Thread Group 1-34,text,true,,1030,3206,2,2,428,0,261
1535012235367,505,HTTP Request,200,OK,bzm - Arrivals Thread Group 1-35,text,true,,1038,3206,3,3,505,0,292
1535012235617,554,HTTP Request,200,OK,bzm - Arrivals Thread Group 1-36,text,true,,1030,3206,3,3,554,0,283
1535012235867,434,HTTP Request,200,OK,bzm - Arrivals Thread Group 1-37,text,true,,1038,3206,2,2,434,0,293
1535012236117,397,HTTP Request,200,OK,bzm - Arrivals Thread Group 1-38,text,true,,1030,3206,2,2,397,0,261
1535012236367,401,HTTP Request,200,OK,bzm - Arrivals Thread Group 1-39,text,true,,1030,3206,2,2,401,0,271
1535012236617,451,HTTP Request,200,OK,bzm - Arrivals Thread Group 1-40,text,true,,1038,3206,2,2,451,0,278
1535012236867,527,HTTP Request,200,OK,bzm - Arrivals Thread Group 1-41,text,true,,1030,3206,3,3,527,0,294
1535012237117,478,HTTP Request,200,OK,bzm - Arrivals Thread Group 1-42,text,true,,1038,3206,2,2,478,0,291
1535012237367,482,HTTP Request,200,OK,bzm - Arrivals Thread Group 1-43,text,true,,1038,3206,2,2,482,0,263
1535012237617,434,HTTP Request,200,OK,bzm - Arrivals Thread Group 1-44,text,true,,1030,3206,2,2,434,0,288
1535012237876,431,HTTP Request,200,OK,bzm - Arrivals Thread Group 1-45,text,true,,1038,3206,2,2,431,0,270
1535012238117,448,HTTP Request,200,OK,bzm - Arrivals Thread Group 1-46,text,true,,1030,3206,2,2,448,0,284
1535012238367,404,HTTP Request,200,OK,bzm - Arrivals Thread Group 1-47,text,true,,1038,3206,2,2,404,0,268
1535012238617,436,HTTP Request,200,OK,bzm - Arrivals Thread Group 1-48,text,true,,1030,3206,2,2,436,0,262
1535012238867,439,HTTP Request,200,OK,bzm - Arrivals Thread Group 1-49,text,true,,1030,3206,2,2,438,0,280
1535012239117,507,HTTP Request,200,OK,bzm - Arrivals Thread Group 1-50,text,true,,1030,3206,3,3,507,0,287
1535012239367,688,HTTP Request,200,OK,bzm - Arrivals Thread Group 1-51,text,true,,1030,3206,3,3,688,0,289
1535012239617,498,HTTP Request,200,OK,bzm - Arrivals Thread Group 1-52,text,true,,1038,3206,2,2,498,0,291
1535012239867,542,HTTP Request,200,OK,bzm - Arrivals Thread Group 1-53,text,true,,1038,3206,3,3,542,0,275
1535012240117,546,HTTP Request,200,OK,bzm - Arrivals Thread Group 1-54,text,true,,1038,3206,3,3,546,0,278
1535012240367,520,HTTP Request,200,OK,bzm - Arrivals Thread Group 1-55,text,true,,1038,3206,3,3,520,0,263
1535012240617,507,HTTP Request,200,OK,bzm - Arrivals Thread Group 1-56,text,true,,1038,3206,3,3,507,0,291
1535012240867,488,HTTP Request,200,OK,bzm - Arrivals Thread Group 1-57,text,true,,1030,3206,2,2,488,0,263
1535012241117,446,HTTP Request,200,OK,bzm - Arrivals Thread Group 1-58,text,true,,1038,3206,2,2,446,0,270
1535012241367,526,HTTP Request,200,OK,bzm - Arrivals Thread Group 1-59,text,true,,1030,3206,3,3,526,0,268
1535012241617,592,HTTP Request,200,OK,bzm - Arrivals Thread Group 1-60,text,true,,1030,3206,3,3,592,0,296
1535012241868,439,HTTP Request,200,OK,bzm - Arrivals Thread Group 1-61,text,true,,1038,3206,2,2,439,0,262
1535012242117,505,HTTP Request,200,OK,bzm - Arrivals Thread Group 1-62,text,true,,1030,3206,3,3,505,0,274
1535012242367,443,HTTP Request,200,OK,bzm - Arrivals Thread Group 1-63,text,true,,1038,3206,2,2,443,0,280
1535012242617,416,HTTP Request,200,OK,bzm - Arrivals Thread Group 1-64,text,true,,1030,3206,2,2,416,0,277
1535012242867,446,HTTP Request,200,OK,bzm - Arrivals Thread Group 1-65,text,true,,1030,3206,2,2,446,0,298
1535012243117,395,HTTP Request,200,OK,bzm - Arrivals Thread Group 1-66,text,true,,1038,3206,2,2,395,0,270
1535012243367,407,HTTP Request,200,OK,bzm - Arrivals Thread Group 1-67,text,true,,1030,3206,2,2,406,0,276
1535012243617,418,HTTP Request,200,OK,bzm - Arrivals Thread Group 1-68,text,true,,1038,3206,2,2,418,0,286
1535012243867,438,HTTP Request,200,OK,bzm - Arrivals Thread Group 1-69,text,true,,1038,3206,2,2,438,0,268
1535012244117,407,HTTP Request,200,OK,bzm - Arrivals Thread Group 1-70,text,true,,1030,3206,2,2,407,0,269
1535012244367,499,HTTP Request,200,OK,bzm - Arrivals Thread Group 1-71,text,true,,1038,3206,3,2,499,0,281
1535012244617,408,HTTP Request,200,OK,bzm - Arrivals Thread Group 1-72,text,true,,1030,3206,2,2,408,0,270
1535012244867,448,HTTP Request,200,OK,bzm - Arrivals Thread Group 1-73,text,true,,1038,3206,3,3,448,0,290
1535012245033,513,HTTP Request,200,OK,bzm - Arrivals Thread Group 1-74,text,true,,1038,3206,4,4,513,0,263
1535012245367,449,HTTP Request,200,OK,bzm - Arrivals Thread Group 1-76,text,true,,1030,3206,4,4,449,0,284
1535012245533,393,HTTP Request,200,OK,bzm - Arrivals Thread Group 1-77,text,true,,1038,3206,4,4,392,0,263
1535012245200,822,HTTP Request,200,OK,bzm - Arrivals Thread Group 1-75,text,true,,1038,3206,3,3,822,0,262
1535012245700,555,HTTP Request,200,OK,bzm - Arrivals Thread Group 1-78,text,true,,1038,3206,4,4,555,0,289
1535012245867,602,HTTP Request,200,OK,bzm - Arrivals Thread Group 1-79,text,true,,1030,3206,4,4,602,0,291
1535012246033,453,HTTP Request,200,OK,bzm - Arrivals Thread Group 1-80,text,true,,1038,3206,3,3,453,0,269
1535012246200,384,HTTP Request,200,OK,bzm - Arrivals Thread Group 1-81,text,true,,1038,3206,3,3,384,0,263
1535012246367,398,HTTP Request,200,OK,bzm - Arrivals Thread Group 1-82,text,true,,1030,3206,3,3,398,0,272
1535012246533,463,HTTP Request,200,OK,bzm - Arrivals Thread Group 1-83,text,true,,1030,3206,3,3,463,0,280
1535012246700,404,HTTP Request,200,OK,bzm - Arrivals Thread Group 1-84,text,true,,1038,3206,3,3,404,0,262
1535012246867,435,HTTP Request,200,OK,bzm - Arrivals Thread Group 1-85,text,true,,1030,3206,3,3,435,0,293
1535012247033,410,HTTP Request,200,OK,bzm - Arrivals Thread Group 1-86,text,true,,1038,3206,3,3,410,0,264
1535012247200,403,HTTP Request,200,OK,bzm - Arrivals Thread Group 1-87,text,true,,1038,3206,3,3,403,0,262
1535012247367,447,HTTP Request,200,OK,bzm - Arrivals Thread Group 1-88,text,true,,1030,3206,3,3,447,0,289
1535012247533,458,HTTP Request,200,OK,bzm - Arrivals Thread Group 1-89,text,true,,1038,3206,3,3,458,0,269
1535012247700,404,HTTP Request,200,OK,bzm - Arrivals Thread Group 1-90,text,true,,1038,3206,3,3,404,0,266
1535012247867,408,HTTP Request,200,OK,bzm - Arrivals Thread Group 1-91,text,true,,1038,3206,3,3,408,0,281
1535012248033,415,HTTP Request,200,OK,bzm - Arrivals Thread Group 1-92,text,true,,1030,3206,3,3,415,0,273
1535012248200,556,HTTP Request,200,OK,bzm - Arrivals Thread Group 1-93,text,true,,1038,3206,4,4,556,0,282
1535012248367,576,HTTP Request,200,OK,bzm - Arrivals Thread Group 1-94,text,true,,1030,3206,4,4,576,0,263
1535012248533,493,HTTP Request,200,OK,bzm - Arrivals Thread Group 1-95,text,true,,1038,3206,3,3,493,0,276
1535012248700,434,HTTP Request,200,OK,bzm - Arrivals Thread Group 1-96,text,true,,1030,3206,3,3,434,0,264
1535012248867,544,HTTP Request,200,OK,bzm - Arrivals Thread Group 1-97,text,true,,1038,3206,4,4,544,0,281
1535012249033,459,HTTP Request,200,OK,bzm - Arrivals Thread Group 1-98,text,true,,1030,3206,3,3,459,0,270
1535012249200,449,HTTP Request,200,OK,bzm - Arrivals Thread Group 1-99,text,true,,1030,3206,3,3,449,0,282
1535012249367,443,HTTP Request,200,OK,bzm - Arrivals Thread Group 1-100,text,true,,1030,3206,3,3,443,0,282
1535012249533,462,HTTP Request,200,OK,bzm - Arrivals Thread Group 1-101,text,true,,1030,3206,3,3,462,0,271
1535012249700,513,HTTP Request,200,OK,bzm - Arrivals Thread Group 1-102,text,true,,1030,3206,4,4,513,0,266
1535012249867,453,HTTP Request,200,OK,bzm - Arrivals Thread Group 1-103,text,true,,1030,3206,3,3,453,0,274
1535012250033,455,HTTP Request,200,OK,bzm - Arrivals Thread Group 1-104,text,true,,1030,3206,3,3,454,0,291
1535012250208,424,HTTP Request,200,OK,bzm - Arrivals Thread Group 1-105,text,true,,1030,3206,3,3,424,0,262
1535012250367,550,HTTP Request,200,OK,bzm - Arrivals Thread Group 1-106,text,true,,1030,3206,4,4,550,0,259
1535012250533,439,HTTP Request,200,OK,bzm - Arrivals Thread Group 1-107,text,true,,1030,3206,3,3,439,0,278
1535012250700,552,HTTP Request,200,OK,bzm - Arrivals Thread Group 1-108,text,true,,1030,3206,4,4,552,0,279
1535012250867,485,HTTP Request,200,OK,bzm - Arrivals Thread Group 1-109,text,true,,1030,3206,3,3,485,0,258
1535012251032,404,HTTP Request,200,OK,bzm - Arrivals Thread Group 1-110,text,true,,1038,3206,3,3,404,0,269
1535012251199,542,HTTP Request,200,OK,bzm - Arrivals Thread Group 1-111,text,true,,1038,3206,4,4,542,0,278
1535012251366,441,HTTP Request,200,OK,bzm - Arrivals Thread Group 1-112,text,true,,1030,3206,3,3,441,0,271
1535012251532,512,HTTP Request,200,OK,bzm - Arrivals Thread Group 1-113,text,true,,1030,3206,4,4,512,0,270
1535012251866,401,HTTP Request,200,OK,bzm - Arrivals Thread Group 1-115,text,true,,1030,3206,4,4,401,0,282
1535012251699,661,HTTP Request,200,OK,bzm - Arrivals Thread Group 1-114,text,true,,1038,3206,3,3,661,0,284
1535012252032,431,HTTP Request,200,OK,bzm - Arrivals Thread Group 1-116,text,true,,1038,3206,3,3,431,0,288
1535012252199,430,HTTP Request,200,OK,bzm - Arrivals Thread Group 1-117,text,true,,1030,3206,3,3,430,0,280
1535012252532,418,HTTP Request,200,OK,bzm - Arrivals Thread Group 1-119,text,true,,1030,3206,4,4,418,0,265
1535012252367,627,HTTP Request,200,OK,bzm - Arrivals Thread Group 1-118,text,true,,1038,3206,3,3,627,0,263
1535012252699,456,HTTP Request,200,OK,bzm - Arrivals Thread Group 1-120,text,true,,1038,3206,3,3,456,0,292
1535012253032,422,HTTP Request,200,OK,bzm - Arrivals Thread Group 1-122,text,true,,1038,3206,4,4,422,0,282
1535012252866,636,HTTP Request,200,OK,bzm - Arrivals Thread Group 1-121,text,true,,1038,3206,3,3,636,0,272
1535012253366,444,HTTP Request,200,OK,bzm - Arrivals Thread Group 1-124,text,true,,1030,3206,4,4,444,0,279
1535012253199,637,HTTP Request,200,OK,bzm - Arrivals Thread Group 1-123,text,true,,1038,3206,3,3,637,0,283
1535012253532,466,HTTP Request,200,OK,bzm - Arrivals Thread Group 1-125,text,true,,1038,3206,3,3,466,0,266
1535012253699,415,HTTP Request,200,OK,bzm - Arrivals Thread Group 1-126,text,true,,1038,3206,3,3,415,0,279
1535012253866,450,HTTP Request,200,OK,bzm - Arrivals Thread Group 1-127,text,true,,1038,3206,3,3,450,0,273
1535012254032,540,HTTP Request,200,OK,bzm - Arrivals Thread Group 1-128,text,true,,1038,3206,4,4,540,0,282
1535012254199,439,HTTP Request,200,OK,bzm - Arrivals Thread Group 1-129,text,true,,1030,3206,3,3,439,0,262
1535012254366,465,HTTP Request,200,OK,bzm - Arrivals Thread Group 1-130,text,true,,1030,3206,3,3,465,0,289
1535012254532,438,HTTP Request,200,OK,bzm - Arrivals Thread Group 1-131,text,true,,1030,3206,3,3,438,0,285
1535012254699,500,HTTP Request,200,OK,bzm - Arrivals Thread Group 1-132,text,true,,1030,3206,4,3,500,0,278
1535012254866,450,HTTP Request,200,OK,bzm - Arrivals Thread Group 1-133,text,true,,1038,3206,3,3,450,0,297
1535012255032,417,HTTP Request,200,OK,bzm - Arrivals Thread Group 1-134,text,true,,1030,3206,3,3,417,0,278
1535012255199,391,HTTP Request,200,OK,bzm - Arrivals Thread Group 1-135,text,true,,1038,3206,3,3,391,0,263
1535012255370,438,HTTP Request,200,OK,bzm - Arrivals Thread Group 1-136,text,true,,1030,3206,3,3,438,0,273
1535012255532,449,HTTP Request,200,OK,bzm - Arrivals Thread Group 1-137,text,true,,1030,3206,3,3,449,0,292
1535012255699,467,HTTP Request,200,OK,bzm - Arrivals Thread Group 1-138,text,true,,1038,3206,3,3,467,0,279
1535012255866,437,HTTP Request,200,OK,bzm - Arrivals Thread Group 1-139,text,true,,1038,3206,3,3,437,0,275
1535012256033,389,HTTP Request,200,OK,bzm - Arrivals Thread Group 1-140,text,true,,1038,3206,3,3,389,0,272
1535012256200,431,HTTP Request,200,OK,bzm - Arrivals Thread Group 1-141,text,true,,1038,3206,3,3,431,0,292
1535012256367,431,HTTP Request,200,OK,bzm - Arrivals Thread Group 1-142,text,true,,1030,3206,3,3,431,0,296
1535012256533,393,HTTP Request,200,OK,bzm - Arrivals Thread Group 1-143,text,true,,1038,3206,3,3,393,0,265
1535012256700,428,HTTP Request,200,OK,bzm - Arrivals Thread Group 1-144,text,true,,1038,3206,4,4,428,0,258
1535012256867,431,HTTP Request,200,OK,bzm - Arrivals Thread Group 1-145,text,true,,1038,3206,4,4,431,0,276
1535012256992,419,HTTP Request,200,OK,bzm - Arrivals Thread Group 1-146,text,true,,1038,3206,4,4,419,0,289
1535012257117,388,HTTP Request,200,OK,bzm - Arrivals Thread Group 1-147,text,true,,1030,3206,4,4,388,0,261
1535012257242,429,HTTP Request,200,OK,bzm - Arrivals Thread Group 1-148,text,true,,1038,3206,4,4,429,0,295
1535012257367,484,HTTP Request,200,OK,bzm - Arrivals Thread Group 1-149,text,true,,1030,3206,4,4,484,0,290
1535012257492,431,HTTP Request,200,OK,bzm - Arrivals Thread Group 1-150,text,true,,1030,3206,4,4,431,0,278
1535012257617,411,HTTP Request,200,OK,bzm - Arrivals Thread Group 1-151,text,true,,1030,3206,4,4,411,0,271
1535012257742,413,HTTP Request,200,OK,bzm - Arrivals Thread Group 1-152,text,true,,1038,3206,4,4,413,0,268
1535012257867,443,HTTP Request,200,OK,bzm - Arrivals Thread Group 1-153,text,true,,1038,3206,4,4,443,0,290
1535012257992,495,HTTP Request,200,OK,bzm - Arrivals Thread Group 1-154,text,true,,1038,3206,4,4,495,0,262
1535012258117,409,HTTP Request,200,OK,bzm - Arrivals Thread Group 1-155,text,true,,1030,3206,4,4,409,0,291
1535012258242,446,HTTP Request,200,OK,bzm - Arrivals Thread Group 1-156,text,true,,1030,3206,4,4,446,0,296
1535012258492,416,HTTP Request,200,OK,bzm - Arrivals Thread Group 1-158,text,true,,1030,3206,5,5,416,0,262
1535012258367,575,HTTP Request,200,OK,bzm - Arrivals Thread Group 1-157,text,true,,1038,3206,4,4,575,0,269
1535012258617,418,HTTP Request,200,OK,bzm - Arrivals Thread Group 1-159,text,true,,1030,3206,4,4,418,0,291
1535012258742,417,HTTP Request,200,OK,bzm - Arrivals Thread Group 1-160,text,true,,1038,3206,4,4,417,0,273
1535012258867,399,HTTP Request,200,OK,bzm - Arrivals Thread Group 1-161,text,true,,1030,3206,4,4,399,0,267
1535012258992,446,HTTP Request,200,OK,bzm - Arrivals Thread Group 1-162,text,true,,1038,3206,4,4,446,0,264
1535012259117,464,HTTP Request,200,OK,bzm - Arrivals Thread Group 1-163,text,true,,1038,3206,4,4,464,0,294
1535012259242,410,HTTP Request,200,OK,bzm - Arrivals Thread Group 1-164,text,true,,1038,3206,4,4,410,0,276
1535012259367,509,HTTP Request,200,OK,bzm - Arrivals Thread Group 1-165,text,true,,1030,3206,5,4,509,0,313
1535012259492,438,HTTP Request,200,OK,bzm - Arrivals Thread Group 1-166,text,true,,1038,3206,4,4,438,0,269
1535012259617,477,HTTP Request,200,OK,bzm - Arrivals Thread Group 1-167,text,true,,1030,3206,4,4,477,0,305
1535012259742,417,HTTP Request,200,OK,bzm - Arrivals Thread Group 1-168,text,true,,1038,3206,4,4,417,0,260
1535012259877,396,HTTP Request,200,OK,bzm - Arrivals Thread Group 1-169,text,true,,1030,3206,4,4,396,0,262
1535012259992,408,HTTP Request,200,OK,bzm - Arrivals Thread Group 1-170,text,true,,1030,3206,4,4,408,0,266
1535012260117,391,HTTP Request,200,OK,bzm - Arrivals Thread Group 1-171,text,true,,1038,3206,4,4,391,0,277
1535012260242,403,HTTP Request,200,OK,bzm - Arrivals Thread Group 1-172,text,true,,1038,3206,4,4,403,0,260
1535012260367,423,HTTP Request,200,OK,bzm - Arrivals Thread Group 1-173,text,true,,1038,3206,4,4,423,0,286
1535012260492,440,HTTP Request,200,OK,bzm - Arrivals Thread Group 1-174,text,true,,1038,3206,4,4,440,0,288
1535012260617,491,HTTP Request,200,OK,bzm - Arrivals Thread Group 1-175,text,true,,1038,3206,4,4,491,0,280
1535012260742,405,HTTP Request,200,OK,bzm - Arrivals Thread Group 1-176,text,true,,1030,3206,4,4,405,0,280
1535012260867,443,HTTP Request,200,OK,bzm - Arrivals Thread Group 1-177,text,true,,1030,3206,4,4,443,0,276
1535012260992,415,HTTP Request,200,OK,bzm - Arrivals Thread Group 1-178,text,true,,1038,3206,4,4,415,0,281
1535012261117,475,HTTP Request,200,OK,bzm - Arrivals Thread Group 1-179,text,true,,1038,3206,4,4,475,0,262
1535012261242,470,HTTP Request,200,OK,bzm - Arrivals Thread Group 1-180,text,true,,1030,3206,4,4,470,0,292
1535012261492,416,HTTP Request,200,OK,bzm - Arrivals Thread Group 1-182,text,true,,1030,3206,5,5,416,0,266
1535012261367,542,HTTP Request,200,OK,bzm - Arrivals Thread Group 1-181,text,true,,1038,3206,4,4,542,0,291
1535012261617,425,HTTP Request,200,OK,bzm - Arrivals Thread Group 1-183,text,true,,1038,3206,4,4,425,0,269
1535012261742,430,HTTP Request,200,OK,bzm - Arrivals Thread Group 1-184,text,true,,1030,3206,4,4,430,0,286
1535012261867,403,HTTP Request,200,OK,bzm - Arrivals Thread Group 1-185,text,true,,1038,3206,4,4,403,0,275
1535012261992,372,HTTP Request,200,OK,bzm - Arrivals Thread Group 1-186,text,true,,1030,3206,3,3,372,0,258
