timeStamp,elapsed,label,responseCode,responseMessage,threadName,dataType,success,failureMessage,bytes,sentBytes,grpThreads,allThreads,Latency,IdleTime,Connect
1536178406609,812,HTTP Request,200,OK,Thread Group 1-3,text,true,,943,3206,42,42,812,0,572
1536178407192,239,HTTP Request,200,OK,Thread Group 1-32,text,true,,1038,3206,42,42,239,0,94
1536178406924,505,HTTP Request,200,OK,Thread Group 1-19,text,true,,943,3206,41,41,505,0,256
1536178406792,660,HTTP Request,200,OK,Thread Group 1-13,text,true,,1038,3206,41,41,660,0,390
1536178407127,336,HTTP Request,200,OK,Thread Group 1-29,text,true,,1038,3206,40,40,336,0,51
1536178407339,144,HTTP Request,200,OK,Thread Group 1-39,text,true,,1038,3206,40,40,144,0,55
1536178406945,570,HTTP Request,200,OK,Thread Group 1-20,text,true,,1038,3206,41,41,570,0,238
1536178407150,366,HTTP Request,200,OK,Thread Group 1-30,text,true,,1038,3206,40,40,366,0,60
1536178407380,138,HTTP Request,200,OK,Thread Group 1-41,text,true,,1038,3206,39,39,138,0,50
1536178407066,452,HTTP Request,200,OK,Thread Group 1-26,text,true,,1038,3206,39,39,452,0,116
1536178407107,424,HTTP Request,200,OK,Thread Group 1-28,text,true,,943,3206,37,37,424,0,75
1536178406860,674,HTTP Request,200,OK,Thread Group 1-16,text,true,,943,3206,37,37,674,0,321
1536178407360,192,HTTP Request,200,OK,Thread Group 1-40,text,true,,943,3206,36,36,192,0,54
1536178406606,950,HTTP Request,200,OK,Thread Group 1-1,text,true,,943,3206,36,36,950,0,574
1536178406688,881,HTTP Request,200,OK,Thread Group 1-8,text,true,,1038,3206,35,35,881,0,493
1536178407171,403,HTTP Request,200,OK,Thread Group 1-31,text,true,,1038,3206,34,34,403,0,113
1536178406813,761,HTTP Request,200,OK,Thread Group 1-14,text,true,,943,3206,33,33,761,0,368
1536178406668,910,HTTP Request,200,OK,Thread Group 1-7,text,true,,1038,3206,32,32,910,0,514
1536178407234,379,HTTP Request,200,OK,Thread Group 1-34,text,true,,1038,3206,33,33,378,0,52
1536178407087,526,HTTP Request,200,OK,Thread Group 1-27,text,true,,943,3206,33,33,526,0,94
1536178407424,189,HTTP Request,200,OK,Thread Group 1-43,text,true,,943,3206,31,31,189,0,54
1536178407400,181,HTTP Request,200,OK,Thread Group 1-42,text,true,,1038,3206,32,32,181,0,62
1536178407279,341,HTTP Request,200,OK,Thread Group 1-36,text,true,,1038,3206,29,29,341,0,63
1536178406609,1010,HTTP Request,200,OK,Thread Group 1-4,text,true,,943,3206,28,28,1010,0,572
1536178407319,306,HTTP Request,200,OK,Thread Group 1-38,text,true,,1038,3206,27,27,306,0,51
1536178406648,988,HTTP Request,200,OK,Thread Group 1-6,text,true,,1038,3206,27,27,988,0,534
1536178407444,210,HTTP Request,200,OK,Thread Group 1-44,text,true,,1038,3206,26,26,210,0,54
1536178406879,782,HTTP Request,200,OK,Thread Group 1-17,text,true,,1038,3206,26,26,782,0,298
1536178407299,394,HTTP Request,200,OK,Thread Group 1-37,text,true,,1038,3206,26,26,394,0,51
1536178407464,240,HTTP Request,200,OK,Thread Group 1-45,text,true,,943,3206,26,26,239,0,51
1536178407281,425,HTTP Request,200,OK,Thread Group 1-35,text,true,,943,3206,25,25,425,0,53
1536178407485,224,HTTP Request,200,OK,Thread Group 1-46,text,true,,1038,3206,24,24,224,0,51
1536178407213,505,HTTP Request,200,OK,Thread Group 1-33,text,true,,1038,3206,23,23,505,0,65
1536178406750,975,HTTP Request,200,OK,Thread Group 1-11,text,true,,943,3206,23,23,975,0,431
1536178407557,192,HTTP Request,200,OK,Thread Group 1-49,text,true,,1038,3206,23,23,192,0,55
1536178407533,254,HTTP Request,200,OK,Thread Group 1-48,text,true,,1038,3206,24,24,254,0,49
1536178407512,294,HTTP Request,200,OK,Thread Group 1-47,text,true,,1038,3206,24,24,294,0,54
1536178407609,207,HTTP Request,200,OK,Thread Group 1-51,text,true,,1038,3206,23,23,207,0,65
1536178407627,229,HTTP Request,200,OK,Thread Group 1-52,text,true,,1038,3206,24,24,229,0,51
1536178407580,294,HTTP Request,200,OK,Thread Group 1-50,text,true,,1038,3206,23,23,294,0,78
1536178407760,152,HTTP Request,200,OK,Thread Group 1-58,text,true,,1038,3206,24,24,152,0,50
1536178407680,250,HTTP Request,200,OK,Thread Group 1-54,text,true,,943,3206,24,24,250,0,50
1536178407700,295,HTTP Request,200,OK,Thread Group 1-55,text,true,,1038,3206,26,26,295,0,50
1536178407821,180,HTTP Request,200,OK,Thread Group 1-61,text,true,,1038,3206,25,25,180,0,49
1536178407800,212,HTTP Request,200,OK,Thread Group 1-60,text,true,,1038,3206,24,24,212,0,50
1536178407719,294,HTTP Request,200,OK,Thread Group 1-56,text,true,,1038,3206,24,24,294,0,55
1536178407740,325,HTTP Request,200,OK,Thread Group 1-57,text,true,,1038,3206,25,25,325,0,50
1536178407883,185,HTTP Request,200,OK,Thread Group 1-63,text,true,,1038,3206,24,24,185,0,51
1536178407841,277,HTTP Request,200,OK,Thread Group 1-62,text,true,,943,3206,26,26,277,0,53
1536178407949,205,HTTP Request,200,OK,Thread Group 1-66,text,true,,1038,3206,27,27,205,0,49
1536178407927,245,HTTP Request,200,OK,Thread Group 1-65,text,true,,943,3206,27,27,245,0,56
1536178407991,184,HTTP Request,200,OK,Thread Group 1-68,text,true,,1038,3206,26,26,184,0,51
1536178407780,405,HTTP Request,200,OK,Thread Group 1-59,text,true,,1038,3206,25,25,405,0,50
1536178407906,296,HTTP Request,200,OK,Thread Group 1-64,text,true,,943,3206,25,25,296,0,52
1536178407969,238,HTTP Request,200,OK,Thread Group 1-67,text,true,,1038,3206,24,24,238,0,55
1536178408032,197,HTTP Request,200,OK,Thread Group 1-70,text,true,,1038,3206,24,24,197,0,50
1536178408013,233,HTTP Request,200,OK,Thread Group 1-69,text,true,,1038,3206,24,24,233,0,57
1536178407658,590,HTTP Request,200,OK,Thread Group 1-53,text,true,,1038,3206,23,23,590,0,56
1536178408073,228,HTTP Request,200,OK,Thread Group 1-72,text,true,,1038,3206,24,24,228,0,49
1536178408053,259,HTTP Request,200,OK,Thread Group 1-71,text,true,,1038,3206,24,24,259,0,49
1536178408133,200,HTTP Request,200,OK,Thread Group 1-75,text,true,,1038,3206,24,24,200,0,49
1536178408173,186,HTTP Request,200,OK,Thread Group 1-77,text,true,,1038,3206,24,24,186,0,49
1536178408114,246,HTTP Request,200,OK,Thread Group 1-74,text,true,,1038,3206,23,23,246,0,48
1536178408153,259,HTTP Request,200,OK,Thread Group 1-76,text,true,,1038,3206,25,25,259,0,49
1536178408093,378,HTTP Request,200,OK,Thread Group 1-73,text,true,,1038,3206,27,27,378,0,49
1536178408281,211,HTTP Request,200,OK,Thread Group 1-82,text,true,,1038,3206,27,27,211,0,49
1536178408301,191,HTTP Request,200,OK,Thread Group 1-83,text,true,,1038,3206,27,27,191,0,53
1536178408235,262,HTTP Request,200,OK,Thread Group 1-80,text,true,,1038,3206,25,25,262,0,48
1536178408214,295,HTTP Request,200,OK,Thread Group 1-79,text,true,,1038,3206,25,25,295,0,48
1536178408194,351,HTTP Request,200,OK,Thread Group 1-78,text,true,,1038,3206,26,26,351,0,48
1536178408361,184,HTTP Request,200,OK,Thread Group 1-86,text,true,,1038,3206,26,26,184,0,49
1536178408254,302,HTTP Request,200,OK,Thread Group 1-81,text,true,,1038,3206,24,24,302,0,49
1536178408402,189,HTTP Request,200,OK,Thread Group 1-88,text,true,,1038,3206,25,25,189,0,52
1536178408321,278,HTTP Request,200,OK,Thread Group 1-84,text,true,,1038,3206,24,24,278,0,49
1536178408341,260,HTTP Request,200,OK,Thread Group 1-85,text,true,,1038,3206,23,23,260,0,49
1536178408381,244,HTTP Request,200,OK,Thread Group 1-87,text,true,,1038,3206,24,24,244,0,49
1536178408543,136,HTTP Request,200,OK,Thread Group 1-95,text,true,,1038,3206,25,25,136,0,51
1536178408429,286,HTTP Request,200,OK,Thread Group 1-89,text,true,,1038,3206,26,26,286,0,49
1536178408503,214,HTTP Request,200,OK,Thread Group 1-93,text,true,,1038,3206,25,25,214,0,51
1536178408481,238,HTTP Request,200,OK,Thread Group 1-92,text,true,,1038,3206,24,24,238,0,50
1536178408523,226,HTTP Request,200,OK,Thread Group 1-94,text,true,,1038,3206,25,25,226,0,51
1536178408564,201,HTTP Request,200,OK,Thread Group 1-96,text,true,,1038,3206,24,24,201,0,50
1536178408604,169,HTTP Request,200,OK,Thread Group 1-98,text,true,,1038,3206,24,24,169,0,58
1536178408624,184,HTTP Request,200,OK,Thread Group 1-99,text,true,,1038,3206,25,25,184,0,50
1536178408584,228,HTTP Request,200,OK,Thread Group 1-97,text,true,,1038,3206,24,24,228,0,49
1536178408705,165,HTTP Request,200,OK,Thread Group 1-103,text,true,,1038,3206,26,26,164,0,53
1536178408746,160,HTTP Request,200,OK,Thread Group 1-105,text,true,,1038,3206,26,26,160,0,48
1536178408726,183,HTTP Request,200,OK,Thread Group 1-104,text,true,,1038,3206,26,26,183,0,48
1536178408685,246,HTTP Request,200,OK,Thread Group 1-102,text,true,,1038,3206,26,26,246,0,49
1536178408462,509,HTTP Request,200,OK,Thread Group 1-91,text,true,,1038,3206,27,27,509,0,48
1536178408827,146,HTTP Request,200,OK,Thread Group 1-109,text,true,,1038,3206,26,26,146,0,47
1536178408645,332,HTTP Request,200,OK,Thread Group 1-100,text,true,,1038,3206,25,25,332,0,49
1536178408665,341,HTTP Request,200,OK,Thread Group 1-101,text,true,,943,3206,25,25,341,0,49
1536178408786,237,HTTP Request,200,OK,Thread Group 1-107,text,true,,1038,3206,25,25,236,0,49
1536178408442,590,HTTP Request,200,OK,Thread Group 1-90,text,true,,1038,3206,25,25,590,0,52
1536178408766,267,HTTP Request,200,OK,Thread Group 1-106,text,true,,943,3206,24,24,267,0,47
1536178408887,171,HTTP Request,200,OK,Thread Group 1-112,text,true,,1038,3206,24,24,171,0,51
1536178408847,255,HTTP Request,200,OK,Thread Group 1-110,text,true,,1038,3206,25,25,255,0,51
1536178408950,176,HTTP Request,200,OK,Thread Group 1-115,text,true,,1038,3206,25,25,176,0,48
1536178408908,236,HTTP Request,200,OK,Thread Group 1-113,text,true,,1038,3206,25,25,236,0,50
1536178408990,174,HTTP Request,200,OK,Thread Group 1-117,text,true,,1038,3206,25,25,174,0,48
1536178408806,379,HTTP Request,200,OK,Thread Group 1-108,text,true,,1038,3206,25,25,379,0,50
1536178409010,177,HTTP Request,200,OK,Thread Group 1-118,text,true,,943,3206,24,24,177,0,48
1536178409030,180,HTTP Request,200,OK,Thread Group 1-119,text,true,,1038,3206,24,24,180,0,48
1536178408928,286,HTTP Request,200,OK,Thread Group 1-114,text,true,,1038,3206,23,23,286,0,50
1536178408868,385,HTTP Request,200,OK,Thread Group 1-111,text,true,,943,3206,24,24,385,0,54
1536178408971,317,HTTP Request,200,OK,Thread Group 1-116,text,true,,1038,3206,24,24,317,0,51
1536178409075,216,HTTP Request,200,OK,Thread Group 1-121,text,true,,1038,3206,24,24,216,0,51
1536178409095,213,HTTP Request,200,OK,Thread Group 1-122,text,true,,1038,3206,23,23,213,0,50
1536178409156,153,HTTP Request,200,OK,Thread Group 1-125,text,true,,1038,3206,22,22,153,0,54
1536178409054,266,HTTP Request,200,OK,Thread Group 1-120,text,true,,943,3206,22,22,266,0,52
1536178409222,155,HTTP Request,200,OK,Thread Group 1-128,text,true,,1038,3206,24,24,155,0,52
1536178409135,247,HTTP Request,200,OK,Thread Group 1-124,text,true,,1038,3206,23,23,247,0,53
1536178409243,174,HTTP Request,200,OK,Thread Group 1-129,text,true,,1038,3206,24,24,174,0,51
1536178409115,317,HTTP Request,200,OK,Thread Group 1-123,text,true,,1038,3206,23,23,317,0,47
1536178409195,306,HTTP Request,200,OK,Thread Group 1-127,text,true,,1038,3206,26,26,306,0,51
1536178409290,211,HTTP Request,200,OK,Thread Group 1-131,text,true,,1038,3206,25,25,211,0,48
1536178409176,347,HTTP Request,200,OK,Thread Group 1-126,text,true,,1038,3206,25,25,347,0,54
1536178409310,226,HTTP Request,200,OK,Thread Group 1-132,text,true,,1038,3206,24,24,226,0,48
1536178409395,186,HTTP Request,200,OK,Thread Group 1-136,text,true,,1038,3206,26,26,186,0,47
1536178409349,236,HTTP Request,200,OK,Thread Group 1-133,text,true,,1038,3206,25,25,236,0,49
1536178409355,232,HTTP Request,200,OK,Thread Group 1-134,text,true,,1038,3206,24,24,232,0,51
1536178409436,193,HTTP Request,200,OK,Thread Group 1-138,text,true,,1038,3206,25,25,193,0,50
1536178409456,208,HTTP Request,200,OK,Thread Group 1-139,text,true,,1038,3206,26,26,208,0,53
1536178409375,318,HTTP Request,200,OK,Thread Group 1-135,text,true,,1038,3206,26,26,318,0,51
1536178409517,180,HTTP Request,200,OK,Thread Group 1-142,text,true,,1038,3206,25,25,180,0,49
1536178409475,236,HTTP Request,200,OK,Thread Group 1-140,text,true,,1038,3206,25,25,236,0,51
1536178409538,190,HTTP Request,200,OK,Thread Group 1-143,text,true,,1038,3206,25,25,190,0,48
1536178409270,475,HTTP Request,200,OK,Thread Group 1-130,text,true,,1038,3206,25,25,475,0,47
1536178409416,333,HTTP Request,200,OK,Thread Group 1-137,text,true,,1038,3206,24,24,333,0,50
1536178409598,152,HTTP Request,200,OK,Thread Group 1-146,text,true,,1038,3206,23,23,152,0,48
1536178409578,196,HTTP Request,200,OK,Thread Group 1-145,text,true,,1038,3206,23,23,196,0,48
1536178409618,203,HTTP Request,200,OK,Thread Group 1-147,text,true,,1038,3206,25,25,203,0,49
1536178409719,135,HTTP Request,200,OK,Thread Group 1-152,text,true,,1038,3206,25,25,135,0,51
1536178409496,368,HTTP Request,200,OK,Thread Group 1-141,text,true,,1038,3206,25,25,368,0,50
1536178409558,315,HTTP Request,200,OK,Thread Group 1-144,text,true,,1038,3206,24,24,315,0,48
1536178409659,224,HTTP Request,200,OK,Thread Group 1-149,text,true,,1038,3206,24,24,224,0,47
1536178409699,218,HTTP Request,200,OK,Thread Group 1-151,text,true,,1038,3206,24,24,218,0,51
1536178409800,129,HTTP Request,200,OK,Thread Group 1-156,text,true,,1038,3206,24,24,129,0,50
1536178409780,175,HTTP Request,200,OK,Thread Group 1-155,text,true,,1038,3206,24,24,175,0,50
1536178409821,157,HTTP Request,200,OK,Thread Group 1-157,text,true,,1038,3206,24,24,157,0,53
1536178409841,187,HTTP Request,200,OK,Thread Group 1-158,text,true,,1038,3206,26,26,187,0,49
1536178409861,205,HTTP Request,200,OK,Thread Group 1-159,text,true,,1038,3206,27,27,205,0,49
1536178409901,167,HTTP Request,200,OK,Thread Group 1-161,text,true,,1038,3206,26,26,167,0,49
1536178409881,212,HTTP Request,200,OK,Thread Group 1-160,text,true,,1038,3206,26,26,212,0,48
1536178409740,387,HTTP Request,200,OK,Thread Group 1-153,text,true,,1038,3206,27,27,387,0,50
1536178409962,167,HTTP Request,200,OK,Thread Group 1-164,text,true,,943,3206,26,26,167,0,52
1536178409679,467,HTTP Request,200,OK,Thread Group 1-150,text,true,,1038,3206,26,26,467,0,50
1536178409922,227,HTTP Request,200,OK,Thread Group 1-162,text,true,,943,3206,25,25,227,0,48
1536178410023,132,HTTP Request,200,OK,Thread Group 1-167,text,true,,1038,3206,24,24,132,0,51
1536178409760,416,HTTP Request,200,OK,Thread Group 1-154,text,true,,1038,3206,24,24,416,0,49
1536178409982,203,HTTP Request,200,OK,Thread Group 1-165,text,true,,1038,3206,24,24,203,0,48
1536178409943,242,HTTP Request,200,OK,Thread Group 1-163,text,true,,1038,3206,24,24,242,0,51
1536178409639,555,HTTP Request,200,OK,Thread Group 1-148,text,true,,1038,3206,22,22,555,0,47
1536178410063,190,HTTP Request,200,OK,Thread Group 1-169,text,true,,943,3206,24,24,190,0,51
1536178410125,151,HTTP Request,200,OK,Thread Group 1-172,text,true,,1038,3206,24,24,151,0,52
1536178410043,233,HTTP Request,200,OK,Thread Group 1-168,text,true,,943,3206,23,23,233,0,51
1536178410002,308,HTTP Request,200,OK,Thread Group 1-166,text,true,,1038,3206,24,24,308,0,48
1536178410225,147,HTTP Request,200,OK,Thread Group 1-177,text,true,,1038,3206,25,25,147,0,49
1536178410083,309,HTTP Request,200,OK,Thread Group 1-170,text,true,,1038,3206,25,25,309,0,51
1536178410205,233,HTTP Request,200,OK,Thread Group 1-176,text,true,,1038,3206,26,26,233,0,49
1536178410290,155,HTTP Request,200,OK,Thread Group 1-180,text,true,,943,3206,25,25,155,0,56
1536178410164,319,HTTP Request,200,OK,Thread Group 1-174,text,true,,943,3206,26,26,319,0,50
1536178410270,238,HTTP Request,200,OK,Thread Group 1-179,text,true,,1038,3206,26,26,238,0,48
1536178410144,380,HTTP Request,200,OK,Thread Group 1-173,text,true,,1038,3206,26,26,380,0,50
1536178410103,422,HTTP Request,200,OK,Thread Group 1-171,text,true,,1038,3206,25,25,422,0,51
1536178410412,146,HTTP Request,200,OK,Thread Group 1-185,text,true,,1038,3206,25,25,146,0,54
1536178410249,321,HTTP Request,200,OK,Thread Group 1-178,text,true,,1038,3206,25,25,321,0,49
1536178410184,396,HTTP Request,200,OK,Thread Group 1-175,text,true,,1038,3206,24,24,396,0,54
1536178410310,296,HTTP Request,200,OK,Thread Group 1-181,text,true,,1038,3206,24,24,296,0,48
1536178410362,251,HTTP Request,200,OK,Thread Group 1-183,text,true,,1038,3206,23,23,251,0,48
1536178410333,298,HTTP Request,200,OK,Thread Group 1-182,text,true,,943,3206,23,23,298,0,65
1536178410391,242,HTTP Request,200,OK,Thread Group 1-184,text,true,,1038,3206,22,22,242,0,51
1536178410501,150,HTTP Request,200,OK,Thread Group 1-189,text,true,,943,3206,22,22,150,0,49
1536178410458,287,HTTP Request,200,OK,Thread Group 1-187,text,true,,1038,3206,24,24,287,0,48
1536178410543,206,HTTP Request,200,OK,Thread Group 1-191,text,true,,1038,3206,23,23,206,0,47
1536178410435,316,HTTP Request,200,OK,Thread Group 1-186,text,true,,1038,3206,23,23,316,0,51
1536178410604,154,HTTP Request,200,OK,Thread Group 1-193,text,true,,1038,3206,22,22,154,0,49
1536178410481,285,HTTP Request,200,OK,Thread Group 1-188,text,true,,943,3206,21,21,285,0,49
1536178410564,224,HTTP Request,200,OK,Thread Group 1-192,text,true,,1038,3206,21,21,224,0,54
1536178410521,335,HTTP Request,200,OK,Thread Group 1-190,text,true,,943,3206,23,23,335,0,51
1536178410624,249,HTTP Request,200,OK,Thread Group 1-194,text,true,,1038,3206,22,22,249,0,50
1536178410751,142,HTTP Request,200,OK,Thread Group 1-199,text,true,,943,3206,22,22,142,0,51
1536178410695,204,HTTP Request,200,OK,Thread Group 1-197,text,true,,1038,3206,22,22,204,0,51
1536178410675,259,HTTP Request,200,OK,Thread Group 1-196,text,true,,1038,3206,22,22,259,0,51
1536178410854,125,HTTP Request,200,OK,Thread Group 1-203,text,true,,943,3206,23,23,125,0,48
1536178410875,135,HTTP Request,200,OK,Thread Group 1-204,text,true,,943,3206,23,23,135,0,47
1536178410918,152,HTTP Request,200,OK,Thread Group 1-206,text,true,,1038,3206,25,25,152,0,48
1536178410942,129,HTTP Request,200,OK,Thread Group 1-207,text,true,,1038,3206,24,24,129,0,48
1536178410803,274,HTTP Request,200,OK,Thread Group 1-201,text,true,,943,3206,23,23,274,0,51
1536178410896,225,HTTP Request,200,OK,Thread Group 1-205,text,true,,943,3206,24,24,224,0,50
1536178410967,209,HTTP Request,200,OK,Thread Group 1-208,text,true,,943,3206,25,25,209,0,47
1536178411015,165,HTTP Request,200,OK,Thread Group 1-210,text,true,,1038,3206,24,24,164,0,46
1536178411066,122,HTTP Request,200,OK,Thread Group 1-212,text,true,,943,3206,24,24,122,0,48
1536178411042,159,HTTP Request,200,OK,Thread Group 1-211,text,true,,1038,3206,23,23,159,0,48
1536178411094,137,HTTP Request,200,OK,Thread Group 1-213,text,true,,943,3206,23,23,137,0,49
1536178410780,465,HTTP Request,200,OK,Thread Group 1-200,text,true,,943,3206,23,23,465,0,50
1536178410644,628,HTTP Request,200,OK,Thread Group 1-195,text,true,,1038,3206,23,23,628,0,50
1536178411138,139,HTTP Request,200,OK,Thread Group 1-215,text,true,,1038,3206,22,22,139,0,48
1536178411159,149,HTTP Request,200,OK,Thread Group 1-216,text,true,,943,3206,23,23,149,0,47
1536178410719,627,HTTP Request,200,OK,Thread Group 1-198,text,true,,1038,3206,24,24,627,0,51
1536178410827,544,HTTP Request,200,OK,Thread Group 1-202,text,true,,1038,3206,24,24,544,0,47
1536178411222,154,HTTP Request,200,OK,Thread Group 1-218,text,true,,943,3206,23,23,154,0,48
1536178411243,160,HTTP Request,200,OK,Thread Group 1-219,text,true,,943,3206,23,23,160,0,51
1536178411283,157,HTTP Request,200,OK,Thread Group 1-221,text,true,,943,3206,24,24,157,0,47
1536178410991,454,HTTP Request,200,OK,Thread Group 1-209,text,true,,1038,3206,23,23,454,0,51
1536178411304,164,HTTP Request,200,OK,Thread Group 1-222,text,true,,1038,3206,24,24,164,0,50
1536178411115,357,HTTP Request,200,OK,Thread Group 1-214,text,true,,1038,3206,23,23,357,0,46
1536178411263,211,HTTP Request,200,OK,Thread Group 1-220,text,true,,1038,3206,22,22,211,0,47
1536178411324,214,HTTP Request,200,OK,Thread Group 1-223,text,true,,1038,3206,23,23,214,0,50
1536178411384,164,HTTP Request,200,OK,Thread Group 1-226,text,true,,943,3206,23,23,164,0,50
1536178411344,209,HTTP Request,200,OK,Thread Group 1-224,text,true,,1038,3206,22,22,209,0,50
1536178411186,399,HTTP Request,200,OK,Thread Group 1-217,text,true,,943,3206,23,23,399,0,52
1536178411364,222,HTTP Request,200,OK,Thread Group 1-225,text,true,,1038,3206,22,22,222,0,50
1536178411425,199,HTTP Request,200,OK,Thread Group 1-228,text,true,,1038,3206,22,22,199,0,49
1536178411445,192,HTTP Request,200,OK,Thread Group 1-229,text,true,,943,3206,21,21,192,0,49
1536178411544,143,HTTP Request,200,OK,Thread Group 1-233,text,true,,1038,3206,23,23,143,0,50
1536178411504,196,HTTP Request,200,OK,Thread Group 1-231,text,true,,943,3206,22,22,196,0,50
1536178411579,160,HTTP Request,200,OK,Thread Group 1-235,text,true,,943,3206,23,23,160,0,51
1536178411623,129,HTTP Request,200,OK,Thread Group 1-236,text,true,,943,3206,23,23,129,0,51
1536178411564,189,HTTP Request,200,OK,Thread Group 1-234,text,true,,1038,3206,22,22,189,0,49
1536178411405,367,HTTP Request,200,OK,Thread Group 1-227,text,true,,1038,3206,22,22,367,0,49
1536178411643,166,HTTP Request,200,OK,Thread Group 1-237,text,true,,943,3206,23,23,166,0,51
1536178411683,150,HTTP Request,200,OK,Thread Group 1-239,text,true,,943,3206,23,23,150,0,50
1536178411663,188,HTTP Request,200,OK,Thread Group 1-238,text,true,,943,3206,23,23,188,0,47
1536178411465,396,HTTP Request,200,OK,Thread Group 1-230,text,true,,1038,3206,22,22,396,0,49
1536178411524,342,HTTP Request,200,OK,Thread Group 1-232,text,true,,1038,3206,21,21,342,0,50
1536178411744,149,HTTP Request,200,OK,Thread Group 1-242,text,true,,1038,3206,22,22,149,0,50
1536178411763,130,HTTP Request,200,OK,Thread Group 1-243,text,true,,1038,3206,21,21,130,0,51
1536178411703,194,HTTP Request,200,OK,Thread Group 1-240,text,true,,1038,3206,20,20,194,0,46
1536178411784,135,HTTP Request,200,OK,Thread Group 1-244,text,true,,943,3206,20,20,135,0,50
1536178411724,202,HTTP Request,200,OK,Thread Group 1-241,text,true,,1038,3206,19,19,202,0,50
1536178411805,168,HTTP Request,200,OK,Thread Group 1-245,text,true,,1038,3206,21,21,168,0,49
1536178411846,152,HTTP Request,200,OK,Thread Group 1-247,text,true,,1038,3206,21,21,152,0,48
1536178411885,140,HTTP Request,200,OK,Thread Group 1-249,text,true,,1038,3206,21,21,140,0,49
1536178411927,121,HTTP Request,200,OK,Thread Group 1-251,text,true,,1038,3206,22,22,121,0,47
1536178411906,225,HTTP Request,200,OK,Thread Group 1-250,text,true,,1038,3206,25,25,225,0,48
1536178411947,185,HTTP Request,200,OK,Thread Group 1-252,text,true,,1038,3206,24,24,185,0,51
1536178412007,131,HTTP Request,200,OK,Thread Group 1-255,text,true,,1038,3206,23,23,131,0,51
1536178411987,177,HTTP Request,200,OK,Thread Group 1-254,text,true,,943,3206,23,23,177,0,47
1536178411967,203,HTTP Request,200,OK,Thread Group 1-253,text,true,,943,3206,23,23,203,0,47
1536178411866,310,HTTP Request,200,OK,Thread Group 1-248,text,true,,943,3206,22,22,310,0,52
1536178411825,361,HTTP Request,200,OK,Thread Group 1-246,text,true,,1038,3206,21,21,361,0,53
1536178412028,179,HTTP Request,200,OK,Thread Group 1-256,text,true,,943,3206,21,21,179,0,54
1536178412048,180,HTTP Request,200,OK,Thread Group 1-257,text,true,,1038,3206,21,21,180,0,50
1536178412088,155,HTTP Request,200,OK,Thread Group 1-259,text,true,,1038,3206,21,21,155,0,50
1536178412108,149,HTTP Request,200,OK,Thread Group 1-260,text,true,,943,3206,21,21,149,0,50
1536178412068,232,HTTP Request,200,OK,Thread Group 1-258,text,true,,1038,3206,22,22,232,0,50
1536178412149,160,HTTP Request,200,OK,Thread Group 1-262,text,true,,943,3206,21,21,160,0,49
1536178412128,216,HTTP Request,200,OK,Thread Group 1-261,text,true,,1038,3206,22,22,216,0,49
1536178412229,157,HTTP Request,200,OK,Thread Group 1-266,text,true,,1038,3206,23,23,157,0,49
1536178412168,219,HTTP Request,200,OK,Thread Group 1-263,text,true,,943,3206,23,23,219,0,50
1536178406985,5432,HTTP Request,200,OK,Thread Group 1-22,text,true,,1038,3206,23,23,5432,0,196
1536178412189,229,HTTP Request,200,OK,Thread Group 1-264,text,true,,1038,3206,22,22,229,0,49
1536178412270,156,HTTP Request,200,OK,Thread Group 1-268,text,true,,1038,3206,21,21,156,0,48
1536178412310,139,HTTP Request,200,OK,Thread Group 1-270,text,true,,1038,3206,21,21,139,0,48
1536178412250,208,HTTP Request,200,OK,Thread Group 1-267,text,true,,1038,3206,21,21,208,0,48
1536178406629,5841,HTTP Request,200,OK,Thread Group 1-5,text,true,,1038,3206,20,20,5841,0,552
1536178412209,262,HTTP Request,200,OK,Thread Group 1-265,text,true,,943,3206,19,19,262,0,49
1536178412351,127,HTTP Request,200,OK,Thread Group 1-272,text,true,,943,3206,19,19,127,0,51
1536178412371,152,HTTP Request,200,OK,Thread Group 1-273,text,true,,1038,3206,20,20,152,0,51
1536178412330,215,HTTP Request,200,OK,Thread Group 1-271,text,true,,1038,3206,20,20,215,0,48
1536178412431,204,HTTP Request,200,OK,Thread Group 1-276,text,true,,1038,3206,23,23,204,0,51
1536178412472,166,HTTP Request,200,OK,Thread Group 1-278,text,true,,1038,3206,22,22,166,0,50
1536178412452,199,HTTP Request,200,OK,Thread Group 1-277,text,true,,1038,3206,22,22,199,0,51
1536178412391,273,HTTP Request,200,OK,Thread Group 1-274,text,true,,1038,3206,21,21,273,0,51
1536178412495,171,HTTP Request,200,OK,Thread Group 1-279,text,true,,1038,3206,20,20,171,0,51
1536178412535,143,HTTP Request,200,OK,Thread Group 1-281,text,true,,1038,3206,19,19,143,0,51
1536178412515,205,HTTP Request,200,OK,Thread Group 1-280,text,true,,1038,3206,19,19,205,0,50
1536178412411,333,HTTP Request,200,OK,Thread Group 1-275,text,true,,1038,3206,18,18,333,0,51
1536178412556,195,HTTP Request,200,OK,Thread Group 1-282,text,true,,1038,3206,17,17,195,0,53
1536178412601,161,HTTP Request,200,OK,Thread Group 1-284,text,true,,943,3206,16,16,161,0,49
1536178412290,487,HTTP Request,200,OK,Thread Group 1-269,text,true,,943,3206,15,15,487,0,48
1536178412621,176,HTTP Request,200,OK,Thread Group 1-285,text,true,,1038,3206,14,14,176,0,48
1536178412684,156,HTTP Request,200,OK,Thread Group 1-287,text,true,,1038,3206,14,14,156,0,50
1536178412580,291,HTTP Request,200,OK,Thread Group 1-283,text,true,,1038,3206,14,14,291,0,50
1536178412642,229,HTTP Request,200,OK,Thread Group 1-286,text,true,,943,3206,13,13,229,0,47
1536178407026,5928,HTTP Request,200,OK,Thread Group 1-24,text,true,,1038,3206,15,15,5928,0,155
1536178412851,117,HTTP Request,200,OK,Thread Group 1-289,text,true,,943,3206,15,15,117,0,47
1536178412910,155,HTTP Request,200,OK,Thread Group 1-291,text,true,,943,3206,17,17,155,0,48
1536178412966,141,HTTP Request,200,OK,Thread Group 1-293,text,true,,1038,3206,18,18,141,0,48
1536178412882,266,HTTP Request,200,OK,Thread Group 1-290,text,true,,943,3206,18,18,266,0,48
1536178413011,153,HTTP Request,200,OK,Thread Group 1-295,text,true,,943,3206,18,18,153,0,51
1536178413047,137,HTTP Request,200,OK,Thread Group 1-296,text,true,,1038,3206,17,17,137,0,51
1536178412820,381,HTTP Request,200,OK,Thread Group 1-288,text,true,,1038,3206,16,16,381,0,50
1536178412987,230,HTTP Request,200,OK,Thread Group 1-294,text,true,,943,3206,16,16,230,0,47
1536178413066,172,HTTP Request,200,OK,Thread Group 1-297,text,true,,1038,3206,17,17,172,0,64
1536178413129,163,HTTP Request,200,OK,Thread Group 1-299,text,true,,1038,3206,18,18,163,0,49
1536178413152,194,HTTP Request,200,OK,Thread Group 1-300,text,true,,1038,3206,19,19,194,0,50
1536178413255,136,HTTP Request,200,OK,Thread Group 1-304,text,true,,1038,3206,20,20,136,0,51
1536178413226,197,HTTP Request,200,OK,Thread Group 1-301,text,true,,1038,3206,20,20,197,0,47
1536178413303,136,HTTP Request,200,OK,Thread Group 1-306,text,true,,1038,3206,20,20,136,0,47
1536178413235,232,HTTP Request,200,OK,Thread Group 1-303,text,true,,1038,3206,21,21,232,0,46
1536178413099,369,HTTP Request,200,OK,Thread Group 1-298,text,true,,1038,3206,20,20,369,0,47
1536178412931,563,HTTP Request,200,OK,Thread Group 1-292,text,true,,1038,3206,20,20,563,0,47
1536178413282,269,HTTP Request,200,OK,Thread Group 1-305,text,true,,1038,3206,20,20,269,0,48
1536178413398,186,HTTP Request,200,OK,Thread Group 1-310,text,true,,1038,3206,19,19,186,0,48
1536178413204,386,HTTP Request,200,OK,Thread Group 1-302,text,true,,943,3206,19,19,386,0,50
1536178413426,198,HTTP Request,200,OK,Thread Group 1-311,text,true,,1038,3206,19,19,198,0,49
1536178413518,147,HTTP Request,200,OK,Thread Group 1-315,text,true,,1038,3206,20,20,147,0,52
1536178413352,326,HTTP Request,200,OK,Thread Group 1-308,text,true,,1038,3206,19,19,326,0,50
1536178413377,321,HTTP Request,200,OK,Thread Group 1-309,text,true,,1038,3206,19,19,321,0,49
1536178413491,209,HTTP Request,200,OK,Thread Group 1-314,text,true,,1038,3206,18,18,209,0,51
1536178413467,289,HTTP Request,200,OK,Thread Group 1-313,text,true,,1038,3206,20,20,289,0,51
1536178413590,177,HTTP Request,200,OK,Thread Group 1-316,text,true,,1038,3206,19,19,177,0,52
1536178413331,454,HTTP Request,200,OK,Thread Group 1-307,text,true,,1038,3206,19,19,454,0,47
1536178413663,151,HTTP Request,200,OK,Thread Group 1-319,text,true,,1038,3206,20,20,151,0,51
1536178413683,132,HTTP Request,200,OK,Thread Group 1-320,text,true,,1038,3206,19,19,132,0,47
1536178413447,386,HTTP Request,200,OK,Thread Group 1-312,text,true,,1038,3206,19,19,386,0,50
1536178413625,217,HTTP Request,200,OK,Thread Group 1-318,text,true,,1038,3206,18,18,217,0,49
1536178413601,251,HTTP Request,200,OK,Thread Group 1-317,text,true,,1038,3206,18,18,251,0,48
1536178413711,221,HTTP Request,200,OK,Thread Group 1-321,text,true,,1038,3206,20,20,221,0,47
1536178413812,122,HTTP Request,200,OK,Thread Group 1-326,text,true,,1038,3206,20,20,122,0,49
1536178413731,237,HTTP Request,200,OK,Thread Group 1-322,text,true,,1038,3206,20,20,237,0,47
1536178413772,198,HTTP Request,200,OK,Thread Group 1-324,text,true,,1038,3206,19,19,198,0,49
1536178413792,182,HTTP Request,200,OK,Thread Group 1-325,text,true,,1038,3206,19,19,182,0,49
1536178413852,164,HTTP Request,200,OK,Thread Group 1-328,text,true,,1038,3206,20,20,164,0,49
1536178413751,278,HTTP Request,200,OK,Thread Group 1-323,text,true,,1038,3206,19,19,278,0,47
1536178413873,159,HTTP Request,200,OK,Thread Group 1-329,text,true,,1038,3206,18,18,159,0,48
1536178413893,139,HTTP Request,200,OK,Thread Group 1-330,text,true,,1038,3206,18,18,139,0,48
1536178406965,7075,HTTP Request,200,OK,Thread Group 1-21,text,true,,943,3206,17,17,7075,0,218
1536178413973,118,HTTP Request,200,OK,Thread Group 1-334,text,true,,1038,3206,18,18,118,0,49
1536178413994,156,HTTP Request,200,OK,Thread Group 1-335,text,true,,1038,3206,20,20,156,0,47
1536178413832,321,HTTP Request,200,OK,Thread Group 1-327,text,true,,1038,3206,19,19,321,0,50
1536178413933,224,HTTP Request,200,OK,Thread Group 1-332,text,true,,1038,3206,18,18,224,0,49
1536178414034,130,HTTP Request,200,OK,Thread Group 1-337,text,true,,1038,3206,18,18,130,0,48
1536178406730,7459,HTTP Request,200,OK,Thread Group 1-10,text,true,,1038,3206,18,18,7459,0,452
1536178413913,295,HTTP Request,200,OK,Thread Group 1-331,text,true,,1038,3206,18,18,295,0,49
1536178414014,207,HTTP Request,200,OK,Thread Group 1-336,text,true,,1038,3206,18,18,207,0,52
1536178414098,138,HTTP Request,200,OK,Thread Group 1-340,text,true,,1038,3206,17,17,138,0,52
1536178413953,332,HTTP Request,200,OK,Thread Group 1-333,text,true,,1038,3206,19,19,332,0,49
1536178414179,127,HTTP Request,200,OK,Thread Group 1-344,text,true,,1038,3206,19,19,127,0,51
1536178414220,145,HTTP Request,200,OK,Thread Group 1-346,text,true,,1038,3206,21,21,145,0,49
1536178414259,130,HTTP Request,200,OK,Thread Group 1-348,text,true,,1038,3206,21,21,130,0,50
1536178414159,239,HTTP Request,200,OK,Thread Group 1-343,text,true,,1038,3206,20,20,239,0,47
1536178414199,204,HTTP Request,200,OK,Thread Group 1-345,text,true,,1038,3206,20,20,204,0,55
1536178414074,339,HTTP Request,200,OK,Thread Group 1-339,text,true,,943,3206,19,19,339,0,48
1536178414300,128,HTTP Request,200,OK,Thread Group 1-350,text,true,,943,3206,19,19,128,0,49
1536178414119,312,HTTP Request,200,OK,Thread Group 1-341,text,true,,1038,3206,18,18,312,0,51
1536178414240,244,HTTP Request,200,OK,Thread Group 1-347,text,true,,1038,3206,20,20,244,0,50
1536178414340,167,HTTP Request,200,OK,Thread Group 1-352,text,true,,1038,3206,20,20,167,0,50
1536178414401,126,HTTP Request,200,OK,Thread Group 1-355,text,true,,1038,3206,20,20,126,0,49
1536178414461,115,HTTP Request,200,OK,Thread Group 1-358,text,true,,1038,3206,20,20,115,0,49
1536178414280,298,HTTP Request,200,OK,Thread Group 1-349,text,true,,1038,3206,20,20,298,0,54
1536178414421,158,HTTP Request,200,OK,Thread Group 1-356,text,true,,1038,3206,19,19,158,0,48
1536178414361,252,HTTP Request,200,OK,Thread Group 1-353,text,true,,1038,3206,19,19,252,0,49
1536178414320,311,HTTP Request,200,OK,Thread Group 1-351,text,true,,1038,3206,19,19,311,0,54
1536178414505,129,HTTP Request,200,OK,Thread Group 1-360,text,true,,943,3206,18,18,129,0,48
1536178414442,192,HTTP Request,200,OK,Thread Group 1-357,text,true,,1038,3206,17,17,192,0,48
1536178406834,7803,HTTP Request,200,OK,Thread Group 1-15,text,true,,943,3206,16,16,7803,0,348
1536178414381,261,HTTP Request,200,OK,Thread Group 1-354,text,true,,1038,3206,15,15,261,0,48
1536178414482,183,HTTP Request,200,OK,Thread Group 1-359,text,true,,1038,3206,15,15,183,0,48
1536178414138,533,HTTP Request,200,OK,Thread Group 1-342,text,true,,1038,3206,15,15,533,0,48
1536178407046,7631,HTTP Request,200,OK,Thread Group 1-25,text,true,,1038,3206,14,14,7631,0,132
1536178414597,115,HTTP Request,200,OK,Thread Group 1-364,text,true,,1038,3206,15,15,115,0,48
1536178414526,191,HTTP Request,200,OK,Thread Group 1-361,text,true,,1038,3206,14,14,191,0,48
1536178414577,186,HTTP Request,200,OK,Thread Group 1-363,text,true,,1038,3206,15,15,186,0,49
1536178414054,722,HTTP Request,200,OK,Thread Group 1-338,text,true,,1038,3206,15,15,722,0,48
1536178414666,117,HTTP Request,200,OK,Thread Group 1-367,text,true,,1038,3206,14,14,117,0,47
1536178414546,248,HTTP Request,200,OK,Thread Group 1-362,text,true,,1038,3206,13,13,248,0,48
1536178414625,187,HTTP Request,200,OK,Thread Group 1-365,text,true,,943,3206,13,13,187,0,49
1536178414686,183,HTTP Request,200,OK,Thread Group 1-368,text,true,,1038,3206,15,15,183,0,48
1536178414725,155,HTTP Request,200,OK,Thread Group 1-370,text,true,,1038,3206,15,15,155,0,49
1536178414746,142,HTTP Request,200,OK,Thread Group 1-371,text,true,,1038,3206,14,14,142,0,48
1536178406771,8126,HTTP Request,200,OK,Thread Group 1-12,text,true,,1038,3206,14,14,8126,0,409
1536178414774,163,HTTP Request,200,OK,Thread Group 1-372,text,true,,1038,3206,14,14,163,0,48
1536178414706,234,HTTP Request,200,OK,Thread Group 1-369,text,true,,1038,3206,14,14,234,0,47
1536178414815,156,HTTP Request,200,OK,Thread Group 1-374,text,true,,1038,3206,14,14,156,0,51
1536178414836,177,HTTP Request,200,OK,Thread Group 1-375,text,true,,1038,3206,15,15,177,0,49
1536178414856,169,HTTP Request,200,OK,Thread Group 1-376,text,true,,1038,3206,14,14,169,0,49
1536178414645,385,HTTP Request,200,OK,Thread Group 1-366,text,true,,943,3206,14,14,385,0,49
1536178414957,136,HTTP Request,200,OK,Thread Group 1-381,text,true,,1038,3206,16,16,136,0,49
1536178414876,238,HTTP Request,200,OK,Thread Group 1-377,text,true,,1038,3206,16,16,238,0,50
1536178414937,189,HTTP Request,200,OK,Thread Group 1-380,text,true,,1038,3206,15,15,189,0,52
1536178414917,255,HTTP Request,200,OK,Thread Group 1-379,text,true,,1038,3206,17,17,255,0,48
1536178414897,284,HTTP Request,200,OK,Thread Group 1-378,text,true,,1038,3206,16,16,284,0,48
1536178414795,420,HTTP Request,200,OK,Thread Group 1-373,text,true,,1038,3206,17,17,420,0,46
1536178415149,112,HTTP Request,200,OK,Thread Group 1-390,text,true,,1038,3206,18,18,112,0,48
1536178415068,200,HTTP Request,200,OK,Thread Group 1-386,text,true,,1038,3206,17,17,200,0,49
1536178415048,223,HTTP Request,200,OK,Thread Group 1-385,text,true,,1038,3206,17,17,223,0,50
1536178415007,278,HTTP Request,200,OK,Thread Group 1-383,text,true,,943,3206,16,16,278,0,51
1536178415128,173,HTTP Request,200,OK,Thread Group 1-389,text,true,,1038,3206,16,16,173,0,49
1536178415189,122,HTTP Request,200,OK,Thread Group 1-392,text,true,,1038,3206,16,16,122,0,49
1536178415108,263,HTTP Request,200,OK,Thread Group 1-388,text,true,,1038,3206,18,18,263,0,50
1536178415269,129,HTTP Request,200,OK,Thread Group 1-396,text,true,,943,3206,18,18,129,0,48
1536178415209,194,HTTP Request,200,OK,Thread Group 1-393,text,true,,1038,3206,17,17,194,0,48
1536178415229,177,HTTP Request,200,OK,Thread Group 1-394,text,true,,1038,3206,16,16,177,0,53
1536178415310,116,HTTP Request,200,OK,Thread Group 1-398,text,true,,943,3206,16,16,116,0,48
1536178415088,350,HTTP Request,200,OK,Thread Group 1-387,text,true,,1038,3206,16,16,350,0,50
1536178415028,411,HTTP Request,200,OK,Thread Group 1-384,text,true,,943,3206,15,15,411,0,50
1536178415390,110,HTTP Request,200,OK,Thread Group 1-402,text,true,,1038,3206,17,17,110,0,48
1536178415370,137,HTTP Request,200,OK,Thread Group 1-401,text,true,,1038,3206,16,16,137,0,48
1536178414983,536,HTTP Request,200,OK,Thread Group 1-382,text,true,,1038,3206,16,16,536,0,48
1536178415168,359,HTTP Request,200,OK,Thread Group 1-391,text,true,,943,3206,15,15,359,0,50
1536178415249,288,HTTP Request,200,OK,Thread Group 1-395,text,true,,1038,3206,15,15,288,0,48
1536178415350,207,HTTP Request,200,OK,Thread Group 1-400,text,true,,943,3206,15,15,207,0,48
1536178415330,228,HTTP Request,200,OK,Thread Group 1-399,text,true,,1038,3206,14,14,228,0,48
1536178415451,145,HTTP Request,200,OK,Thread Group 1-405,text,true,,1038,3206,15,15,145,0,47
1536178415491,133,HTTP Request,200,OK,Thread Group 1-407,text,true,,1038,3206,15,15,133,0,47
1536178415289,348,HTTP Request,200,OK,Thread Group 1-397,text,true,,943,3206,15,15,348,0,49
1536178415431,211,HTTP Request,200,OK,Thread Group 1-404,text,true,,1038,3206,14,14,211,0,47
1536178415411,267,HTTP Request,200,OK,Thread Group 1-403,text,true,,1038,3206,15,15,267,0,47
1536178415552,144,HTTP Request,200,OK,Thread Group 1-410,text,true,,943,3206,15,15,144,0,49
1536178415592,116,HTTP Request,200,OK,Thread Group 1-412,text,true,,1038,3206,14,14,116,0,50
1536178415511,262,HTTP Request,200,OK,Thread Group 1-408,text,true,,943,3206,17,17,262,0,50
1536178415653,136,HTTP Request,200,OK,Thread Group 1-415,text,true,,1038,3206,16,16,136,0,48
1536178415572,245,HTTP Request,200,OK,Thread Group 1-411,text,true,,943,3206,17,17,245,0,50
1536178415693,127,HTTP Request,200,OK,Thread Group 1-417,text,true,,943,3206,16,16,127,0,49
1536178415471,378,HTTP Request,200,OK,Thread Group 1-406,text,true,,1038,3206,16,16,378,0,47
1536178415733,154,HTTP Request,200,OK,Thread Group 1-419,text,true,,943,3206,17,17,154,0,53
1536178415753,135,HTTP Request,200,OK,Thread Group 1-420,text,true,,1038,3206,16,16,135,0,49
1536178415532,375,HTTP Request,200,OK,Thread Group 1-409,text,true,,1038,3206,16,16,375,0,49
1536178415612,327,HTTP Request,200,OK,Thread Group 1-413,text,true,,1038,3206,17,17,327,0,49
1536178415834,130,HTTP Request,200,OK,Thread Group 1-424,text,true,,1038,3206,17,17,130,0,48
1536178415673,293,HTTP Request,200,OK,Thread Group 1-416,text,true,,1038,3206,16,16,293,0,53
1536178415774,203,HTTP Request,200,OK,Thread Group 1-421,text,true,,1038,3206,16,16,203,0,48
1536178415874,114,HTTP Request,200,OK,Thread Group 1-426,text,true,,1038,3206,15,15,114,0,48
1536178415632,367,HTTP Request,200,OK,Thread Group 1-414,text,true,,1038,3206,15,15,367,0,49
1536178415713,337,HTTP Request,200,OK,Thread Group 1-418,text,true,,943,3206,16,16,337,0,48
1536178415814,252,HTTP Request,200,OK,Thread Group 1-423,text,true,,1038,3206,16,16,252,0,52
1536178415854,229,HTTP Request,200,OK,Thread Group 1-425,text,true,,1038,3206,16,16,229,0,48
1536178415955,148,HTTP Request,200,OK,Thread Group 1-430,text,true,,1038,3206,16,16,148,0,47
1536178415935,182,HTTP Request,200,OK,Thread Group 1-429,text,true,,1038,3206,16,16,182,0,46
1536178416016,133,HTTP Request,200,OK,Thread Group 1-433,text,true,,1038,3206,16,16,133,0,49
1536178415915,250,HTTP Request,200,OK,Thread Group 1-428,text,true,,1038,3206,16,16,250,0,47
1536178415894,282,HTTP Request,200,OK,Thread Group 1-427,text,true,,1038,3206,16,16,282,0,51
1536178416056,137,HTTP Request,200,OK,Thread Group 1-435,text,true,,1038,3206,15,15,137,0,50
1536178415794,401,HTTP Request,200,OK,Thread Group 1-422,text,true,,1038,3206,14,14,401,0,48
1536178416036,190,HTTP Request,200,OK,Thread Group 1-434,text,true,,1038,3206,15,15,190,0,49
1536178416076,156,HTTP Request,200,OK,Thread Group 1-436,text,true,,1038,3206,14,14,156,0,49
1536178416096,169,HTTP Request,200,OK,Thread Group 1-437,text,true,,1038,3206,15,15,169,0,49
1536178416136,175,HTTP Request,200,OK,Thread Group 1-439,text,true,,1038,3206,16,16,175,0,49
1536178416176,138,HTTP Request,200,OK,Thread Group 1-441,text,true,,1038,3206,15,15,138,0,49
1536178416216,120,HTTP Request,200,OK,Thread Group 1-443,text,true,,1038,3206,15,15,120,0,50
1536178416156,220,HTTP Request,200,OK,Thread Group 1-440,text,true,,1038,3206,16,16,220,0,49
1536178415995,390,HTTP Request,200,OK,Thread Group 1-432,text,true,,1038,3206,16,16,390,0,51
1536178416257,145,HTTP Request,200,OK,Thread Group 1-445,text,true,,1038,3206,15,15,145,0,49
1536178416278,129,HTTP Request,200,OK,Thread Group 1-446,text,true,,1038,3206,15,15,129,0,48
1536178415975,434,HTTP Request,200,OK,Thread Group 1-431,text,true,,1038,3206,14,14,434,0,47
1536178416116,304,HTTP Request,200,OK,Thread Group 1-438,text,true,,1038,3206,13,13,304,0,49
1536178416298,130,HTTP Request,200,OK,Thread Group 1-447,text,true,,1038,3206,13,13,130,0,47
1536178416197,231,HTTP Request,200,OK,Thread Group 1-442,text,true,,1038,3206,12,12,231,0,52
1536178416318,141,HTTP Request,200,OK,Thread Group 1-448,text,true,,1038,3206,12,12,141,0,48
1536178416358,173,HTTP Request,200,OK,Thread Group 1-450,text,true,,1038,3206,14,14,173,0,47
1536178416426,129,HTTP Request,200,OK,Thread Group 1-453,text,true,,1038,3206,15,15,129,0,48
1536178416338,290,HTTP Request,200,OK,Thread Group 1-449,text,true,,1038,3206,17,17,290,0,48
1536178416447,186,HTTP Request,200,OK,Thread Group 1-454,text,true,,1038,3206,16,16,186,0,51
1536178416237,407,HTTP Request,200,OK,Thread Group 1-444,text,true,,1038,3206,16,16,407,0,49
1536178416378,270,HTTP Request,200,OK,Thread Group 1-451,text,true,,1038,3206,15,15,270,0,47
1536178416533,124,HTTP Request,200,OK,Thread Group 1-458,text,true,,1038,3206,14,14,124,0,49
1536178416472,233,HTTP Request,200,OK,Thread Group 1-455,text,true,,1038,3206,15,15,233,0,50
1536178416491,225,HTTP Request,200,OK,Thread Group 1-456,text,true,,1038,3206,15,15,225,0,50
1536178416406,319,HTTP Request,200,OK,Thread Group 1-452,text,true,,1038,3206,14,14,319,0,50
1536178416513,244,HTTP Request,200,OK,Thread Group 1-457,text,true,,1038,3206,14,14,244,0,53
1536178416553,239,HTTP Request,200,OK,Thread Group 1-459,text,true,,1038,3206,14,14,239,0,48
1536178416593,215,HTTP Request,200,OK,Thread Group 1-461,text,true,,1038,3206,14,14,215,0,48
1536178416573,255,HTTP Request,200,OK,Thread Group 1-460,text,true,,1038,3206,14,14,255,0,48
1536178416706,165,HTTP Request,200,OK,Thread Group 1-466,text,true,,1038,3206,15,15,164,0,52
1536178416613,261,HTTP Request,200,OK,Thread Group 1-462,text,true,,1038,3206,14,14,261,0,48
1536178416679,227,HTTP Request,200,OK,Thread Group 1-465,text,true,,1038,3206,15,15,227,0,50
1536178416658,251,HTTP Request,200,OK,Thread Group 1-464,text,true,,1038,3206,14,14,251,0,48
1536178416740,216,HTTP Request,200,OK,Thread Group 1-467,text,true,,1038,3206,15,15,216,0,50
1536178416840,119,HTTP Request,200,OK,Thread Group 1-471,text,true,,1038,3206,14,14,119,0,53
1536178416800,181,HTTP Request,200,OK,Thread Group 1-469,text,true,,1038,3206,15,15,181,0,49
1536178416820,179,HTTP Request,200,OK,Thread Group 1-470,text,true,,1038,3206,14,14,179,0,49
1536178416921,110,HTTP Request,200,OK,Thread Group 1-475,text,true,,1038,3206,15,15,110,0,49
1536178416881,153,HTTP Request,200,OK,Thread Group 1-473,text,true,,1038,3206,14,14,153,0,48
1536178416780,286,HTTP Request,200,OK,Thread Group 1-468,text,true,,1038,3206,15,15,286,0,53
1536178416859,241,HTTP Request,200,OK,Thread Group 1-472,text,true,,1038,3206,15,15,241,0,51
1536178416980,142,HTTP Request,200,OK,Thread Group 1-478,text,true,,1038,3206,15,15,142,0,49
1536178416961,167,HTTP Request,200,OK,Thread Group 1-477,text,true,,943,3206,15,15,167,0,49
1536178416941,205,HTTP Request,200,OK,Thread Group 1-476,text,true,,1038,3206,15,15,205,0,48
1536178416901,265,HTTP Request,200,OK,Thread Group 1-474,text,true,,1038,3206,15,15,265,0,48
1536178417062,121,HTTP Request,200,OK,Thread Group 1-482,text,true,,1038,3206,15,15,121,0,47
1536178416634,571,HTTP Request,200,OK,Thread Group 1-463,text,true,,943,3206,15,15,571,0,48
1536178417042,193,HTTP Request,200,OK,Thread Group 1-481,text,true,,943,3206,15,15,193,0,48
1536178417002,251,HTTP Request,200,OK,Thread Group 1-479,text,true,,943,3206,15,15,251,0,47
1536178417123,133,HTTP Request,200,OK,Thread Group 1-485,text,true,,1038,3206,14,14,133,0,51
1536178417022,281,HTTP Request,200,OK,Thread Group 1-480,text,true,,1038,3206,15,15,281,0,47
1536178417102,204,HTTP Request,200,OK,Thread Group 1-484,text,true,,1038,3206,15,15,204,0,48
1536178417082,285,HTTP Request,200,OK,Thread Group 1-483,text,true,,943,3206,17,17,285,0,47
1536178417163,213,HTTP Request,200,OK,Thread Group 1-487,text,true,,1038,3206,16,16,213,0,55
1536178417144,247,HTTP Request,200,OK,Thread Group 1-486,text,true,,943,3206,16,16,247,0,50
1536178417183,208,HTTP Request,200,OK,Thread Group 1-488,text,true,,1038,3206,15,15,208,0,50
1536178417264,133,HTTP Request,200,OK,Thread Group 1-492,text,true,,1038,3206,14,14,133,0,49
1536178417223,191,HTTP Request,200,OK,Thread Group 1-490,text,true,,1038,3206,14,14,191,0,47
1536178417244,195,HTTP Request,200,OK,Thread Group 1-491,text,true,,943,3206,14,14,195,0,50
1536178417284,173,HTTP Request,200,OK,Thread Group 1-493,text,true,,943,3206,13,13,173,0,50
1536178417344,125,HTTP Request,200,OK,Thread Group 1-496,text,true,,1038,3206,12,12,125,0,49
1536178417203,269,HTTP Request,200,OK,Thread Group 1-489,text,true,,1038,3206,11,11,269,0,51
1536178417304,174,HTTP Request,200,OK,Thread Group 1-494,text,true,,1038,3206,10,10,174,0,49
1536178417324,217,HTTP Request,200,OK,Thread Group 1-495,text,true,,943,3206,9,9,217,0,49
1536178417426,129,HTTP Request,200,OK,Thread Group 1-500,text,true,,1038,3206,8,8,129,0,47
1536178417363,195,HTTP Request,200,OK,Thread Group 1-497,text,true,,1038,3206,7,7,195,0,51
1536178417405,175,HTTP Request,200,OK,Thread Group 1-499,text,true,,943,3206,6,6,175,0,49
1536178417385,324,HTTP Request,200,OK,Thread Group 1-498,text,true,,943,3206,5,5,324,0,48
1536178407006,15224,HTTP Request,200,OK,Thread Group 1-23,text,true,,407,3206,4,4,15224,0,176
1536178406612,15622,HTTP Request,200,OK,Thread Group 1-2,text,true,,407,3206,3,3,15622,0,568
1536178406914,15324,HTTP Request,200,OK,Thread Group 1-18,text,true,,407,3206,2,2,15324,0,267
1536178406710,15548,HTTP Request,200,OK,Thread Group 1-9,text,true,,407,3206,1,1,15548,0,516
