timeStamp,elapsed,label,responseCode,responseMessage,threadName,dataType,success,failureMessage,bytes,sentBytes,grpThreads,allThreads,Latency,IdleTime,Connect
1536179202911,313,HTTP Request,200,OK,Thread Group 1-11,text,true,,1038,3206,14,14,313,0,51
1536179202809,498,HTTP Request,200,OK,Thread Group 1-10,text,true,,1038,3206,13,13,498,0,53
1536179203112,238,HTTP Request,200,OK,Thread Group 1-13,text,true,,1038,3206,13,13,238,0,50
1536179203214,300,HTTP Request,200,OK,Thread Group 1-14,text,true,,1038,3206,13,13,300,0,52
1536179203315,219,HTTP Request,200,OK,Thread Group 1-15,text,true,,1038,3206,13,13,219,0,55
1536179203415,206,HTTP Request,200,OK,Thread Group 1-16,text,true,,1038,3206,13,13,206,0,55
1536179203516,178,HTTP Request,200,OK,Thread Group 1-17,text,true,,1038,3206,12,12,178,0,50
1536179203719,149,HTTP Request,200,OK,Thread Group 1-19,text,true,,1038,3206,13,13,149,0,51
1536179203616,312,HTTP Request,200,OK,Thread Group 1-18,text,true,,1038,3206,13,13,312,0,50
1536179203820,270,HTTP Request,200,OK,Thread Group 1-20,text,true,,1038,3206,13,13,270,0,50
1536179203919,355,HTTP Request,200,OK,Thread Group 1-21,text,true,,1038,3206,14,14,355,0,51
1536179204127,171,HTTP Request,200,OK,Thread Group 1-23,text,true,,1038,3206,13,13,171,0,51
1536179204028,345,HTTP Request,200,OK,Thread Group 1-22,text,true,,1038,3206,13,13,345,0,50
1536179204231,276,HTTP Request,200,OK,Thread Group 1-24,text,true,,1038,3206,13,13,276,0,51
1536179204335,210,HTTP Request,200,OK,Thread Group 1-25,text,true,,1038,3206,12,12,210,0,51
1536179204439,171,HTTP Request,200,OK,Thread Group 1-26,text,true,,1038,3206,12,12,171,0,52
1536179204547,216,HTTP Request,200,OK,Thread Group 1-27,text,true,,1038,3206,13,13,216,0,51
1536179204647,147,HTTP Request,200,OK,Thread Group 1-28,text,true,,1038,3206,12,12,147,0,55
1536179204748,228,HTTP Request,200,OK,Thread Group 1-29,text,true,,1038,3206,13,13,228,0,50
1536179204854,278,HTTP Request,200,OK,Thread Group 1-30,text,true,,1038,3206,13,13,278,0,48
1536179204962,244,HTTP Request,200,OK,Thread Group 1-31,text,true,,1038,3206,13,13,244,0,52
1536179205059,238,HTTP Request,200,OK,Thread Group 1-32,text,true,,1038,3206,13,13,238,0,51
1536179205265,214,HTTP Request,200,OK,Thread Group 1-34,text,true,,1038,3206,14,14,214,0,49
1536179205165,373,HTTP Request,200,OK,Thread Group 1-33,text,true,,1038,3206,13,13,373,0,49
1536179205373,179,HTTP Request,200,OK,Thread Group 1-35,text,true,,1038,3206,12,12,179,0,49
1536179205475,246,HTTP Request,200,OK,Thread Group 1-36,text,true,,1038,3206,13,13,246,0,51
1536179205583,206,HTTP Request,200,OK,Thread Group 1-37,text,true,,1038,3206,13,13,206,0,51
1536179205785,153,HTTP Request,200,OK,Thread Group 1-39,text,true,,1038,3206,13,13,153,0,49
1536179205684,270,HTTP Request,200,OK,Thread Group 1-38,text,true,,1038,3206,12,12,270,0,50
1536179205889,285,HTTP Request,200,OK,Thread Group 1-40,text,true,,1038,3206,13,13,285,0,53
1536179205990,284,HTTP Request,200,OK,Thread Group 1-41,text,true,,1038,3206,13,13,284,0,52
1536179206090,215,HTTP Request,200,OK,Thread Group 1-42,text,true,,1038,3206,13,13,215,0,48
1536179206190,306,HTTP Request,200,OK,Thread Group 1-43,text,true,,1038,3206,14,14,306,0,48
1536179206291,259,HTTP Request,200,OK,Thread Group 1-44,text,true,,1038,3206,13,13,259,0,51
1536179206391,169,HTTP Request,200,OK,Thread Group 1-45,text,true,,1038,3206,12,12,169,0,51
1536179206592,160,HTTP Request,200,OK,Thread Group 1-47,text,true,,1038,3206,13,13,160,0,50
1536179206491,333,HTTP Request,200,OK,Thread Group 1-46,text,true,,1038,3206,13,13,332,0,51
1536179206693,168,HTTP Request,200,OK,Thread Group 1-48,text,true,,1038,3206,12,12,168,0,49
1536179206892,236,HTTP Request,200,OK,Thread Group 1-50,text,true,,1038,3206,14,14,236,0,51
1536179206792,415,HTTP Request,200,OK,Thread Group 1-49,text,true,,1038,3206,14,14,415,0,50
1536179207093,219,HTTP Request,200,OK,Thread Group 1-52,text,true,,1038,3206,14,14,219,0,49
1536179206993,439,HTTP Request,200,OK,Thread Group 1-51,text,true,,1038,3206,14,14,439,0,49
1536179207193,271,HTTP Request,200,OK,Thread Group 1-53,text,true,,1038,3206,13,13,271,0,61
1536179207293,215,HTTP Request,200,OK,Thread Group 1-54,text,true,,1038,3206,13,13,215,0,49
1536179202296,5281,HTTP Request,200,OK,Thread Group 1-5,text,true,,1038,3206,12,12,5281,0,54
1536179207494,126,HTTP Request,200,OK,Thread Group 1-56,text,true,,1038,3206,12,12,126,0,48
1536179202086,5555,HTTP Request,200,OK,Thread Group 1-3,text,true,,1038,3206,11,11,5555,0,157
1536179207395,339,HTTP Request,200,OK,Thread Group 1-55,text,true,,1038,3206,11,11,339,0,47
1536179201986,5819,HTTP Request,200,OK,Thread Group 1-2,text,true,,1038,3206,11,11,5819,0,257
1536179207594,386,HTTP Request,200,OK,Thread Group 1-57,text,true,,1038,3206,11,11,386,0,48
1536179207995,222,HTTP Request,200,OK,Thread Group 1-61,text,true,,1038,3206,13,13,222,0,51
1536179207695,558,HTTP Request,200,OK,Thread Group 1-58,text,true,,1038,3206,12,12,558,0,51
1536179207796,459,HTTP Request,200,OK,Thread Group 1-59,text,true,,1038,3206,11,11,459,0,50
1536179207895,453,HTTP Request,200,OK,Thread Group 1-60,text,true,,1038,3206,11,11,453,0,51
1536179208097,336,HTTP Request,200,OK,Thread Group 1-62,text,true,,1038,3206,11,11,336,0,49
1536179208196,253,HTTP Request,200,OK,Thread Group 1-63,text,true,,1038,3206,10,10,253,0,50
1536179208296,222,HTTP Request,200,OK,Thread Group 1-64,text,true,,1038,3206,10,10,222,0,51
1536179208398,292,HTTP Request,200,OK,Thread Group 1-65,text,true,,1038,3206,10,10,292,0,48
1536179208497,322,HTTP Request,200,OK,Thread Group 1-66,text,true,,1038,3206,11,11,322,0,49
1536179202199,6784,HTTP Request,200,OK,Thread Group 1-4,text,true,,1038,3206,11,11,6784,0,55
1536179208597,395,HTTP Request,200,OK,Thread Group 1-67,text,true,,1038,3206,10,10,395,0,49
1536179208697,305,HTTP Request,200,OK,Thread Group 1-68,text,true,,1038,3206,10,10,305,0,49
1536179208799,262,HTTP Request,200,OK,Thread Group 1-69,text,true,,1038,3206,9,9,262,0,47
1536179201938,7130,HTTP Request,200,OK,Thread Group 1-1,text,true,,1038,3206,8,8,7130,0,298
1536179208898,180,HTTP Request,200,OK,Thread Group 1-70,text,true,,1038,3206,7,7,180,0,48
1536179209099,134,HTTP Request,200,OK,Thread Group 1-72,text,true,,1038,3206,8,8,134,0,51
1536179208998,262,HTTP Request,200,OK,Thread Group 1-71,text,true,,1038,3206,7,7,262,0,48
1536179209199,129,HTTP Request,200,OK,Thread Group 1-73,text,true,,1038,3206,7,7,129,0,47
1536179209299,196,HTTP Request,200,OK,Thread Group 1-74,text,true,,1038,3206,7,7,196,0,51
1536179209399,200,HTTP Request,200,OK,Thread Group 1-75,text,true,,1038,3206,7,7,200,0,51
1536179209500,139,HTTP Request,200,OK,Thread Group 1-76,text,true,,1038,3206,7,7,139,0,50
1536179209600,213,HTTP Request,200,OK,Thread Group 1-77,text,true,,1038,3206,7,7,213,0,50
1536179209700,183,HTTP Request,200,OK,Thread Group 1-78,text,true,,1038,3206,7,7,183,0,50
1536179209815,180,HTTP Request,200,OK,Thread Group 1-79,text,true,,1038,3206,7,7,180,0,51
1536179209923,177,HTTP Request,200,OK,Thread Group 1-80,text,true,,1038,3206,7,7,177,0,47
1536179210023,216,HTTP Request,200,OK,Thread Group 1-81,text,true,,1038,3206,8,8,216,0,52
1536179210122,258,HTTP Request,200,OK,Thread Group 1-82,text,true,,1038,3206,8,8,258,0,48
1536179210223,175,HTTP Request,200,OK,Thread Group 1-83,text,true,,1038,3206,7,7,175,0,55
1536179210322,265,HTTP Request,200,OK,Thread Group 1-84,text,true,,1038,3206,8,8,265,0,48
1536179210422,179,HTTP Request,200,OK,Thread Group 1-85,text,true,,1038,3206,7,7,179,0,52
1536179210622,176,HTTP Request,200,OK,Thread Group 1-87,text,true,,1038,3206,8,8,176,0,48
1536179210822,157,HTTP Request,200,OK,Thread Group 1-89,text,true,,1038,3206,9,9,157,0,48
1536179210522,485,HTTP Request,200,OK,Thread Group 1-86,text,true,,1038,3206,8,8,485,0,48
1536179210722,351,HTTP Request,200,OK,Thread Group 1-88,text,true,,1038,3206,8,8,351,0,48
1536179210922,180,HTTP Request,200,OK,Thread Group 1-90,text,true,,1038,3206,7,7,180,0,48
1536179211022,166,HTTP Request,200,OK,Thread Group 1-91,text,true,,1038,3206,7,7,166,0,49
1536179211222,152,HTTP Request,200,OK,Thread Group 1-93,text,true,,1038,3206,8,8,152,0,48
1536179211122,278,HTTP Request,200,OK,Thread Group 1-92,text,true,,1038,3206,7,7,278,0,48
1536179211322,110,HTTP Request,200,OK,Thread Group 1-94,text,true,,1038,3206,7,7,110,0,48
1536179211422,165,HTTP Request,200,OK,Thread Group 1-95,text,true,,1038,3206,7,7,164,0,48
1536179211621,272,HTTP Request,200,OK,Thread Group 1-97,text,true,,1038,3206,9,9,272,0,49
1536179211521,398,HTTP Request,200,OK,Thread Group 1-96,text,true,,1038,3206,8,8,398,0,49
1536179211819,161,HTTP Request,200,OK,Thread Group 1-99,text,true,,1038,3206,8,8,161,0,47
1536179211926,179,HTTP Request,200,OK,Thread Group 1-100,text,true,,1038,3206,7,7,179,0,48
1536179211722,484,HTTP Request,200,OK,Thread Group 1-98,text,true,,1038,3206,6,6,484,0,48
1536179202398,15072,HTTP Request,200,OK,Thread Group 1-6,text,true,,407,3206,5,5,15072,0,56
1536179202506,15074,HTTP Request,200,OK,Thread Group 1-7,text,true,,407,3206,4,4,15074,0,54
1536179202607,15079,HTTP Request,200,OK,Thread Group 1-8,text,true,,407,3206,3,3,15079,0,52
1536179202708,15075,HTTP Request,200,OK,Thread Group 1-9,text,true,,407,3206,2,2,15075,0,51
1536179203011,15079,HTTP Request,200,OK,Thread Group 1-12,text,true,,407,3206,1,1,15079,0,59
